capacitor_data_0412/TEK00052.CSV

Model,TBS2074B
Firmware Version,v1.32.136

Point Format,Y,
Horizontal Units,S,
Horizontal Scale,1e-05,
Sample Interval,8e-08,
Filter Frequency,2e+08,
Record Length,2000,
Gating,0.0% to 100.0%,0.0% to 100.0%
Probe Attenuation,1,1
Vertical Units,V,V
Vertical Offset,0,0
Vertical Scale,0.5,0.2
Label,,
TIME,CH1,CH2
-8.000e-05,-0.42,-0.296
-7.992e-05,-0.42,-0.296
-7.984e-05,-0.42,-0.296
-7.976e-05,-0.4,-0.288
-7.968e-05,-0.42,-0.288
-7.960e-05,-0.4,-0.288
-7.952e-05,-0.4,-0.288
-7.944e-05,-0.4,-0.288
-7.936e-05,-0.38,-0.288
-7.928e-05,-0.38,-0.28
-7.920e-05,-0.38,-0.28
-7.912e-05,-0.38,-0.28
-7.904e-05,-0.36,-0.28
-7.896e-05,-0.36,-0.28
-7.888e-05,-0.36,-0.28
-7.880e-05,-0.36,-0.272
-7.872e-05,-0.36,-0.264
-7.864e-05,-0.34,-0.264
-7.856e-05,-0.34,-0.264
-7.848e-05,-0.34,-0.264
-7.840e-05,-0.32,-0.256
-7.832e-05,-0.32,-0.256
-7.824e-05,-0.3,-0.248
-7.816e-05,-0.3,-0.248
-7.808e-05,-0.3,-0.24
-7.800e-05,-0.3,-0.24
-7.792e-05,-0.28,-0.24
-7.784e-05,-0.28,-0.232
-7.776e-05,-0.26,-0.232
-7.768e-05,-0.26,-0.232
-7.760e-05,-0.26,-0.224
-7.752e-05,-0.24,-0.216
-7.744e-05,-0.24,-0.216
-7.736e-05,-0.22,-0.208
-7.728e-05,-0.22,-0.208
-7.720e-05,-0.2,-0.2
-7.712e-05,-0.2,-0.2
-7.704e-05,-0.2,-0.192
-7.696e-05,-0.18,-0.184
-7.688e-05,-0.18,-0.184
-7.680e-05,-0.16,-0.176
-7.672e-05,-0.16,-0.176
-7.664e-05,-0.16,-0.168
-7.656e-05,-0.14,-0.16
-7.648e-05,-0.14,-0.152
-7.640e-05,-0.12,-0.152
-7.632e-05,-0.12,-0.144
-7.624e-05,-0.12,-0.144
-7.616e-05,-0.1,-0.136
-7.608e-05,-0.08,-0.136
-7.600e-05,-0.08,-0.128
-7.592e-05,-0.06,-0.12
-7.584e-05,-0.06,-0.112
-7.576e-05,-0.06,-0.112
-7.568e-05,-0.04,-0.104
-7.560e-05,-0.04,-0.096
-7.552e-05,-0.02,-0.096
-7.544e-05,-0.02,-0.088
-7.536e-05,-0.02,-0.08
-7.528e-05,0,-0.072
-7.520e-05,0.02,-0.064
-7.512e-05,0.02,-0.064
-7.504e-05,0.04,-0.056
-7.496e-05,0.04,-0.056
-7.488e-05,0.06,-0.04
-7.480e-05,0.06,-0.04
-7.472e-05,0.08,-0.032
-7.464e-05,0.08,-0.024
-7.456e-05,0.1,-0.024
-7.448e-05,0.1,-0.016
-7.440e-05,0.12,-0.008
-7.432e-05,0.12,0
-7.424e-05,0.14,0
-7.416e-05,0.14,0.008
-7.408e-05,0.16,0.008
-7.400e-05,0.16,0.024
-7.392e-05,0.16,0.024
-7.384e-05,0.16,0.032
-7.376e-05,0.18,0.04
-7.368e-05,0.18,0.048
-7.360e-05,0.2,0.048
-7.352e-05,0.22,0.056
-7.344e-05,0.2,0.064
-7.336e-05,0.22,0.072
-7.328e-05,0.22,0.08
-7.320e-05,0.24,0.08
-7.312e-05,0.26,0.088
-7.304e-05,0.26,0.088
-7.296e-05,0.28,0.096
-7.288e-05,0.28,0.104
-7.280e-05,0.28,0.112
-7.272e-05,0.28,0.112
-7.264e-05,0.3,0.12
-7.256e-05,0.3,0.128
-7.248e-05,0.32,0.136
-7.240e-05,0.32,0.136
-7.232e-05,0.32,0.144
-7.224e-05,0.34,0.144
-7.216e-05,0.34,0.152
-7.208e-05,0.36,0.16
-7.200e-05,0.36,0.168
-7.192e-05,0.36,0.168
-7.184e-05,0.38,0.176
-7.176e-05,0.38,0.184
-7.168e-05,0.38,0.184
-7.160e-05,0.38,0.192
-7.152e-05,0.4,0.192
-7.144e-05,0.4,0.2
-7.136e-05,0.42,0.208
-7.128e-05,0.42,0.208
-7.120e-05,0.42,0.216
-7.112e-05,0.42,0.216
-7.104e-05,0.44,0.224
-7.096e-05,0.44,0.224
-7.088e-05,0.44,0.232
-7.080e-05,0.44,0.232
-7.072e-05,0.46,0.24
-7.064e-05,0.46,0.24
-7.056e-05,0.46,0.248
-7.048e-05,0.46,0.256
-7.040e-05,0.46,0.256
-7.032e-05,0.48,0.256
-7.024e-05,0.48,0.264
-7.016e-05,0.48,0.264
-7.008e-05,0.48,0.264
-7.000e-05,0.48,0.264
-6.992e-05,0.48,0.272
-6.984e-05,0.5,0.272
-6.976e-05,0.48,0.28
-6.968e-05,0.48,0.28
-6.960e-05,0.48,0.288
-6.952e-05,0.5,0.288
-6.944e-05,0.5,0.288
-6.936e-05,0.5,0.296
-6.928e-05,0.48,0.296
-6.920e-05,0.5,0.296
-6.912e-05,0.5,0.296
-6.904e-05,0.5,0.296
-6.896e-05,0.5,0.296
-6.888e-05,0.5,0.304
-6.880e-05,0.5,0.304
-6.872e-05,0.5,0.296
-6.864e-05,0.48,0.304
-6.856e-05,0.5,0.304
-6.848e-05,0.48,0.312
-6.840e-05,0.5,0.312
-6.832e-05,0.48,0.312
-6.824e-05,0.48,0.312
-6.816e-05,0.5,0.312
-6.808e-05,0.48,0.312
-6.800e-05,0.48,0.312
-6.792e-05,0.48,0.312
-6.784e-05,0.48,0.312
-6.776e-05,0.46,0.304
-6.768e-05,0.48,0.312
-6.760e-05,0.48,0.312
-6.752e-05,0.46,0.312
-6.744e-05,0.46,0.312
-6.736e-05,0.46,0.312
-6.728e-05,0.46,0.304
-6.720e-05,0.46,0.304
-6.712e-05,0.44,0.304
-6.704e-05,0.44,0.304
-6.696e-05,0.44,0.304
-6.688e-05,0.44,0.304
-6.680e-05,0.42,0.296
-6.672e-05,0.42,0.296
-6.664e-05,0.42,0.296
-6.656e-05,0.42,0.296
-6.648e-05,0.4,0.296
-6.640e-05,0.4,0.296
-6.632e-05,0.4,0.288
-6.624e-05,0.4,0.288
-6.616e-05,0.36,0.28
-6.608e-05,0.38,0.28
-6.600e-05,0.36,0.272
-6.592e-05,0.36,0.272
-6.584e-05,0.36,0.272
-6.576e-05,0.34,0.272
-6.568e-05,0.34,0.264
-6.560e-05,0.34,0.264
-6.552e-05,0.32,0.256
-6.544e-05,0.32,0.256
-6.536e-05,0.32,0.248
-6.528e-05,0.3,0.248
-6.520e-05,0.3,0.24
-6.512e-05,0.28,0.232
-6.504e-05,0.28,0.232
-6.496e-05,0.28,0.232
-6.488e-05,0.26,0.224
-6.480e-05,0.26,0.224
-6.472e-05,0.24,0.216
-6.464e-05,0.24,0.216
-6.456e-05,0.22,0.208
-6.448e-05,0.22,0.208
-6.440e-05,0.22,0.192
-6.432e-05,0.2,0.192
-6.424e-05,0.2,0.192
-6.416e-05,0.18,0.184
-6.408e-05,0.18,0.176
-6.400e-05,0.18,0.176
-6.392e-05,0.16,0.168
-6.384e-05,0.16,0.168
-6.376e-05,0.14,0.16
-6.368e-05,0.14,0.152
-6.360e-05,0.14,0.152
-6.352e-05,0.12,0.144
-6.344e-05,0.12,0.136
-6.336e-05,0.1,0.128
-6.328e-05,0.08,0.128
-6.320e-05,0.08,0.12
-6.312e-05,0.06,0.12
-6.304e-05,0.06,0.112
-6.296e-05,0.06,0.104
-6.288e-05,0.04,0.096
-6.280e-05,0.04,0.088
-6.272e-05,0.02,0.088
-6.264e-05,0,0.08
-6.256e-05,0,0.072
-6.248e-05,0,0.072
-6.240e-05,-0.02,0.056
-6.232e-05,-0.02,0.056
-6.224e-05,-0.04,0.056
-6.216e-05,-0.04,0.048
-6.208e-05,-0.06,0.04
-6.200e-05,-0.06,0.032
-6.192e-05,-0.06,0.024
-6.184e-05,-0.08,0.016
-6.176e-05,-0.1,0.008
-6.168e-05,-0.1,0.008
-6.160e-05,-0.12,0.008
-6.152e-05,-0.12,0
-6.144e-05,-0.14,-0.008
-6.136e-05,-0.14,-0.016
-6.128e-05,-0.16,-0.024
-6.120e-05,-0.16,-0.024
-6.112e-05,-0.16,-0.032
-6.104e-05,-0.18,-0.04
-6.096e-05,-0.18,-0.048
-6.088e-05,-0.18,-0.056
-6.080e-05,-0.2,-0.056
-6.072e-05,-0.2,-0.064
-6.064e-05,-0.22,-0.072
-6.056e-05,-0.22,-0.072
-6.048e-05,-0.24,-0.08
-6.040e-05,-0.24,-0.088
-6.032e-05,-0.26,-0.088
-6.024e-05,-0.26,-0.104
-6.016e-05,-0.26,-0.104
-6.008e-05,-0.28,-0.112
-6.000e-05,-0.28,-0.112
-5.992e-05,-0.28,-0.12
-5.984e-05,-0.28,-0.128
-5.976e-05,-0.3,-0.128
-5.968e-05,-0.3,-0.136
-5.960e-05,-0.3,-0.136
-5.952e-05,-0.32,-0.144
-5.944e-05,-0.32,-0.152
-5.936e-05,-0.34,-0.152
-5.928e-05,-0.34,-0.16
-5.920e-05,-0.34,-0.168
-5.912e-05,-0.36,-0.168
-5.904e-05,-0.36,-0.176
-5.896e-05,-0.36,-0.184
-5.888e-05,-0.36,-0.184
-5.880e-05,-0.36,-0.192
-5.872e-05,-0.38,-0.192
-5.864e-05,-0.38,-0.2
-5.856e-05,-0.4,-0.208
-5.848e-05,-0.4,-0.208
-5.840e-05,-0.4,-0.208
-5.832e-05,-0.42,-0.224
-5.824e-05,-0.42,-0.224
-5.816e-05,-0.4,-0.232
-5.808e-05,-0.4,-0.232
-5.800e-05,-0.42,-0.232
-5.792e-05,-0.42,-0.24
-5.784e-05,-0.42,-0.24
-5.776e-05,-0.42,-0.24
-5.768e-05,-0.44,-0.248
-5.760e-05,-0.44,-0.248
-5.752e-05,-0.44,-0.256
-5.744e-05,-0.42,-0.256
-5.736e-05,-0.44,-0.264
-5.728e-05,-0.44,-0.264
-5.720e-05,-0.44,-0.272
-5.712e-05,-0.46,-0.272
-5.704e-05,-0.46,-0.272
-5.696e-05,-0.46,-0.272
-5.688e-05,-0.46,-0.272
-5.680e-05,-0.46,-0.28
-5.672e-05,-0.44,-0.28
-5.664e-05,-0.46,-0.28
-5.656e-05,-0.46,-0.28
-5.648e-05,-0.46,-0.28
-5.640e-05,-0.46,-0.288
-5.632e-05,-0.46,-0.288
-5.624e-05,-0.46,-0.288
-5.616e-05,-0.46,-0.288
-5.608e-05,-0.46,-0.288
-5.600e-05,-0.46,-0.288
-5.592e-05,-0.44,-0.296
-5.584e-05,-0.44,-0.288
-5.576e-05,-0.44,-0.296
-5.568e-05,-0.44,-0.296
-5.560e-05,-0.44,-0.296
-5.552e-05,-0.44,-0.296
-5.544e-05,-0.44,-0.296
-5.536e-05,-0.42,-0.304
-5.528e-05,-0.44,-0.296
-5.520e-05,-0.44,-0.296
-5.512e-05,-0.42,-0.296
-5.504e-05,-0.42,-0.296
-5.496e-05,-0.42,-0.296
-5.488e-05,-0.42,-0.288
-5.480e-05,-0.42,-0.288
-5.472e-05,-0.4,-0.288
-5.464e-05,-0.4,-0.288
-5.456e-05,-0.4,-0.288
-5.448e-05,-0.4,-0.288
-5.440e-05,-0.4,-0.28
-5.432e-05,-0.38,-0.28
-5.424e-05,-0.38,-0.28
-5.416e-05,-0.38,-0.28
-5.408e-05,-0.38,-0.28
-5.400e-05,-0.36,-0.272
-5.392e-05,-0.36,-0.272
-5.384e-05,-0.36,-0.272
-5.376e-05,-0.36,-0.272
-5.368e-05,-0.34,-0.264
-5.360e-05,-0.34,-0.264
-5.352e-05,-0.34,-0.264
-5.344e-05,-0.32,-0.264
-5.336e-05,-0.34,-0.256
-5.328e-05,-0.32,-0.248
-5.320e-05,-0.3,-0.248
-5.312e-05,-0.3,-0.248
-5.304e-05,-0.3,-0.24
-5.296e-05,-0.28,-0.24
-5.288e-05,-0.28,-0.232
-5.280e-05,-0.26,-0.232
-5.272e-05,-0.26,-0.232
-5.264e-05,-0.24,-0.224
-5.256e-05,-0.24,-0.216
-5.248e-05,-0.24,-0.216
-5.240e-05,-0.24,-0.208
-5.232e-05,-0.22,-0.208
-5.224e-05,-0.22,-0.2
-5.216e-05,-0.2,-0.2
-5.208e-05,-0.2,-0.192
-5.200e-05,-0.18,-0.192
-5.192e-05,-0.18,-0.184
-5.184e-05,-0.16,-0.184
-5.176e-05,-0.16,-0.168
-5.168e-05,-0.16,-0.168
-5.160e-05,-0.16,-0.16
-5.152e-05,-0.14,-0.16
-5.144e-05,-0.12,-0.152
-5.136e-05,-0.12,-0.152
-5.128e-05,-0.1,-0.152
-5.120e-05,-0.1,-0.136
-5.112e-05,-0.08,-0.128
-5.104e-05,-0.08,-0.128
-5.096e-05,-0.08,-0.12
-5.088e-05,-0.06,-0.112
-5.080e-05,-0.06,-0.12
-5.072e-05,-0.04,-0.104
-5.064e-05,-0.04,-0.104
-5.056e-05,-0.02,-0.096
-5.048e-05,-0.02,-0.096
-5.040e-05,0,-0.08
-5.032e-05,0,-0.08
-5.024e-05,0,-0.072
-5.016e-05,0.02,-0.072
-5.008e-05,0.02,-0.064
-5.000e-05,0.04,-0.056
-4.992e-05,0.06,-0.048
-4.984e-05,0.06,-0.04
-4.976e-05,0.06,-0.04
-4.968e-05,0.08,-0.032
-4.960e-05,0.1,-0.032
-4.952e-05,0.1,-0.024
-4.944e-05,0.1,-0.008
-4.936e-05,0.12,-0.008
-4.928e-05,0.12,0
-4.920e-05,0.14,0
-4.912e-05,0.14,0.016
-4.904e-05,0.16,0.016
-4.896e-05,0.16,0.024
-4.888e-05,0.16,0.032
-4.880e-05,0.16,0.032
-4.872e-05,0.2,0.04
-4.864e-05,0.18,0.048
-4.856e-05,0.22,0.056
-4.848e-05,0.22,0.064
-4.840e-05,0.22,0.072
-4.832e-05,0.24,0.064
-4.824e-05,0.24,0.08
-4.816e-05,0.24,0.08
-4.808e-05,0.26,0.08
-4.800e-05,0.26,0.096
-4.792e-05,0.28,0.096
-4.784e-05,0.28,0.112
-4.776e-05,0.3,0.112
-4.768e-05,0.3,0.12
-4.760e-05,0.32,0.12
-4.752e-05,0.32,0.128
-4.744e-05,0.32,0.136
-4.736e-05,0.32,0.144
-4.728e-05,0.34,0.144
-4.720e-05,0.34,0.152
-4.712e-05,0.36,0.16
-4.704e-05,0.34,0.16
-4.696e-05,0.36,0.168
-4.688e-05,0.36,0.176
-4.680e-05,0.38,0.184
-4.672e-05,0.38,0.184
-4.664e-05,0.4,0.192
-4.656e-05,0.4,0.192
-4.648e-05,0.4,0.2
-4.640e-05,0.4,0.2
-4.632e-05,0.4,0.208
-4.624e-05,0.42,0.208
-4.616e-05,0.42,0.216
-4.608e-05,0.42,0.224
-4.600e-05,0.44,0.224
-4.592e-05,0.44,0.232
-4.584e-05,0.44,0.232
-4.576e-05,0.46,0.232
-4.568e-05,0.46,0.24
-4.560e-05,0.46,0.248
-4.552e-05,0.46,0.248
-4.544e-05,0.46,0.256
-4.536e-05,0.46,0.256
-4.528e-05,0.46,0.264
-4.520e-05,0.48,0.264
-4.512e-05,0.48,0.264
-4.504e-05,0.46,0.272
-4.496e-05,0.48,0.272
-4.488e-05,0.5,0.28
-4.480e-05,0.48,0.28
-4.472e-05,0.48,0.28
-4.464e-05,0.48,0.288
-4.456e-05,0.48,0.288
-4.448e-05,0.5,0.288
-4.440e-05,0.48,0.288
-4.432e-05,0.5,0.296
-4.424e-05,0.5,0.296
-4.416e-05,0.48,0.296
-4.408e-05,0.5,0.296
-4.400e-05,0.5,0.296
-4.392e-05,0.5,0.296
-4.384e-05,0.5,0.304
-4.376e-05,0.5,0.304
-4.368e-05,0.5,0.304
-4.360e-05,0.5,0.304
-4.352e-05,0.5,0.312
-4.344e-05,0.48,0.312
-4.336e-05,0.5,0.312
-4.328e-05,0.5,0.312
-4.320e-05,0.48,0.312
-4.312e-05,0.48,0.312
-4.304e-05,0.48,0.304
-4.296e-05,0.48,0.312
-4.288e-05,0.48,0.304
-4.280e-05,0.48,0.312
-4.272e-05,0.46,0.312
-4.264e-05,0.46,0.312
-4.256e-05,0.46,0.312
-4.248e-05,0.46,0.312
-4.240e-05,0.44,0.312
-4.232e-05,0.46,0.312
-4.224e-05,0.46,0.304
-4.216e-05,0.44,0.304
-4.208e-05,0.44,0.304
-4.200e-05,0.44,0.304
-4.192e-05,0.44,0.304
-4.184e-05,0.44,0.304
-4.176e-05,0.42,0.296
-4.168e-05,0.42,0.296
-4.160e-05,0.42,0.296
-4.152e-05,0.42,0.296
-4.144e-05,0.4,0.288
-4.136e-05,0.4,0.28
-4.128e-05,0.4,0.288
-4.120e-05,0.38,0.28
-4.112e-05,0.38,0.28
-4.104e-05,0.38,0.28
-4.096e-05,0.36,0.28
-4.088e-05,0.36,0.272
-4.080e-05,0.36,0.272
-4.072e-05,0.34,0.264
-4.064e-05,0.34,0.264
-4.056e-05,0.34,0.264
-4.048e-05,0.32,0.256
-4.040e-05,0.32,0.248
-4.032e-05,0.32,0.248
-4.024e-05,0.3,0.248
-4.016e-05,0.3,0.24
-4.008e-05,0.28,0.24
-4.000e-05,0.28,0.232
-3.992e-05,0.26,0.232
-3.984e-05,0.26,0.224
-3.976e-05,0.26,0.224
-3.968e-05,0.26,0.216
-3.960e-05,0.24,0.216
-3.952e-05,0.22,0.208
-3.944e-05,0.22,0.2
-3.936e-05,0.22,0.2
-3.928e-05,0.2,0.192
-3.920e-05,0.2,0.192
-3.912e-05,0.18,0.184
-3.904e-05,0.18,0.176
-3.896e-05,0.18,0.168
-3.888e-05,0.16,0.168
-3.880e-05,0.14,0.16
-3.872e-05,0.14,0.16
-3.864e-05,0.14,0.152
-3.856e-05,0.12,0.144
-3.848e-05,0.12,0.136
-3.840e-05,0.1,0.128
-3.832e-05,0.1,0.128
-3.824e-05,0.1,0.12
-3.816e-05,0.06,0.12
-3.808e-05,0.06,0.112
-3.800e-05,0.06,0.104
-3.792e-05,0.04,0.104
-3.784e-05,0.04,0.096
-3.776e-05,0.02,0.088
-3.768e-05,0.02,0.088
-3.760e-05,0,0.08
-3.752e-05,0,0.072
-3.744e-05,0,0.064
-3.736e-05,-0.02,0.056
-3.728e-05,-0.02,0.056
-3.720e-05,-0.04,0.048
-3.712e-05,-0.04,0.04
-3.704e-05,-0.06,0.032
-3.696e-05,-0.06,0.032
-3.688e-05,-0.08,0.024
-3.680e-05,-0.1,0.016
-3.672e-05,-0.1,0.008
-3.664e-05,-0.1,0.008
-3.656e-05,-0.12,0
-3.648e-05,-0.12,-0.008
-3.640e-05,-0.12,-0.016
-3.632e-05,-0.14,-0.016
-3.624e-05,-0.14,-0.024
-3.616e-05,-0.16,-0.032
-3.608e-05,-0.16,-0.032
-3.600e-05,-0.18,-0.04
-3.592e-05,-0.18,-0.048
-3.584e-05,-0.2,-0.056
-3.576e-05,-0.2,-0.056
-3.568e-05,-0.2,-0.064
-3.560e-05,-0.22,-0.072
-3.552e-05,-0.22,-0.08
-3.544e-05,-0.22,-0.08
-3.536e-05,-0.24,-0.088
-3.528e-05,-0.24,-0.096
-3.520e-05,-0.26,-0.104
-3.512e-05,-0.26,-0.104
-3.504e-05,-0.28,-0.112
-3.496e-05,-0.28,-0.112
-3.488e-05,-0.28,-0.12
-3.480e-05,-0.3,-0.128
-3.472e-05,-0.32,-0.136
-3.464e-05,-0.3,-0.136
-3.456e-05,-0.32,-0.144
-3.448e-05,-0.32,-0.152
-3.440e-05,-0.32,-0.152
-3.432e-05,-0.32,-0.16
-3.424e-05,-0.34,-0.168
-3.416e-05,-0.34,-0.168
-3.408e-05,-0.34,-0.176
-3.400e-05,-0.36,-0.176
-3.392e-05,-0.36,-0.184
-3.384e-05,-0.36,-0.192
-3.376e-05,-0.36,-0.192
-3.368e-05,-0.38,-0.2
-3.360e-05,-0.4,-0.2
-3.352e-05,-0.38,-0.208
-3.344e-05,-0.4,-0.208
-3.336e-05,-0.4,-0.216
-3.328e-05,-0.4,-0.216
-3.320e-05,-0.4,-0.224
-3.312e-05,-0.4,-0.224
-3.304e-05,-0.42,-0.232
-3.296e-05,-0.42,-0.232
-3.288e-05,-0.42,-0.24
-3.280e-05,-0.42,-0.24
-3.272e-05,-0.42,-0.248
-3.264e-05,-0.42,-0.256
-3.256e-05,-0.44,-0.256
-3.248e-05,-0.42,-0.256
-3.240e-05,-0.44,-0.264
-3.232e-05,-0.44,-0.264
-3.224e-05,-0.46,-0.264
-3.216e-05,-0.46,-0.272
-3.208e-05,-0.44,-0.272
-3.200e-05,-0.46,-0.28
-3.192e-05,-0.46,-0.28
-3.184e-05,-0.46,-0.28
-3.176e-05,-0.46,-0.28
-3.168e-05,-0.46,-0.28
-3.160e-05,-0.46,-0.28
-3.152e-05,-0.46,-0.28
-3.144e-05,-0.46,-0.288
-3.136e-05,-0.46,-0.288
-3.128e-05,-0.46,-0.288
-3.120e-05,-0.46,-0.288
-3.112e-05,-0.46,-0.288
-3.104e-05,-0.44,-0.288
-3.096e-05,-0.46,-0.288
-3.088e-05,-0.46,-0.288
-3.080e-05,-0.44,-0.296
-3.072e-05,-0.46,-0.296
-3.064e-05,-0.44,-0.288
-3.056e-05,-0.44,-0.296
-3.048e-05,-0.44,-0.296
-3.040e-05,-0.44,-0.296
-3.032e-05,-0.44,-0.296
-3.024e-05,-0.44,-0.296
-3.016e-05,-0.46,-0.296
-3.008e-05,-0.42,-0.296
-3.000e-05,-0.42,-0.296
-2.992e-05,-0.42,-0.296
-2.984e-05,-0.4,-0.288
-2.976e-05,-0.4,-0.288
-2.968e-05,-0.4,-0.288
-2.960e-05,-0.42,-0.288
-2.952e-05,-0.38,-0.288
-2.944e-05,-0.4,-0.288
-2.936e-05,-0.38,-0.28
-2.928e-05,-0.38,-0.28
-2.920e-05,-0.38,-0.28
-2.912e-05,-0.38,-0.28
-2.904e-05,-0.36,-0.28
-2.896e-05,-0.36,-0.272
-2.888e-05,-0.36,-0.28
-2.880e-05,-0.34,-0.272
-2.872e-05,-0.34,-0.264
-2.864e-05,-0.34,-0.264
-2.856e-05,-0.34,-0.264
-2.848e-05,-0.32,-0.264
-2.840e-05,-0.32,-0.256
-2.832e-05,-0.32,-0.256
-2.824e-05,-0.3,-0.248
-2.816e-05,-0.3,-0.248
-2.808e-05,-0.3,-0.24
-2.800e-05,-0.28,-0.24
-2.792e-05,-0.28,-0.24
-2.784e-05,-0.28,-0.232
-2.776e-05,-0.26,-0.232
-2.768e-05,-0.26,-0.224
-2.760e-05,-0.24,-0.224
-2.752e-05,-0.24,-0.216
-2.744e-05,-0.24,-0.216
-2.736e-05,-0.22,-0.208
-2.728e-05,-0.22,-0.208
-2.720e-05,-0.22,-0.2
-2.712e-05,-0.2,-0.2
-2.704e-05,-0.2,-0.192
-2.696e-05,-0.18,-0.192
-2.688e-05,-0.18,-0.184
-2.680e-05,-0.16,-0.176
-2.672e-05,-0.16,-0.168
-2.664e-05,-0.14,-0.168
-2.656e-05,-0.14,-0.16
-2.648e-05,-0.14,-0.16
-2.640e-05,-0.12,-0.152
-2.632e-05,-0.12,-0.144
-2.624e-05,-0.12,-0.144
-2.616e-05,-0.1,-0.136
-2.608e-05,-0.08,-0.128
-2.600e-05,-0.08,-0.128
-2.592e-05,-0.08,-0.12
-2.584e-05,-0.06,-0.112
-2.576e-05,-0.04,-0.104
-2.568e-05,-0.02,-0.104
-2.560e-05,-0.04,-0.096
-2.552e-05,-0.02,-0.096
-2.544e-05,-0.02,-0.088
-2.536e-05,0,-0.08
-2.528e-05,0,-0.072
-2.520e-05,0.02,-0.072
-2.512e-05,0.02,-0.064
-2.504e-05,0.04,-0.064
-2.496e-05,0.06,-0.048
-2.488e-05,0.06,-0.048
-2.480e-05,0.06,-0.04
-2.472e-05,0.08,-0.032
-2.464e-05,0.08,-0.032
-2.456e-05,0.08,-0.024
-2.448e-05,0.1,-0.016
-2.440e-05,0.12,-0.008
-2.432e-05,0.14,0
-2.424e-05,0.14,0
-2.416e-05,0.14,0.008
-2.408e-05,0.16,0.016
-2.400e-05,0.16,0.024
-2.392e-05,0.16,0.024
-2.384e-05,0.18,0.032
-2.376e-05,0.18,0.04
-2.368e-05,0.2,0.048
-2.360e-05,0.2,0.056
-2.352e-05,0.22,0.056
-2.344e-05,0.22,0.064
-2.336e-05,0.22,0.072
-2.328e-05,0.24,0.08
-2.320e-05,0.26,0.088
-2.312e-05,0.26,0.088
-2.304e-05,0.26,0.096
-2.296e-05,0.28,0.096
-2.288e-05,0.28,0.104
-2.280e-05,0.28,0.112
-2.272e-05,0.3,0.12
-2.264e-05,0.3,0.12
-2.256e-05,0.3,0.128
-2.248e-05,0.32,0.136
-2.240e-05,0.32,0.136
-2.232e-05,0.32,0.144
-2.224e-05,0.34,0.152
-2.216e-05,0.34,0.152
-2.208e-05,0.36,0.16
-2.200e-05,0.36,0.168
-2.192e-05,0.36,0.168
-2.184e-05,0.38,0.168
-2.176e-05,0.38,0.176
-2.168e-05,0.38,0.184
-2.160e-05,0.4,0.192
-2.152e-05,0.38,0.2
-2.144e-05,0.4,0.2
-2.136e-05,0.4,0.208
-2.128e-05,0.4,0.208
-2.120e-05,0.42,0.216
-2.112e-05,0.42,0.216
-2.104e-05,0.44,0.224
-2.096e-05,0.44,0.224
-2.088e-05,0.44,0.232
-2.080e-05,0.44,0.232
-2.072e-05,0.44,0.24
-2.064e-05,0.46,0.24
-2.056e-05,0.46,0.248
-2.048e-05,0.46,0.248
-2.040e-05,0.46,0.248
-2.032e-05,0.48,0.256
-2.024e-05,0.48,0.264
-2.016e-05,0.48,0.264
-2.008e-05,0.48,0.272
-2.000e-05,0.48,0.264
-1.992e-05,0.48,0.272
-1.984e-05,0.48,0.28
-1.976e-05,0.48,0.28
-1.968e-05,0.48,0.288
-1.960e-05,0.48,0.28
-1.952e-05,0.48,0.288
-1.944e-05,0.48,0.288
-1.936e-05,0.5,0.296
-1.928e-05,0.5,0.296
-1.920e-05,0.5,0.296
-1.912e-05,0.5,0.304
-1.904e-05,0.5,0.296
-1.896e-05,0.5,0.304
-1.888e-05,0.5,0.304
-1.880e-05,0.5,0.304
-1.872e-05,0.48,0.304
-1.864e-05,0.5,0.304
-1.856e-05,0.5,0.304
-1.848e-05,0.5,0.304
-1.840e-05,0.5,0.304
-1.832e-05,0.5,0.304
-1.824e-05,0.48,0.312
-1.816e-05,0.5,0.312
-1.808e-05,0.48,0.312
-1.800e-05,0.48,0.312
-1.792e-05,0.48,0.312
-1.784e-05,0.48,0.312
-1.776e-05,0.48,0.312
-1.768e-05,0.48,0.312
-1.760e-05,0.48,0.312
-1.752e-05,0.48,0.312
-1.744e-05,0.46,0.312
-1.736e-05,0.46,0.312
-1.728e-05,0.46,0.304
-1.720e-05,0.46,0.304
-1.712e-05,0.46,0.304
-1.704e-05,0.44,0.304
-1.696e-05,0.42,0.304
-1.688e-05,0.44,0.304
-1.680e-05,0.42,0.304
-1.672e-05,0.4,0.296
-1.664e-05,0.4,0.296
-1.656e-05,0.42,0.296
-1.648e-05,0.4,0.296
-1.640e-05,0.4,0.296
-1.632e-05,0.4,0.288
-1.624e-05,0.4,0.288
-1.616e-05,0.38,0.28
-1.608e-05,0.38,0.272
-1.600e-05,0.36,0.28
-1.592e-05,0.36,0.272
-1.584e-05,0.36,0.272
-1.576e-05,0.34,0.272
-1.568e-05,0.34,0.264
-1.560e-05,0.34,0.264
-1.552e-05,0.32,0.256
-1.544e-05,0.32,0.256
-1.536e-05,0.32,0.256
-1.528e-05,0.3,0.248
-1.520e-05,0.3,0.24
-1.512e-05,0.28,0.24
-1.504e-05,0.28,0.24
-1.496e-05,0.28,0.232
-1.488e-05,0.26,0.232
-1.480e-05,0.26,0.224
-1.472e-05,0.24,0.216
-1.464e-05,0.24,0.216
-1.456e-05,0.24,0.208
-1.448e-05,0.22,0.208
-1.440e-05,0.22,0.2
-1.432e-05,0.2,0.2
-1.424e-05,0.2,0.192
-1.416e-05,0.18,0.184
-1.408e-05,0.18,0.176
-1.400e-05,0.18,0.176
-1.392e-05,0.16,0.168
-1.384e-05,0.16,0.168
-1.376e-05,0.14,0.16
-1.368e-05,0.14,0.16
-1.360e-05,0.12,0.144
-1.352e-05,0.12,0.144
-1.344e-05,0.12,0.136
-1.336e-05,0.1,0.136
-1.328e-05,0.08,0.128
-1.320e-05,0.08,0.12
-1.312e-05,0.08,0.112
-1.304e-05,0.06,0.112
-1.296e-05,0.06,0.104
-1.288e-05,0.04,0.096
-1.280e-05,0.04,0.088
-1.272e-05,0.02,0.088
-1.264e-05,0,0.08
-1.256e-05,0,0.08
-1.248e-05,0,0.072
-1.240e-05,-0.02,0.064
-1.232e-05,-0.04,0.056
-1.224e-05,-0.04,0.056
-1.216e-05,-0.04,0.048
-1.208e-05,-0.04,0.04
-1.200e-05,-0.06,0.032
-1.192e-05,-0.06,0.032
-1.184e-05,-0.08,0.024
-1.176e-05,-0.08,0.016
-1.168e-05,-0.1,0.008
-1.160e-05,-0.1,0
-1.152e-05,-0.12,-0.008
-1.144e-05,-0.12,-0.008
-1.136e-05,-0.14,-0.016
-1.128e-05,-0.14,-0.024
-1.120e-05,-0.16,-0.024
-1.112e-05,-0.16,-0.032
-1.104e-05,-0.16,-0.04
-1.096e-05,-0.18,-0.048
-1.088e-05,-0.18,-0.056
-1.080e-05,-0.2,-0.056
-1.072e-05,-0.2,-0.056
-1.064e-05,-0.2,-0.072
-1.056e-05,-0.22,-0.072
-1.048e-05,-0.24,-0.08
-1.040e-05,-0.24,-0.088
-1.032e-05,-0.26,-0.088
-1.024e-05,-0.26,-0.096
-1.016e-05,-0.28,-0.104
-1.008e-05,-0.26,-0.104
-1.000e-05,-0.28,-0.112
-9.920e-06,-0.28,-0.128
-9.840e-06,-0.28,-0.12
