capacitor_data_0412/TEK00073.CSV

Model,TBS2074B
Firmware Version,v1.32.136

Point Format,Y,
Horizontal Units,S,
Horizontal Scale,4e-07,
Sample Interval,4e-09,
Filter Frequency,2e+08,
Record Length,2000,
Gating,0.0% to 100.0%,0.0% to 100.0%
Probe Attenuation,1,1
Vertical Units,V,V
Vertical Offset,0,0
Vertical Scale,2,0.5
Label,,
TIME,CH1,CH2
-4.000e-06,-1.76,-0.33
-3.996e-06,-1.76,-0.33
-3.992e-06,-1.84,-0.35
-3.988e-06,-1.84,-0.35
-3.984e-06,-1.84,-0.35
-3.980e-06,-1.92,-0.35
-3.976e-06,-1.92,-0.35
-3.972e-06,-2,-0.35
-3.968e-06,-2,-0.35
-3.964e-06,-2.08,-0.35
-3.960e-06,-2.08,-0.35
-3.956e-06,-2.08,-0.35
-3.952e-06,-2.16,-0.35
-3.948e-06,-2.16,-0.35
-3.944e-06,-2.24,-0.37
-3.940e-06,-2.16,-0.37
-3.936e-06,-2.24,-0.37
-3.932e-06,-2.24,-0.37
-3.928e-06,-2.32,-0.37
-3.924e-06,-2.32,-0.39
-3.920e-06,-2.4,-0.37
-3.916e-06,-2.4,-0.37
-3.912e-06,-2.48,-0.37
-3.908e-06,-2.4,-0.37
-3.904e-06,-2.4,-0.37
-3.900e-06,-2.48,-0.37
-3.896e-06,-2.48,-0.37
-3.892e-06,-2.48,-0.37
-3.888e-06,-2.48,-0.37
-3.884e-06,-2.56,-0.37
-3.880e-06,-2.56,-0.37
-3.876e-06,-2.56,-0.37
-3.872e-06,-2.56,-0.37
-3.868e-06,-2.64,-0.37
-3.864e-06,-2.64,-0.39
-3.860e-06,-2.64,-0.37
-3.856e-06,-2.72,-0.37
-3.852e-06,-2.64,-0.37
-3.848e-06,-2.72,-0.39
-3.844e-06,-2.72,-0.37
-3.840e-06,-2.72,-0.37
-3.836e-06,-2.72,-0.37
-3.832e-06,-2.72,-0.37
-3.828e-06,-2.8,-0.37
-3.824e-06,-2.8,-0.37
-3.820e-06,-2.8,-0.37
-3.816e-06,-2.8,-0.35
-3.812e-06,-2.8,-0.37
-3.808e-06,-2.8,-0.37
-3.804e-06,-2.8,-0.37
-3.800e-06,-2.8,-0.37
-3.796e-06,-2.8,-0.37
-3.792e-06,-2.8,-0.35
-3.788e-06,-2.88,-0.35
-3.784e-06,-2.88,-0.35
-3.780e-06,-2.88,-0.35
-3.776e-06,-2.88,-0.35
-3.772e-06,-2.88,-0.35
-3.768e-06,-2.88,-0.33
-3.764e-06,-2.88,-0.33
-3.760e-06,-2.88,-0.33
-3.756e-06,-2.96,-0.33
-3.752e-06,-2.88,-0.33
-3.748e-06,-2.88,-0.33
-3.744e-06,-2.88,-0.33
-3.740e-06,-2.88,-0.33
-3.736e-06,-2.88,-0.33
-3.732e-06,-2.88,-0.33
-3.728e-06,-2.88,-0.31
-3.724e-06,-2.88,-0.31
-3.720e-06,-2.88,-0.31
-3.716e-06,-2.8,-0.31
-3.712e-06,-2.8,-0.31
-3.708e-06,-2.8,-0.29
-3.704e-06,-2.8,-0.29
-3.700e-06,-2.8,-0.31
-3.696e-06,-2.8,-0.29
-3.692e-06,-2.8,-0.29
-3.688e-06,-2.8,-0.29
-3.684e-06,-2.8,-0.27
-3.680e-06,-2.8,-0.29
-3.676e-06,-2.72,-0.27
-3.672e-06,-2.72,-0.27
-3.668e-06,-2.72,-0.27
-3.664e-06,-2.72,-0.25
-3.660e-06,-2.64,-0.25
-3.656e-06,-2.64,-0.25
-3.652e-06,-2.64,-0.25
-3.648e-06,-2.64,-0.25
-3.644e-06,-2.64,-0.25
-3.640e-06,-2.64,-0.23
-3.636e-06,-2.56,-0.23
-3.632e-06,-2.56,-0.23
-3.628e-06,-2.56,-0.21
-3.624e-06,-2.56,-0.21
-3.620e-06,-2.48,-0.21
-3.616e-06,-2.48,-0.21
-3.612e-06,-2.48,-0.19
-3.608e-06,-2.48,-0.21
-3.604e-06,-2.4,-0.19
-3.600e-06,-2.4,-0.19
-3.596e-06,-2.4,-0.17
-3.592e-06,-2.4,-0.17
-3.588e-06,-2.32,-0.17
-3.584e-06,-2.32,-0.17
-3.580e-06,-2.32,-0.15
-3.576e-06,-2.24,-0.15
-3.572e-06,-2.24,-0.15
-3.568e-06,-2.16,-0.15
-3.564e-06,-2.16,-0.15
-3.560e-06,-2.08,-0.13
-3.556e-06,-2.08,-0.13
-3.552e-06,-2.08,-0.11
-3.548e-06,-2.08,-0.11
-3.544e-06,-2,-0.13
-3.540e-06,-2,-0.11
-3.536e-06,-1.92,-0.09
-3.532e-06,-1.84,-0.09
-3.528e-06,-1.84,-0.09
-3.524e-06,-1.84,-0.09
-3.520e-06,-1.84,-0.09
-3.516e-06,-1.76,-0.07
-3.512e-06,-1.76,-0.07
-3.508e-06,-1.68,-0.07
-3.504e-06,-1.68,-0.05
-3.500e-06,-1.6,-0.05
-3.496e-06,-1.6,-0.05
-3.492e-06,-1.52,-0.03
-3.488e-06,-1.52,-0.03
-3.484e-06,-1.44,-0.03
-3.480e-06,-1.44,-0.03
-3.476e-06,-1.36,-0.03
-3.472e-06,-1.36,-0.01
-3.468e-06,-1.36,-0.01
-3.464e-06,-1.28,0.01
-3.460e-06,-1.28,0.01
-3.456e-06,-1.2,-0.01
-3.452e-06,-1.2,0.01
-3.448e-06,-1.12,0.03
-3.444e-06,-1.12,0.03
-3.440e-06,-1.04,0.03
-3.436e-06,-1.04,0.03
-3.432e-06,-0.96,0.05
-3.428e-06,-0.96,0.05
-3.424e-06,-0.88,0.07
-3.420e-06,-0.8,0.05
-3.416e-06,-0.8,0.07
-3.412e-06,-0.8,0.07
-3.408e-06,-0.72,0.07
-3.404e-06,-0.64,0.09
-3.400e-06,-0.64,0.09
-3.396e-06,-0.64,0.09
-3.392e-06,-0.56,0.09
-3.388e-06,-0.56,0.11
-3.384e-06,-0.48,0.11
-3.380e-06,-0.48,0.13
-3.376e-06,-0.4,0.13
-3.372e-06,-0.32,0.11
-3.368e-06,-0.32,0.13
-3.364e-06,-0.24,0.13
-3.360e-06,-0.24,0.13
-3.356e-06,-0.16,0.15
-3.352e-06,-0.16,0.15
-3.348e-06,-0.08,0.17
-3.344e-06,-0.08,0.15
-3.340e-06,0,0.17
-3.336e-06,0,0.17
-3.332e-06,0.08,0.19
-3.328e-06,0.08,0.19
-3.324e-06,0.16,0.19
-3.320e-06,0.24,0.19
-3.316e-06,0.24,0.19
-3.312e-06,0.24,0.19
-3.308e-06,0.32,0.21
-3.304e-06,0.4,0.21
-3.300e-06,0.4,0.21
-3.296e-06,0.48,0.23
-3.292e-06,0.56,0.23
-3.288e-06,0.56,0.23
-3.284e-06,0.56,0.23
-3.280e-06,0.64,0.25
-3.276e-06,0.72,0.25
-3.272e-06,0.72,0.25
-3.268e-06,0.8,0.25
-3.264e-06,0.8,0.27
-3.260e-06,0.88,0.27
-3.256e-06,0.88,0.27
-3.252e-06,0.96,0.27
-3.248e-06,0.96,0.27
-3.244e-06,1.04,0.27
-3.240e-06,1.04,0.27
-3.236e-06,1.12,0.29
-3.232e-06,1.12,0.29
-3.228e-06,1.2,0.29
-3.224e-06,1.2,0.29
-3.220e-06,1.28,0.29
-3.216e-06,1.28,0.29
-3.212e-06,1.36,0.31
-3.208e-06,1.36,0.31
-3.204e-06,1.44,0.31
-3.200e-06,1.44,0.33
-3.196e-06,1.52,0.33
-3.192e-06,1.52,0.33
-3.188e-06,1.6,0.33
-3.184e-06,1.6,0.33
-3.180e-06,1.68,0.33
-3.176e-06,1.68,0.35
-3.172e-06,1.68,0.33
-3.168e-06,1.76,0.33
-3.164e-06,1.76,0.33
-3.160e-06,1.84,0.33
-3.156e-06,1.84,0.35
-3.152e-06,1.92,0.35
-3.148e-06,1.92,0.35
-3.144e-06,1.92,0.35
-3.140e-06,2,0.35
-3.136e-06,2,0.35
-3.132e-06,2.08,0.35
-3.128e-06,2.08,0.35
-3.124e-06,2.16,0.37
-3.120e-06,2.16,0.37
-3.116e-06,2.24,0.35
-3.112e-06,2.16,0.37
-3.108e-06,2.24,0.37
-3.104e-06,2.24,0.37
-3.100e-06,2.32,0.37
-3.096e-06,2.32,0.37
-3.092e-06,2.32,0.37
-3.088e-06,2.4,0.37
-3.084e-06,2.4,0.37
-3.080e-06,2.4,0.37
-3.076e-06,2.48,0.37
-3.072e-06,2.48,0.37
-3.068e-06,2.48,0.37
-3.064e-06,2.56,0.37
-3.060e-06,2.56,0.37
-3.056e-06,2.56,0.37
-3.052e-06,2.56,0.37
-3.048e-06,2.64,0.37
-3.044e-06,2.64,0.37
-3.040e-06,2.64,0.37
-3.036e-06,2.64,0.37
-3.032e-06,2.64,0.39
-3.028e-06,2.72,0.37
-3.024e-06,2.72,0.37
-3.020e-06,2.72,0.37
-3.016e-06,2.8,0.37
-3.012e-06,2.8,0.37
-3.008e-06,2.8,0.37
-3.004e-06,2.8,0.37
-3.000e-06,2.8,0.37
-2.996e-06,2.8,0.37
-2.992e-06,2.88,0.37
-2.988e-06,2.88,0.37
-2.984e-06,2.8,0.35
-2.980e-06,2.88,0.37
-2.976e-06,2.88,0.37
-2.972e-06,2.88,0.37
-2.968e-06,2.88,0.37
-2.964e-06,2.88,0.37
-2.960e-06,2.88,0.37
-2.956e-06,2.96,0.35
-2.952e-06,2.96,0.35
-2.948e-06,2.96,0.35
-2.944e-06,2.96,0.35
-2.940e-06,2.96,0.35
-2.936e-06,2.96,0.33
-2.932e-06,2.96,0.33
-2.928e-06,2.96,0.33
-2.924e-06,2.96,0.35
-2.920e-06,2.96,0.33
-2.916e-06,2.96,0.33
-2.912e-06,2.96,0.33
-2.908e-06,2.96,0.33
-2.904e-06,2.96,0.33
-2.900e-06,2.96,0.33
-2.896e-06,2.96,0.31
-2.892e-06,2.96,0.31
-2.888e-06,2.96,0.31
-2.884e-06,2.96,0.29
-2.880e-06,2.88,0.29
-2.876e-06,2.88,0.29
-2.872e-06,2.88,0.29
-2.868e-06,2.88,0.29
-2.864e-06,2.88,0.27
-2.860e-06,2.88,0.27
-2.856e-06,2.8,0.27
-2.852e-06,2.8,0.27
-2.848e-06,2.8,0.27
-2.844e-06,2.8,0.27
-2.840e-06,2.8,0.27
-2.836e-06,2.8,0.27
-2.832e-06,2.8,0.25
-2.828e-06,2.72,0.25
-2.824e-06,2.72,0.25
-2.820e-06,2.72,0.25
-2.816e-06,2.64,0.25
-2.812e-06,2.64,0.23
-2.808e-06,2.64,0.23
-2.804e-06,2.64,0.23
-2.800e-06,2.64,0.23
-2.796e-06,2.56,0.21
-2.792e-06,2.56,0.21
-2.788e-06,2.56,0.21
-2.784e-06,2.56,0.21
-2.780e-06,2.56,0.19
-2.776e-06,2.48,0.19
-2.772e-06,2.48,0.19
-2.768e-06,2.48,0.19
-2.764e-06,2.4,0.19
-2.760e-06,2.4,0.17
-2.756e-06,2.4,0.17
-2.752e-06,2.32,0.15
-2.748e-06,2.32,0.17
-2.744e-06,2.32,0.15
-2.740e-06,2.24,0.15
-2.736e-06,2.24,0.15
-2.732e-06,2.16,0.13
-2.728e-06,2.16,0.13
-2.724e-06,2.16,0.13
-2.720e-06,2.08,0.11
-2.716e-06,2.08,0.11
-2.712e-06,2,0.11
-2.708e-06,2,0.09
-2.704e-06,2,0.09
-2.700e-06,1.92,0.09
-2.696e-06,1.92,0.09
-2.692e-06,1.84,0.09
-2.688e-06,1.84,0.07
-2.684e-06,1.84,0.07
-2.680e-06,1.76,0.07
-2.676e-06,1.76,0.07
-2.672e-06,1.68,0.05
-2.668e-06,1.68,0.05
-2.664e-06,1.6,0.05
-2.660e-06,1.6,0.03
-2.656e-06,1.52,0.03
-2.652e-06,1.52,0.03
-2.648e-06,1.44,0.01
-2.644e-06,1.44,0.01
-2.640e-06,1.36,0.01
-2.636e-06,1.36,0.01
-2.632e-06,1.36,-0.01
-2.628e-06,1.28,-0.01
-2.624e-06,1.2,-0.01
-2.620e-06,1.2,-0.01
-2.616e-06,1.2,-0.03
-2.612e-06,1.12,-0.03
-2.608e-06,1.12,-0.03
-2.604e-06,1.04,-0.05
-2.600e-06,1.04,-0.05
-2.596e-06,0.96,-0.05
-2.592e-06,0.96,-0.07
-2.588e-06,0.88,-0.07
-2.584e-06,0.88,-0.07
-2.580e-06,0.8,-0.07
-2.576e-06,0.72,-0.07
-2.572e-06,0.72,-0.09
-2.568e-06,0.72,-0.09
-2.564e-06,0.64,-0.09
-2.560e-06,0.64,-0.09
-2.556e-06,0.56,-0.11
-2.552e-06,0.48,-0.11
-2.548e-06,0.48,-0.11
-2.544e-06,0.4,-0.13
-2.540e-06,0.4,-0.13
-2.536e-06,0.32,-0.13
-2.532e-06,0.24,-0.15
-2.528e-06,0.24,-0.15
-2.524e-06,0.24,-0.15
-2.520e-06,0.16,-0.17
-2.516e-06,0.16,-0.17
-2.512e-06,0.08,-0.17
-2.508e-06,0,-0.17
-2.504e-06,0,-0.19
-2.500e-06,-0.08,-0.19
-2.496e-06,-0.08,-0.19
-2.492e-06,-0.16,-0.19
-2.488e-06,-0.16,-0.19
-2.484e-06,-0.24,-0.19
-2.480e-06,-0.24,-0.19
-2.476e-06,-0.32,-0.21
-2.472e-06,-0.4,-0.23
-2.468e-06,-0.4,-0.23
-2.464e-06,-0.48,-0.23
-2.460e-06,-0.48,-0.25
-2.456e-06,-0.56,-0.23
-2.452e-06,-0.56,-0.23
-2.448e-06,-0.64,-0.23
-2.444e-06,-0.64,-0.25
-2.440e-06,-0.72,-0.25
-2.436e-06,-0.72,-0.25
-2.432e-06,-0.8,-0.27
-2.428e-06,-0.8,-0.27
-2.424e-06,-0.88,-0.27
-2.420e-06,-0.88,-0.27
-2.416e-06,-0.96,-0.27
-2.412e-06,-0.96,-0.27
-2.408e-06,-1.04,-0.29
-2.404e-06,-1.04,-0.29
-2.400e-06,-1.12,-0.29
-2.396e-06,-1.12,-0.29
-2.392e-06,-1.2,-0.31
-2.388e-06,-1.2,-0.29
-2.384e-06,-1.28,-0.29
-2.380e-06,-1.28,-0.31
-2.376e-06,-1.36,-0.31
-2.372e-06,-1.36,-0.31
-2.368e-06,-1.44,-0.31
-2.364e-06,-1.44,-0.31
-2.360e-06,-1.52,-0.33
-2.356e-06,-1.52,-0.33
-2.352e-06,-1.52,-0.33
-2.348e-06,-1.6,-0.33
-2.344e-06,-1.6,-0.33
-2.340e-06,-1.68,-0.35
-2.336e-06,-1.68,-0.35
-2.332e-06,-1.76,-0.33
-2.328e-06,-1.84,-0.33
-2.324e-06,-1.84,-0.35
-2.320e-06,-1.84,-0.35
-2.316e-06,-1.92,-0.37
-2.312e-06,-1.92,-0.35
-2.308e-06,-1.92,-0.37
-2.304e-06,-2,-0.37
-2.300e-06,-2,-0.37
-2.296e-06,-2.08,-0.37
-2.292e-06,-2.08,-0.37
-2.288e-06,-2.16,-0.37
-2.284e-06,-2.16,-0.37
-2.280e-06,-2.16,-0.37
-2.276e-06,-2.16,-0.37
-2.272e-06,-2.24,-0.37
-2.268e-06,-2.24,-0.37
-2.264e-06,-2.32,-0.37
-2.260e-06,-2.32,-0.37
-2.256e-06,-2.32,-0.37
-2.252e-06,-2.4,-0.39
-2.248e-06,-2.4,-0.37
-2.244e-06,-2.4,-0.37
-2.240e-06,-2.4,-0.37
-2.236e-06,-2.48,-0.37
-2.232e-06,-2.48,-0.37
-2.228e-06,-2.48,-0.37
-2.224e-06,-2.56,-0.37
-2.220e-06,-2.56,-0.37
-2.216e-06,-2.56,-0.39
-2.212e-06,-2.56,-0.39
-2.208e-06,-2.64,-0.37
-2.204e-06,-2.64,-0.39
-2.200e-06,-2.64,-0.39
-2.196e-06,-2.72,-0.39
-2.192e-06,-2.64,-0.39
-2.188e-06,-2.64,-0.37
-2.184e-06,-2.72,-0.37
-2.180e-06,-2.72,-0.37
-2.176e-06,-2.72,-0.37
-2.172e-06,-2.72,-0.37
-2.168e-06,-2.72,-0.37
-2.164e-06,-2.72,-0.37
-2.160e-06,-2.8,-0.37
-2.156e-06,-2.8,-0.37
-2.152e-06,-2.88,-0.37
-2.148e-06,-2.8,-0.37
-2.144e-06,-2.8,-0.37
-2.140e-06,-2.8,-0.35
-2.136e-06,-2.88,-0.35
-2.132e-06,-2.8,-0.35
-2.128e-06,-2.8,-0.35
-2.124e-06,-2.88,-0.35
-2.120e-06,-2.88,-0.35
-2.116e-06,-2.88,-0.35
-2.112e-06,-2.88,-0.35
-2.108e-06,-2.88,-0.35
-2.104e-06,-2.88,-0.35
-2.100e-06,-2.88,-0.35
-2.096e-06,-2.88,-0.33
-2.092e-06,-2.88,-0.33
-2.088e-06,-2.88,-0.33
-2.084e-06,-2.88,-0.33
-2.080e-06,-2.88,-0.33
-2.076e-06,-2.88,-0.35
-2.072e-06,-2.88,-0.33
-2.068e-06,-2.8,-0.33
-2.064e-06,-2.8,-0.33
-2.060e-06,-2.8,-0.33
-2.056e-06,-2.8,-0.31
-2.052e-06,-2.8,-0.31
-2.048e-06,-2.8,-0.31
-2.044e-06,-2.88,-0.31
-2.040e-06,-2.88,-0.31
-2.036e-06,-2.88,-0.29
-2.032e-06,-2.88,-0.29
-2.028e-06,-2.8,-0.29
-2.024e-06,-2.8,-0.29
-2.020e-06,-2.8,-0.29
-2.016e-06,-2.8,-0.27
-2.012e-06,-2.72,-0.27
-2.008e-06,-2.72,-0.27
-2.004e-06,-2.72,-0.27
-2.000e-06,-2.72,-0.27
-1.996e-06,-2.72,-0.25
-1.992e-06,-2.64,-0.25
-1.988e-06,-2.64,-0.25
-1.984e-06,-2.64,-0.25
-1.980e-06,-2.64,-0.25
-1.976e-06,-2.64,-0.23
-1.972e-06,-2.56,-0.23
-1.968e-06,-2.64,-0.23
-1.964e-06,-2.56,-0.23
-1.960e-06,-2.56,-0.23
-1.956e-06,-2.56,-0.21
-1.952e-06,-2.48,-0.23
-1.948e-06,-2.48,-0.21
-1.944e-06,-2.48,-0.19
-1.940e-06,-2.4,-0.19
-1.936e-06,-2.4,-0.19
-1.932e-06,-2.4,-0.19
-1.928e-06,-2.4,-0.19
-1.924e-06,-2.32,-0.17
-1.920e-06,-2.32,-0.17
-1.916e-06,-2.32,-0.17
-1.912e-06,-2.24,-0.17
-1.908e-06,-2.24,-0.15
-1.904e-06,-2.24,-0.15
-1.900e-06,-2.16,-0.15
-1.896e-06,-2.16,-0.15
-1.892e-06,-2.16,-0.15
-1.888e-06,-2.08,-0.13
-1.884e-06,-2.08,-0.11
-1.880e-06,-2,-0.11
-1.876e-06,-2,-0.11
-1.872e-06,-1.92,-0.11
-1.868e-06,-1.92,-0.11
-1.864e-06,-1.84,-0.09
-1.860e-06,-1.84,-0.09
-1.856e-06,-1.84,-0.09
-1.852e-06,-1.76,-0.09
-1.848e-06,-1.68,-0.09
-1.844e-06,-1.68,-0.09
-1.840e-06,-1.68,-0.07
-1.836e-06,-1.68,-0.05
-1.832e-06,-1.6,-0.05
-1.828e-06,-1.6,-0.05
-1.824e-06,-1.52,-0.03
-1.820e-06,-1.52,-0.03
-1.816e-06,-1.44,-0.03
-1.812e-06,-1.44,-0.01
-1.808e-06,-1.36,-0.03
-1.804e-06,-1.36,-0.01
-1.800e-06,-1.36,-0.01
-1.796e-06,-1.28,0.01
-1.792e-06,-1.2,0.01
-1.788e-06,-1.2,0.01
-1.784e-06,-1.12,0.01
-1.780e-06,-1.12,0.03
-1.776e-06,-1.04,0.03
-1.772e-06,-1.04,0.03
-1.768e-06,-0.96,0.05
-1.764e-06,-0.96,0.05
-1.760e-06,-0.88,0.05
-1.756e-06,-0.88,0.05
-1.752e-06,-0.8,0.05
-1.748e-06,-0.8,0.05
-1.744e-06,-0.72,0.07
-1.740e-06,-0.72,0.07
-1.736e-06,-0.64,0.09
-1.732e-06,-0.64,0.09
-1.728e-06,-0.56,0.09
-1.724e-06,-0.56,0.09
-1.720e-06,-0.48,0.09
-1.716e-06,-0.48,0.11
-1.712e-06,-0.4,0.11
-1.708e-06,-0.4,0.13
-1.704e-06,-0.32,0.11
-1.700e-06,-0.32,0.13
-1.696e-06,-0.24,0.15
-1.692e-06,-0.24,0.13
-1.688e-06,-0.16,0.15
-1.684e-06,-0.08,0.15
-1.680e-06,-0.08,0.15
-1.676e-06,0,0.17
-1.672e-06,0,0.17
-1.668e-06,0.08,0.17
-1.664e-06,0.16,0.17
-1.660e-06,0.16,0.19
-1.656e-06,0.24,0.19
-1.652e-06,0.24,0.19
-1.648e-06,0.32,0.19
-1.644e-06,0.32,0.21
-1.640e-06,0.4,0.21
-1.636e-06,0.4,0.21
-1.632e-06,0.48,0.21
-1.628e-06,0.48,0.21
-1.624e-06,0.56,0.23
-1.620e-06,0.56,0.23
-1.616e-06,0.64,0.23
-1.612e-06,0.64,0.25
-1.608e-06,0.72,0.25
-1.604e-06,0.8,0.25
-1.600e-06,0.8,0.25
-1.596e-06,0.8,0.27
-1.592e-06,0.88,0.27
-1.588e-06,0.96,0.27
-1.584e-06,0.96,0.27
-1.580e-06,1.04,0.29
-1.576e-06,1.04,0.29
-1.572e-06,1.04,0.29
-1.568e-06,1.12,0.29
-1.564e-06,1.2,0.29
-1.560e-06,1.2,0.29
-1.556e-06,1.28,0.29
-1.552e-06,1.28,0.29
-1.548e-06,1.28,0.29
-1.544e-06,1.36,0.31
-1.540e-06,1.36,0.31
-1.536e-06,1.44,0.31
-1.532e-06,1.44,0.31
-1.528e-06,1.52,0.31
-1.524e-06,1.6,0.31
-1.520e-06,1.6,0.33
-1.516e-06,1.6,0.33
-1.512e-06,1.68,0.33
-1.508e-06,1.68,0.33
-1.504e-06,1.76,0.33
-1.500e-06,1.76,0.33
-1.496e-06,1.84,0.35
-1.492e-06,1.84,0.35
-1.488e-06,1.84,0.35
-1.484e-06,1.92,0.35
-1.480e-06,1.92,0.33
-1.476e-06,2,0.35
-1.472e-06,2,0.37
-1.468e-06,2.08,0.35
-1.464e-06,2.08,0.35
-1.460e-06,2.08,0.37
-1.456e-06,2.16,0.37
-1.452e-06,2.16,0.37
-1.448e-06,2.16,0.37
-1.444e-06,2.24,0.37
-1.440e-06,2.24,0.37
-1.436e-06,2.24,0.37
-1.432e-06,2.32,0.37
-1.428e-06,2.32,0.35
-1.424e-06,2.4,0.37
-1.420e-06,2.4,0.37
-1.416e-06,2.4,0.37
-1.412e-06,2.48,0.37
-1.408e-06,2.48,0.39
-1.404e-06,2.48,0.37
-1.400e-06,2.56,0.37
-1.396e-06,2.56,0.37
-1.392e-06,2.56,0.37
-1.388e-06,2.56,0.37
-1.384e-06,2.64,0.37
-1.380e-06,2.64,0.37
-1.376e-06,2.64,0.37
-1.372e-06,2.64,0.37
-1.368e-06,2.72,0.37
-1.364e-06,2.72,0.37
-1.360e-06,2.72,0.37
-1.356e-06,2.72,0.37
-1.352e-06,2.72,0.37
-1.348e-06,2.72,0.37
-1.344e-06,2.72,0.37
-1.340e-06,2.8,0.37
-1.336e-06,2.8,0.37
-1.332e-06,2.8,0.37
-1.328e-06,2.8,0.37
-1.324e-06,2.88,0.37
-1.320e-06,2.88,0.37
-1.316e-06,2.88,0.37
-1.312e-06,2.8,0.37
-1.308e-06,2.88,0.37
-1.304e-06,2.88,0.37
-1.300e-06,2.88,0.37
-1.296e-06,2.88,0.35
-1.292e-06,2.96,0.35
-1.288e-06,2.96,0.35
-1.284e-06,2.96,0.35
-1.280e-06,2.88,0.35
-1.276e-06,2.88,0.35
-1.272e-06,2.96,0.35
-1.268e-06,2.96,0.35
-1.264e-06,2.96,0.35
-1.260e-06,2.96,0.33
-1.256e-06,2.96,0.33
-1.252e-06,2.96,0.33
-1.248e-06,2.96,0.33
-1.244e-06,2.96,0.31
-1.240e-06,2.96,0.31
-1.236e-06,2.96,0.31
-1.232e-06,2.96,0.31
-1.228e-06,2.96,0.31
-1.224e-06,2.96,0.31
-1.220e-06,2.96,0.31
-1.216e-06,2.96,0.29
-1.212e-06,2.88,0.29
-1.208e-06,2.88,0.29
-1.204e-06,2.88,0.29
-1.200e-06,2.88,0.29
-1.196e-06,2.88,0.27
-1.192e-06,2.88,0.27
-1.188e-06,2.88,0.27
-1.184e-06,2.88,0.27
-1.180e-06,2.8,0.27
-1.176e-06,2.8,0.27
-1.172e-06,2.8,0.27
-1.168e-06,2.8,0.27
-1.164e-06,2.8,0.25
-1.160e-06,2.72,0.25
-1.156e-06,2.72,0.25
-1.152e-06,2.64,0.25
-1.148e-06,2.72,0.25
-1.144e-06,2.64,0.23
-1.140e-06,2.64,0.21
-1.136e-06,2.64,0.23
-1.132e-06,2.64,0.21
-1.128e-06,2.56,0.19
-1.124e-06,2.56,0.21
-1.120e-06,2.48,0.21
-1.116e-06,2.48,0.21
-1.112e-06,2.48,0.21
-1.108e-06,2.48,0.19
-1.104e-06,2.4,0.17
-1.100e-06,2.48,0.19
-1.096e-06,2.4,0.19
-1.092e-06,2.32,0.17
-1.088e-06,2.32,0.15
-1.084e-06,2.32,0.17
-1.080e-06,2.24,0.15
-1.076e-06,2.32,0.15
-1.072e-06,2.24,0.15
-1.068e-06,2.24,0.15
-1.064e-06,2.24,0.15
-1.060e-06,2.16,0.13
-1.056e-06,2.08,0.13
-1.052e-06,2.08,0.13
-1.048e-06,2.08,0.11
-1.044e-06,2,0.11
-1.040e-06,2,0.11
-1.036e-06,2,0.11
-1.032e-06,1.92,0.09
-1.028e-06,1.92,0.09
-1.024e-06,1.84,0.09
-1.020e-06,1.84,0.07
-1.016e-06,1.84,0.07
-1.012e-06,1.76,0.05
-1.008e-06,1.76,0.05
-1.004e-06,1.68,0.05
-1.000e-06,1.68,0.05
-9.960e-07,1.6,0.03
-9.920e-07,1.6,0.03
-9.880e-07,1.52,0.03
-9.840e-07,1.52,0.03
-9.800e-07,1.44,0.03
-9.760e-07,1.44,0.01
-9.720e-07,1.44,0.01
-9.680e-07,1.36,-0.01
-9.640e-07,1.28,-0.01
-9.600e-07,1.28,-0.01
-9.560e-07,1.28,-0.01
-9.520e-07,1.2,-0.03
-9.480e-07,1.12,-0.05
-9.440e-07,1.12,-0.03
-9.400e-07,1.04,-0.05
-9.360e-07,1.04,-0.05
-9.320e-07,0.96,-0.05
-9.280e-07,0.96,-0.07
-9.240e-07,0.88,-0.07
-9.200e-07,0.88,-0.07
-9.160e-07,0.8,-0.07
-9.120e-07,0.8,-0.07
-9.080e-07,0.72,-0.07
-9.040e-07,0.72,-0.09
-9.000e-07,0.64,-0.11
-8.960e-07,0.64,-0.09
-8.920e-07,0.56,-0.11
-8.880e-07,0.56,-0.11
-8.840e-07,0.48,-0.13
-8.800e-07,0.48,-0.13
-8.760e-07,0.4,-0.13
-8.720e-07,0.4,-0.13
-8.680e-07,0.32,-0.13
-8.640e-07,0.32,-0.15
-8.600e-07,0.24,-0.15
-8.560e-07,0.16,-0.15
-8.520e-07,0.16,-0.15
-8.480e-07,0.08,-0.15
-8.440e-07,0.08,-0.15
-8.400e-07,0,-0.17
-8.360e-07,0,-0.17
-8.320e-07,-0.08,-0.17
-8.280e-07,-0.08,-0.19
-8.240e-07,-0.16,-0.19
-8.200e-07,-0.24,-0.19
-8.160e-07,-0.24,-0.19
-8.120e-07,-0.32,-0.21
-8.080e-07,-0.32,-0.21
-8.040e-07,-0.4,-0.23
-8.000e-07,-0.4,-0.23
-7.960e-07,-0.48,-0.23
-7.920e-07,-0.48,-0.23
-7.880e-07,-0.56,-0.23
-7.840e-07,-0.56,-0.23
-7.800e-07,-0.64,-0.25
-7.760e-07,-0.64,-0.25
-7.720e-07,-0.72,-0.25
-7.680e-07,-0.72,-0.25
-7.640e-07,-0.8,-0.27
-7.600e-07,-0.88,-0.27
-7.560e-07,-0.88,-0.27
-7.520e-07,-0.96,-0.27
-7.480e-07,-0.96,-0.27
-7.440e-07,-1.04,-0.29
-7.400e-07,-1.04,-0.29
-7.360e-07,-1.12,-0.29
-7.320e-07,-1.12,-0.29
-7.280e-07,-1.2,-0.31
-7.240e-07,-1.2,-0.29
-7.200e-07,-1.28,-0.31
-7.160e-07,-1.28,-0.31
-7.120e-07,-1.28,-0.31
-7.080e-07,-1.36,-0.31
-7.040e-07,-1.36,-0.31
-7.000e-07,-1.44,-0.31
-6.960e-07,-1.44,-0.31
-6.920e-07,-1.52,-0.33
-6.880e-07,-1.52,-0.33
-6.840e-07,-1.52,-0.33
-6.800e-07,-1.6,-0.33
-6.760e-07,-1.68,-0.33
-6.720e-07,-1.76,-0.33
-6.680e-07,-1.76,-0.35
-6.640e-07,-1.76,-0.35
-6.600e-07,-1.76,-0.35
-6.560e-07,-1.84,-0.35
-6.520e-07,-1.84,-0.35
-6.480e-07,-1.84,-0.35
-6.440e-07,-1.92,-0.35
-6.400e-07,-2,-0.35
-6.360e-07,-2,-0.35
-6.320e-07,-2,-0.35
-6.280e-07,-2.08,-0.35
-6.240e-07,-2.08,-0.37
-6.200e-07,-2.08,-0.37
-6.160e-07,-2.16,-0.37
-6.120e-07,-2.24,-0.37
-6.080e-07,-2.24,-0.37
-6.040e-07,-2.24,-0.39
-6.000e-07,-2.24,-0.37
-5.960e-07,-2.32,-0.37
-5.920e-07,-2.32,-0.39
-5.880e-07,-2.32,-0.37
-5.840e-07,-2.4,-0.37
-5.800e-07,-2.4,-0.37
-5.760e-07,-2.48,-0.37
-5.720e-07,-2.48,-0.37
-5.680e-07,-2.48,-0.37
-5.640e-07,-2.56,-0.37
-5.600e-07,-2.48,-0.37
-5.560e-07,-2.56,-0.37
-5.520e-07,-2.56,-0.37
-5.480e-07,-2.56,-0.37
-5.440e-07,-2.56,-0.37
-5.400e-07,-2.64,-0.39
-5.360e-07,-2.64,-0.37
-5.320e-07,-2.64,-0.37
-5.280e-07,-2.64,-0.37
-5.240e-07,-2.72,-0.37
-5.200e-07,-2.72,-0.37
-5.160e-07,-2.72,-0.37
-5.120e-07,-2.72,-0.37
-5.080e-07,-2.72,-0.37
-5.040e-07,-2.72,-0.37
-5.000e-07,-2.8,-0.37
-4.960e-07,-2.8,-0.37
-4.920e-07,-2.8,-0.37
-4.880e-07,-2.8,-0.37
-4.840e-07,-2.8,-0.37
-4.800e-07,-2.88,-0.37
-4.760e-07,-2.8,-0.37
-4.720e-07,-2.8,-0.37
-4.680e-07,-2.8,-0.37
-4.640e-07,-2.8,-0.37
-4.600e-07,-2.8,-0.37
-4.560e-07,-2.8,-0.35
-4.520e-07,-2.8,-0.35
-4.480e-07,-2.88,-0.35
-4.440e-07,-2.88,-0.35
-4.400e-07,-2.88,-0.35
-4.360e-07,-2.88,-0.33
-4.320e-07,-2.88,-0.33
-4.280e-07,-2.88,-0.33
-4.240e-07,-2.88,-0.33
-4.200e-07,-2.88,-0.33
-4.160e-07,-2.88,-0.33
-4.120e-07,-2.88,-0.33
-4.080e-07,-2.88,-0.33
-4.040e-07,-2.88,-0.33
-4.000e-07,-2.88,-0.31
-3.960e-07,-2.88,-0.31
-3.920e-07,-2.88,-0.31
