capacitor_data_0412/TEK00064.CSV

Model,TBS2074B
Firmware Version,v1.32.136

Point Format,Y,
Horizontal Units,S,
Horizontal Scale,4e-06,
Sample Interval,3.2e-08,
Filter Frequency,2e+08,
Record Length,2000,
Gating,0.0% to 100.0%,0.0% to 100.0%
Probe Attenuation,1,1
Vertical Units,V,V
Vertical Offset,0,0
Vertical Scale,0.5,0.2
Label,,
TIME,CH1,CH2
-3.200e-05,-0.44,-0.24
-3.197e-05,-0.42,-0.24
-3.194e-05,-0.44,-0.248
-3.190e-05,-0.42,-0.248
-3.187e-05,-0.42,-0.248
-3.184e-05,-0.4,-0.248
-3.181e-05,-0.42,-0.248
-3.178e-05,-0.4,-0.248
-3.174e-05,-0.4,-0.248
-3.171e-05,-0.38,-0.248
-3.168e-05,-0.38,-0.24
-3.165e-05,-0.38,-0.24
-3.162e-05,-0.38,-0.248
-3.158e-05,-0.36,-0.24
-3.155e-05,-0.36,-0.24
-3.152e-05,-0.36,-0.24
-3.149e-05,-0.36,-0.248
-3.146e-05,-0.34,-0.24
-3.142e-05,-0.34,-0.24
-3.139e-05,-0.34,-0.24
-3.136e-05,-0.32,-0.24
-3.133e-05,-0.32,-0.232
-3.130e-05,-0.32,-0.232
-3.126e-05,-0.3,-0.24
-3.123e-05,-0.3,-0.232
-3.120e-05,-0.28,-0.224
-3.117e-05,-0.28,-0.224
-3.114e-05,-0.28,-0.224
-3.110e-05,-0.28,-0.224
-3.107e-05,-0.26,-0.224
-3.104e-05,-0.26,-0.216
-3.101e-05,-0.24,-0.216
-3.098e-05,-0.24,-0.216
-3.094e-05,-0.22,-0.208
-3.091e-05,-0.22,-0.208
-3.088e-05,-0.22,-0.208
-3.085e-05,-0.2,-0.2
-3.082e-05,-0.18,-0.2
-3.078e-05,-0.18,-0.2
-3.075e-05,-0.2,-0.192
-3.072e-05,-0.2,-0.2
-3.069e-05,-0.16,-0.192
-3.066e-05,-0.14,-0.192
-3.062e-05,-0.12,-0.192
-3.059e-05,-0.14,-0.184
-3.056e-05,-0.12,-0.176
-3.053e-05,-0.12,-0.168
-3.050e-05,-0.12,-0.168
-3.046e-05,-0.1,-0.16
-3.043e-05,-0.1,-0.16
-3.040e-05,-0.08,-0.152
-3.037e-05,-0.08,-0.152
-3.034e-05,-0.06,-0.152
-3.030e-05,-0.06,-0.144
-3.027e-05,-0.04,-0.144
-3.024e-05,-0.04,-0.136
-3.021e-05,-0.02,-0.128
-3.018e-05,-0.02,-0.128
-3.014e-05,0,-0.128
-3.011e-05,0,-0.12
-3.008e-05,0.02,-0.12
-3.005e-05,0.02,-0.112
-3.002e-05,0.04,-0.104
-2.998e-05,0.04,-0.104
-2.995e-05,0.06,-0.096
-2.992e-05,0.06,-0.096
-2.989e-05,0.06,-0.088
-2.986e-05,0.06,-0.088
-2.982e-05,0.08,-0.08
-2.979e-05,0.1,-0.072
-2.976e-05,0.1,-0.072
-2.973e-05,0.12,-0.064
-2.970e-05,0.12,-0.064
-2.966e-05,0.14,-0.056
-2.963e-05,0.14,-0.048
-2.960e-05,0.16,-0.04
-2.957e-05,0.16,-0.048
-2.954e-05,0.18,-0.04
-2.950e-05,0.18,-0.024
-2.947e-05,0.18,-0.024
-2.944e-05,0.2,-0.024
-2.941e-05,0.22,-0.016
-2.938e-05,0.22,-0.008
-2.934e-05,0.22,-0.008
-2.931e-05,0.22,-5.96046e-10
-2.928e-05,0.24,0.008
-2.925e-05,0.26,0.008
-2.922e-05,0.26,0.016
-2.918e-05,0.26,0.024
-2.915e-05,0.28,0.024
-2.912e-05,0.28,0.032
-2.909e-05,0.3,0.032
-2.906e-05,0.3,0.04
-2.902e-05,0.32,0.048
-2.899e-05,0.32,0.048
-2.896e-05,0.32,0.056
-2.893e-05,0.34,0.056
-2.890e-05,0.34,0.064
-2.886e-05,0.36,0.072
-2.883e-05,0.36,0.072
-2.880e-05,0.36,0.08
-2.877e-05,0.38,0.088
-2.874e-05,0.38,0.088
-2.870e-05,0.38,0.096
-2.867e-05,0.38,0.096
-2.864e-05,0.4,0.104
-2.861e-05,0.4,0.112
-2.858e-05,0.4,0.112
-2.854e-05,0.42,0.12
-2.851e-05,0.42,0.12
-2.848e-05,0.42,0.12
-2.845e-05,0.42,0.128
-2.842e-05,0.44,0.136
-2.838e-05,0.44,0.136
-2.835e-05,0.44,0.144
-2.832e-05,0.46,0.152
-2.829e-05,0.46,0.152
-2.826e-05,0.46,0.152
-2.822e-05,0.46,0.16
-2.819e-05,0.48,0.168
-2.816e-05,0.46,0.168
-2.813e-05,0.48,0.168
-2.810e-05,0.48,0.176
-2.806e-05,0.48,0.176
-2.803e-05,0.48,0.184
-2.800e-05,0.48,0.184
-2.797e-05,0.48,0.192
-2.794e-05,0.48,0.192
-2.790e-05,0.5,0.2
-2.787e-05,0.5,0.2
-2.784e-05,0.5,0.2
-2.781e-05,0.5,0.208
-2.778e-05,0.5,0.216
-2.774e-05,0.5,0.216
-2.771e-05,0.48,0.216
-2.768e-05,0.48,0.224
-2.765e-05,0.5,0.224
-2.762e-05,0.5,0.224
-2.758e-05,0.5,0.232
-2.755e-05,0.5,0.232
-2.752e-05,0.5,0.232
-2.749e-05,0.48,0.24
-2.746e-05,0.5,0.232
-2.742e-05,0.48,0.24
-2.739e-05,0.5,0.24
-2.736e-05,0.5,0.24
-2.733e-05,0.48,0.248
-2.730e-05,0.48,0.248
-2.726e-05,0.48,0.248
-2.723e-05,0.48,0.248
-2.720e-05,0.5,0.248
-2.717e-05,0.48,0.248
-2.714e-05,0.48,0.256
-2.710e-05,0.48,0.256
-2.707e-05,0.48,0.256
-2.704e-05,0.48,0.256
-2.701e-05,0.48,0.256
-2.698e-05,0.46,0.256
-2.694e-05,0.46,0.256
-2.691e-05,0.46,0.264
-2.688e-05,0.46,0.256
-2.685e-05,0.46,0.256
-2.682e-05,0.44,0.256
-2.678e-05,0.44,0.264
-2.675e-05,0.44,0.264
-2.672e-05,0.44,0.256
-2.669e-05,0.42,0.256
-2.666e-05,0.42,0.264
-2.662e-05,0.42,0.264
-2.659e-05,0.42,0.256
-2.656e-05,0.42,0.256
-2.653e-05,0.4,0.256
-2.650e-05,0.4,0.256
-2.646e-05,0.4,0.256
-2.643e-05,0.36,0.256
-2.640e-05,0.38,0.256
-2.637e-05,0.38,0.256
-2.634e-05,0.36,0.256
-2.630e-05,0.36,0.248
-2.627e-05,0.36,0.248
-2.624e-05,0.34,0.248
-2.621e-05,0.32,0.248
-2.618e-05,0.32,0.248
-2.614e-05,0.32,0.24
-2.611e-05,0.3,0.24
-2.608e-05,0.3,0.24
-2.605e-05,0.3,0.24
-2.602e-05,0.28,0.232
-2.598e-05,0.28,0.232
-2.595e-05,0.26,0.232
-2.592e-05,0.26,0.224
-2.589e-05,0.26,0.224
-2.586e-05,0.24,0.216
-2.582e-05,0.24,0.216
-2.579e-05,0.22,0.216
-2.576e-05,0.22,0.216
-2.573e-05,0.22,0.208
-2.570e-05,0.2,0.208
-2.566e-05,0.2,0.2
-2.563e-05,0.2,0.2
-2.560e-05,0.18,0.192
-2.557e-05,0.18,0.192
-2.554e-05,0.16,0.192
-2.550e-05,0.16,0.184
-2.547e-05,0.14,0.184
-2.544e-05,0.14,0.176
-2.541e-05,0.12,0.176
-2.538e-05,0.12,0.168
-2.534e-05,0.1,0.168
-2.531e-05,0.1,0.16
-2.528e-05,0.08,0.16
-2.525e-05,0.08,0.152
-2.522e-05,0.06,0.144
-2.518e-05,0.06,0.144
-2.515e-05,0.04,0.144
-2.512e-05,0.04,0.136
-2.509e-05,0.02,0.136
-2.506e-05,0.02,0.12
-2.502e-05,0.02,0.12
-2.499e-05,0,0.12
-2.496e-05,-0.02,0.112
-2.493e-05,-0.02,0.112
-2.490e-05,-0.04,0.104
-2.486e-05,-0.04,0.096
-2.483e-05,-0.06,0.096
-2.480e-05,-0.06,0.088
-2.477e-05,-0.08,0.088
-2.474e-05,-0.1,0.08
-2.470e-05,-0.08,0.072
-2.467e-05,-0.1,0.072
-2.464e-05,-0.1,0.064
-2.461e-05,-0.12,0.064
-2.458e-05,-0.12,0.056
-2.454e-05,-0.14,0.048
-2.451e-05,-0.14,0.048
-2.448e-05,-0.16,0.04
-2.445e-05,-0.16,0.04
-2.442e-05,-0.18,0.032
-2.438e-05,-0.2,0.032
-2.435e-05,-0.18,0.024
-2.432e-05,-0.2,0.016
-2.429e-05,-0.2,0.008
-2.426e-05,-0.22,0.008
-2.422e-05,-0.22,-5.96046e-10
-2.419e-05,-0.24,-5.96046e-10
-2.416e-05,-0.24,-0.008
-2.413e-05,-0.24,-0.016
-2.410e-05,-0.26,-0.016
-2.406e-05,-0.26,-0.032
-2.403e-05,-0.28,-0.032
-2.400e-05,-0.28,-0.032
-2.397e-05,-0.28,-0.04
-2.394e-05,-0.3,-0.048
-2.390e-05,-0.3,-0.048
-2.387e-05,-0.3,-0.056
-2.384e-05,-0.32,-0.056
-2.381e-05,-0.32,-0.064
-2.378e-05,-0.34,-0.072
-2.374e-05,-0.34,-0.072
-2.371e-05,-0.34,-0.08
-2.368e-05,-0.34,-0.08
-2.365e-05,-0.36,-0.088
-2.362e-05,-0.36,-0.096
-2.358e-05,-0.36,-0.096
-2.355e-05,-0.36,-0.104
-2.352e-05,-0.38,-0.104
-2.349e-05,-0.38,-0.112
-2.346e-05,-0.38,-0.112
-2.342e-05,-0.4,-0.12
-2.339e-05,-0.38,-0.12
-2.336e-05,-0.4,-0.128
-2.333e-05,-0.4,-0.136
-2.330e-05,-0.4,-0.136
-2.326e-05,-0.42,-0.144
-2.323e-05,-0.42,-0.144
-2.320e-05,-0.42,-0.152
-2.317e-05,-0.42,-0.152
-2.314e-05,-0.44,-0.16
-2.310e-05,-0.44,-0.16
-2.307e-05,-0.44,-0.16
-2.304e-05,-0.46,-0.168
-2.301e-05,-0.44,-0.168
-2.298e-05,-0.44,-0.176
-2.294e-05,-0.44,-0.176
-2.291e-05,-0.44,-0.184
-2.288e-05,-0.46,-0.184
-2.285e-05,-0.46,-0.184
-2.282e-05,-0.46,-0.192
-2.278e-05,-0.46,-0.192
-2.275e-05,-0.46,-0.2
-2.272e-05,-0.46,-0.2
-2.269e-05,-0.46,-0.2
-2.266e-05,-0.46,-0.208
-2.262e-05,-0.46,-0.208
-2.259e-05,-0.46,-0.208
-2.256e-05,-0.46,-0.216
-2.253e-05,-0.46,-0.216
-2.250e-05,-0.46,-0.216
-2.246e-05,-0.46,-0.224
-2.243e-05,-0.46,-0.224
-2.240e-05,-0.46,-0.224
-2.237e-05,-0.46,-0.232
-2.234e-05,-0.46,-0.224
-2.230e-05,-0.46,-0.232
-2.227e-05,-0.46,-0.232
-2.224e-05,-0.46,-0.24
-2.221e-05,-0.44,-0.232
-2.218e-05,-0.44,-0.24
-2.214e-05,-0.44,-0.24
-2.211e-05,-0.44,-0.24
-2.208e-05,-0.44,-0.24
-2.205e-05,-0.44,-0.24
-2.202e-05,-0.44,-0.24
-2.198e-05,-0.42,-0.24
-2.195e-05,-0.42,-0.248
-2.192e-05,-0.42,-0.248
-2.189e-05,-0.42,-0.248
-2.186e-05,-0.4,-0.248
-2.182e-05,-0.4,-0.248
-2.179e-05,-0.4,-0.248
-2.176e-05,-0.4,-0.248
-2.173e-05,-0.4,-0.248
-2.170e-05,-0.38,-0.248
-2.166e-05,-0.38,-0.248
-2.163e-05,-0.38,-0.248
-2.160e-05,-0.36,-0.248
-2.157e-05,-0.36,-0.24
-2.154e-05,-0.36,-0.24
-2.150e-05,-0.36,-0.24
-2.147e-05,-0.36,-0.24
-2.144e-05,-0.34,-0.24
-2.141e-05,-0.34,-0.24
-2.138e-05,-0.34,-0.24
-2.134e-05,-0.32,-0.24
-2.131e-05,-0.34,-0.232
-2.128e-05,-0.3,-0.232
-2.125e-05,-0.3,-0.232
-2.122e-05,-0.3,-0.232
-2.118e-05,-0.28,-0.232
-2.115e-05,-0.3,-0.224
-2.112e-05,-0.28,-0.224
-2.109e-05,-0.26,-0.224
-2.106e-05,-0.26,-0.216
-2.102e-05,-0.26,-0.216
-2.099e-05,-0.24,-0.216
-2.096e-05,-0.24,-0.216
-2.093e-05,-0.24,-0.208
-2.090e-05,-0.22,-0.208
-2.086e-05,-0.22,-0.208
-2.083e-05,-0.2,-0.2
-2.080e-05,-0.2,-0.2
-2.077e-05,-0.18,-0.2
-2.074e-05,-0.18,-0.192
-2.070e-05,-0.16,-0.192
-2.067e-05,-0.16,-0.184
-2.064e-05,-0.16,-0.184
-2.061e-05,-0.14,-0.184
-2.058e-05,-0.14,-0.176
-2.054e-05,-0.12,-0.176
-2.051e-05,-0.12,-0.176
-2.048e-05,-0.1,-0.168
-2.045e-05,-0.1,-0.16
-2.042e-05,-0.1,-0.16
-2.038e-05,-0.08,-0.152
-2.035e-05,-0.08,-0.16
-2.032e-05,-0.06,-0.152
-2.029e-05,-0.04,-0.144
-2.026e-05,-0.04,-0.144
-2.022e-05,-0.04,-0.136
-2.019e-05,-0.02,-0.128
-2.016e-05,0,-0.128
-2.013e-05,0,-0.12
-2.010e-05,0,-0.12
-2.006e-05,0,-0.12
-2.003e-05,0.02,-0.112
-2.000e-05,0.04,-0.104
-1.997e-05,0.04,-0.096
-1.994e-05,0.06,-0.096
-1.990e-05,0.06,-0.088
-1.987e-05,0.06,-0.088
-1.984e-05,0.08,-0.08
-1.981e-05,0.08,-0.08
-1.978e-05,0.1,-0.08
-1.974e-05,0.12,-0.064
-1.971e-05,0.12,-0.064
-1.968e-05,0.14,-0.056
-1.965e-05,0.14,-0.064
-1.962e-05,0.16,-0.048
-1.958e-05,0.16,-0.04
-1.955e-05,0.18,-0.04
-1.952e-05,0.18,-0.04
-1.949e-05,0.2,-0.024
-1.946e-05,0.2,-0.024
-1.942e-05,0.2,-0.016
-1.939e-05,0.22,-0.008
-1.936e-05,0.22,-0.008
-1.933e-05,0.24,-0.008
-1.930e-05,0.24,-5.96046e-10
-1.926e-05,0.24,0.008
-1.923e-05,0.24,0.016
-1.920e-05,0.26,0.016
-1.917e-05,0.28,0.024
-1.914e-05,0.28,0.032
-1.910e-05,0.28,0.032
-1.907e-05,0.3,0.04
-1.904e-05,0.3,0.048
-1.901e-05,0.3,0.048
-1.898e-05,0.32,0.048
-1.894e-05,0.32,0.056
-1.891e-05,0.34,0.064
-1.888e-05,0.34,0.064
-1.885e-05,0.34,0.072
-1.882e-05,0.36,0.08
-1.878e-05,0.38,0.08
-1.875e-05,0.38,0.088
-1.872e-05,0.36,0.088
-1.869e-05,0.38,0.096
-1.866e-05,0.4,0.104
-1.862e-05,0.4,0.104
-1.859e-05,0.4,0.112
-1.856e-05,0.4,0.112
-1.853e-05,0.42,0.112
-1.850e-05,0.42,0.12
-1.846e-05,0.42,0.128
-1.843e-05,0.42,0.136
-1.840e-05,0.44,0.136
-1.837e-05,0.44,0.144
-1.834e-05,0.44,0.144
-1.830e-05,0.44,0.152
-1.827e-05,0.46,0.16
-1.824e-05,0.46,0.16
-1.821e-05,0.46,0.16
-1.818e-05,0.46,0.168
-1.814e-05,0.48,0.168
-1.811e-05,0.48,0.176
-1.808e-05,0.48,0.176
-1.805e-05,0.48,0.184
-1.802e-05,0.48,0.184
-1.798e-05,0.48,0.192
-1.795e-05,0.48,0.192
-1.792e-05,0.5,0.2
-1.789e-05,0.48,0.2
-1.786e-05,0.5,0.208
-1.782e-05,0.5,0.208
-1.779e-05,0.5,0.208
-1.776e-05,0.5,0.216
-1.773e-05,0.5,0.216
-1.770e-05,0.5,0.224
-1.766e-05,0.5,0.224
-1.763e-05,0.5,0.232
-1.760e-05,0.5,0.232
-1.757e-05,0.5,0.232
-1.754e-05,0.5,0.232
-1.750e-05,0.5,0.24
-1.747e-05,0.5,0.24
-1.744e-05,0.5,0.24
-1.741e-05,0.5,0.232
-1.738e-05,0.5,0.24
-1.734e-05,0.5,0.248
-1.731e-05,0.5,0.248
-1.728e-05,0.5,0.248
-1.725e-05,0.48,0.248
-1.722e-05,0.5,0.248
-1.718e-05,0.5,0.256
-1.715e-05,0.48,0.256
-1.712e-05,0.48,0.256
-1.709e-05,0.48,0.248
-1.706e-05,0.48,0.256
-1.702e-05,0.48,0.264
-1.699e-05,0.46,0.256
-1.696e-05,0.46,0.264
-1.693e-05,0.46,0.256
-1.690e-05,0.46,0.264
-1.686e-05,0.46,0.264
-1.683e-05,0.46,0.264
-1.680e-05,0.44,0.264
-1.677e-05,0.44,0.264
-1.674e-05,0.44,0.264
-1.670e-05,0.44,0.264
-1.667e-05,0.42,0.264
-1.664e-05,0.42,0.256
-1.661e-05,0.42,0.264
-1.658e-05,0.4,0.256
-1.654e-05,0.4,0.256
-1.651e-05,0.4,0.256
-1.648e-05,0.4,0.256
-1.645e-05,0.4,0.256
-1.642e-05,0.38,0.256
-1.638e-05,0.38,0.256
-1.635e-05,0.36,0.256
-1.632e-05,0.34,0.256
-1.629e-05,0.34,0.248
-1.626e-05,0.34,0.248
-1.622e-05,0.34,0.248
-1.619e-05,0.34,0.248
-1.616e-05,0.32,0.248
-1.613e-05,0.32,0.24
-1.610e-05,0.3,0.24
-1.606e-05,0.3,0.24
-1.603e-05,0.3,0.24
-1.600e-05,0.28,0.232
-1.597e-05,0.28,0.232
-1.594e-05,0.26,0.224
-1.590e-05,0.24,0.224
-1.587e-05,0.26,0.224
-1.584e-05,0.24,0.224
-1.581e-05,0.24,0.216
-1.578e-05,0.22,0.216
-1.574e-05,0.22,0.216
-1.571e-05,0.2,0.208
-1.568e-05,0.2,0.208
-1.565e-05,0.2,0.2
-1.562e-05,0.18,0.2
-1.558e-05,0.18,0.192
-1.555e-05,0.16,0.192
-1.552e-05,0.16,0.184
-1.549e-05,0.14,0.184
-1.546e-05,0.14,0.176
-1.542e-05,0.14,0.176
-1.539e-05,0.12,0.176
-1.536e-05,0.1,0.168
-1.533e-05,0.1,0.168
-1.530e-05,0.1,0.16
-1.526e-05,0.08,0.152
-1.523e-05,0.08,0.152
-1.520e-05,0.06,0.144
-1.517e-05,0.06,0.144
-1.514e-05,0.04,0.144
-1.510e-05,0.02,0.136
-1.507e-05,0,0.128
-1.504e-05,0,0.128
-1.501e-05,0,0.12
-1.498e-05,0,0.12
-1.494e-05,-0.02,0.112
-1.491e-05,-0.04,0.104
-1.488e-05,-0.04,0.096
-1.485e-05,-0.04,0.096
-1.482e-05,-0.06,0.096
-1.478e-05,-0.06,0.088
-1.475e-05,-0.08,0.088
-1.472e-05,-0.08,0.08
-1.469e-05,-0.1,0.072
-1.466e-05,-0.12,0.072
-1.462e-05,-0.1,0.064
-1.459e-05,-0.12,0.056
-1.456e-05,-0.14,0.056
-1.453e-05,-0.14,0.048
-1.450e-05,-0.16,0.048
-1.446e-05,-0.16,0.04
-1.443e-05,-0.18,0.032
-1.440e-05,-0.18,0.032
-1.437e-05,-0.18,0.024
-1.434e-05,-0.2,0.024
-1.430e-05,-0.2,0.016
-1.427e-05,-0.22,0.008
-1.424e-05,-0.22,-5.96046e-10
-1.421e-05,-0.24,-5.96046e-10
-1.418e-05,-0.24,-0.008
-1.414e-05,-0.24,-0.008
-1.411e-05,-0.26,-0.016
-1.408e-05,-0.26,-0.024
-1.405e-05,-0.26,-0.024
-1.402e-05,-0.28,-0.032
-1.398e-05,-0.28,-0.04
-1.395e-05,-0.28,-0.04
-1.392e-05,-0.3,-0.048
-1.389e-05,-0.3,-0.056
-1.386e-05,-0.3,-0.064
-1.382e-05,-0.32,-0.064
-1.379e-05,-0.32,-0.064
-1.376e-05,-0.34,-0.072
-1.373e-05,-0.34,-0.072
-1.370e-05,-0.34,-0.088
-1.366e-05,-0.34,-0.088
-1.363e-05,-0.36,-0.088
-1.360e-05,-0.36,-0.096
-1.357e-05,-0.36,-0.096
-1.354e-05,-0.38,-0.104
-1.350e-05,-0.38,-0.112
-1.347e-05,-0.38,-0.12
-1.344e-05,-0.38,-0.12
-1.341e-05,-0.38,-0.12
-1.338e-05,-0.4,-0.128
-1.334e-05,-0.4,-0.128
-1.331e-05,-0.4,-0.136
-1.328e-05,-0.42,-0.136
-1.325e-05,-0.42,-0.144
-1.322e-05,-0.42,-0.144
-1.318e-05,-0.42,-0.152
-1.315e-05,-0.42,-0.152
-1.312e-05,-0.44,-0.16
-1.309e-05,-0.44,-0.16
-1.306e-05,-0.42,-0.168
-1.302e-05,-0.44,-0.168
-1.299e-05,-0.44,-0.168
-1.296e-05,-0.46,-0.176
-1.293e-05,-0.44,-0.184
-1.290e-05,-0.46,-0.184
-1.286e-05,-0.46,-0.184
-1.283e-05,-0.46,-0.192
-1.280e-05,-0.46,-0.192
-1.277e-05,-0.46,-0.192
-1.274e-05,-0.46,-0.2
-1.270e-05,-0.46,-0.2
-1.267e-05,-0.46,-0.2
-1.264e-05,-0.46,-0.208
-1.261e-05,-0.46,-0.208
-1.258e-05,-0.46,-0.208
-1.254e-05,-0.46,-0.216
-1.251e-05,-0.46,-0.216
-1.248e-05,-0.46,-0.216
-1.245e-05,-0.46,-0.224
-1.242e-05,-0.46,-0.224
-1.238e-05,-0.46,-0.224
-1.235e-05,-0.46,-0.232
-1.232e-05,-0.46,-0.224
-1.229e-05,-0.46,-0.232
-1.226e-05,-0.46,-0.232
-1.222e-05,-0.44,-0.232
-1.219e-05,-0.44,-0.24
-1.216e-05,-0.44,-0.24
-1.213e-05,-0.44,-0.24
-1.210e-05,-0.44,-0.24
-1.206e-05,-0.44,-0.24
-1.203e-05,-0.44,-0.24
-1.200e-05,-0.44,-0.24
-1.197e-05,-0.42,-0.248
-1.194e-05,-0.42,-0.248
-1.190e-05,-0.42,-0.248
-1.187e-05,-0.42,-0.248
-1.184e-05,-0.42,-0.248
-1.181e-05,-0.4,-0.248
-1.178e-05,-0.4,-0.248
-1.174e-05,-0.4,-0.248
-1.171e-05,-0.4,-0.248
-1.168e-05,-0.38,-0.248
-1.165e-05,-0.38,-0.248
-1.162e-05,-0.38,-0.248
-1.158e-05,-0.38,-0.248
-1.155e-05,-0.36,-0.248
-1.152e-05,-0.36,-0.24
-1.149e-05,-0.36,-0.24
-1.146e-05,-0.34,-0.24
-1.142e-05,-0.34,-0.24
-1.139e-05,-0.34,-0.24
-1.136e-05,-0.32,-0.24
-1.133e-05,-0.32,-0.24
-1.130e-05,-0.32,-0.232
-1.126e-05,-0.32,-0.232
-1.123e-05,-0.3,-0.232
-1.120e-05,-0.3,-0.232
-1.117e-05,-0.3,-0.224
-1.114e-05,-0.28,-0.224
-1.110e-05,-0.28,-0.224
-1.107e-05,-0.28,-0.224
-1.104e-05,-0.26,-0.224
-1.101e-05,-0.24,-0.216
-1.098e-05,-0.24,-0.216
-1.094e-05,-0.24,-0.216
-1.091e-05,-0.22,-0.208
-1.088e-05,-0.22,-0.208
-1.085e-05,-0.2,-0.208
-1.082e-05,-0.2,-0.2
-1.078e-05,-0.2,-0.2
-1.075e-05,-0.18,-0.2
-1.072e-05,-0.18,-0.192
-1.069e-05,-0.16,-0.184
-1.066e-05,-0.18,-0.184
-1.062e-05,-0.14,-0.184
-1.059e-05,-0.14,-0.176
-1.056e-05,-0.12,-0.176
-1.053e-05,-0.12,-0.168
-1.050e-05,-0.12,-0.168
-1.046e-05,-0.1,-0.16
-1.043e-05,-0.1,-0.16
-1.040e-05,-0.08,-0.16
-1.037e-05,-0.08,-0.152
-1.034e-05,-0.06,-0.152
-1.030e-05,-0.06,-0.144
-1.027e-05,-0.04,-0.144
-1.024e-05,-0.04,-0.136
-1.021e-05,-0.02,-0.136
-1.018e-05,-0.02,-0.128
-1.014e-05,0,-0.12
-1.011e-05,0,-0.12
-1.008e-05,0,-0.112
-1.005e-05,0.02,-0.112
-1.002e-05,0.02,-0.104
-9.984e-06,0.04,-0.104
-9.952e-06,0.06,-0.096
-9.920e-06,0.06,-0.088
-9.888e-06,0.06,-0.088
-9.856e-06,0.08,-0.08
-9.824e-06,0.1,-0.08
-9.792e-06,0.1,-0.072
-9.760e-06,0.1,-0.072
-9.728e-06,0.1,-0.064
-9.696e-06,0.12,-0.064
-9.664e-06,0.14,-0.056
-9.632e-06,0.14,-0.048
-9.600e-06,0.16,-0.048
-9.568e-06,0.16,-0.04
-9.536e-06,0.18,-0.032
-9.504e-06,0.18,-0.032
-9.472e-06,0.18,-0.024
-9.440e-06,0.2,-0.016
-9.408e-06,0.2,-0.016
-9.376e-06,0.22,-0.008
-9.344e-06,0.22,-0.008
-9.312e-06,0.24,-5.96046e-10
-9.280e-06,0.24,0.008
-9.248e-06,0.24,0.008
-9.216e-06,0.26,0.016
-9.184e-06,0.26,0.016
-9.152e-06,0.26,0.024
-9.120e-06,0.28,0.032
-9.088e-06,0.3,0.032
-9.056e-06,0.3,0.04
-9.024e-06,0.32,0.048
-8.992e-06,0.32,0.048
-8.960e-06,0.32,0.056
-8.928e-06,0.34,0.056
-8.896e-06,0.34,0.064
-8.864e-06,0.34,0.072
-8.832e-06,0.34,0.072
-8.800e-06,0.36,0.08
-8.768e-06,0.36,0.088
-8.736e-06,0.36,0.088
-8.704e-06,0.38,0.096
-8.672e-06,0.4,0.096
-8.640e-06,0.4,0.104
-8.608e-06,0.4,0.112
-8.576e-06,0.4,0.112
-8.544e-06,0.42,0.12
-8.512e-06,0.42,0.12
-8.480e-06,0.42,0.128
-8.448e-06,0.42,0.136
-8.416e-06,0.44,0.136
-8.384e-06,0.44,0.136
-8.352e-06,0.44,0.144
-8.320e-06,0.44,0.144
-8.288e-06,0.46,0.152
-8.256e-06,0.46,0.16
-8.224e-06,0.46,0.16
-8.192e-06,0.46,0.16
-8.160e-06,0.46,0.168
-8.128e-06,0.48,0.168
-8.096e-06,0.48,0.176
-8.064e-06,0.48,0.184
-8.032e-06,0.48,0.184
-8.000e-06,0.48,0.192
-7.968e-06,0.5,0.192
-7.936e-06,0.48,0.192
-7.904e-06,0.48,0.2
-7.872e-06,0.48,0.2
-7.840e-06,0.5,0.208
-7.808e-06,0.5,0.208
-7.776e-06,0.5,0.208
-7.744e-06,0.5,0.216
-7.712e-06,0.48,0.216
-7.680e-06,0.5,0.224
-7.648e-06,0.5,0.224
-7.616e-06,0.5,0.224
-7.584e-06,0.5,0.232
-7.552e-06,0.5,0.224
-7.520e-06,0.5,0.232
-7.488e-06,0.5,0.24
-7.456e-06,0.5,0.24
-7.424e-06,0.5,0.24
-7.392e-06,0.5,0.24
-7.360e-06,0.5,0.248
-7.328e-06,0.5,0.248
-7.296e-06,0.5,0.248
-7.264e-06,0.48,0.248
-7.232e-06,0.5,0.248
-7.200e-06,0.5,0.248
-7.168e-06,0.5,0.256
-7.136e-06,0.48,0.256
-7.104e-06,0.48,0.256
-7.072e-06,0.48,0.256
-7.040e-06,0.48,0.256
-7.008e-06,0.48,0.256
-6.976e-06,0.46,0.256
-6.944e-06,0.46,0.256
-6.912e-06,0.46,0.264
-6.880e-06,0.46,0.264
-6.848e-06,0.46,0.256
-6.816e-06,0.44,0.256
-6.784e-06,0.44,0.264
-6.752e-06,0.44,0.256
-6.720e-06,0.44,0.264
-6.688e-06,0.44,0.256
-6.656e-06,0.42,0.264
-6.624e-06,0.42,0.264
-6.592e-06,0.42,0.256
-6.560e-06,0.4,0.264
-6.528e-06,0.4,0.256
-6.496e-06,0.4,0.248
-6.464e-06,0.4,0.256
-6.432e-06,0.38,0.256
-6.400e-06,0.38,0.256
-6.368e-06,0.38,0.256
-6.336e-06,0.36,0.256
-6.304e-06,0.36,0.248
-6.272e-06,0.34,0.248
-6.240e-06,0.34,0.248
-6.208e-06,0.34,0.248
-6.176e-06,0.32,0.248
-6.144e-06,0.32,0.24
-6.112e-06,0.3,0.24
-6.080e-06,0.3,0.24
-6.048e-06,0.3,0.24
-6.016e-06,0.28,0.232
-5.984e-06,0.28,0.232
-5.952e-06,0.28,0.232
-5.920e-06,0.26,0.232
-5.888e-06,0.26,0.224
-5.856e-06,0.26,0.216
-5.824e-06,0.24,0.216
-5.792e-06,0.22,0.216
-5.760e-06,0.18,0.208
-5.728e-06,0.2,0.208
-5.696e-06,0.2,0.208
-5.664e-06,0.22,0.2
-5.632e-06,0.2,0.2
-5.600e-06,0.18,0.2
-5.568e-06,0.16,0.192
-5.536e-06,0.14,0.192
-5.504e-06,0.16,0.184
-5.472e-06,0.14,0.184
-5.440e-06,0.14,0.176
-5.408e-06,0.12,0.176
-5.376e-06,0.12,0.176
-5.344e-06,0.1,0.168
-5.312e-06,0.08,0.16
-5.280e-06,0.08,0.16
-5.248e-06,0.08,0.152
-5.216e-06,0.06,0.152
-5.184e-06,0.06,0.144
-5.152e-06,0.06,0.144
-5.120e-06,0.04,0.136
-5.088e-06,0.02,0.136
-5.056e-06,0,0.128
-5.024e-06,0,0.128
-4.992e-06,0,0.12
-4.960e-06,0,0.112
-4.928e-06,-0.02,0.112
-4.896e-06,-0.02,0.104
-4.864e-06,-0.04,0.096
-4.832e-06,-0.04,0.096
-4.800e-06,-0.06,0.088
-4.768e-06,-0.08,0.088
-4.736e-06,-0.08,0.08
-4.704e-06,-0.1,0.08
-4.672e-06,-0.1,0.064
-4.640e-06,-0.1,0.064
-4.608e-06,-0.12,0.064
-4.576e-06,-0.12,0.056
-4.544e-06,-0.14,0.048
-4.512e-06,-0.16,0.048
-4.480e-06,-0.16,0.04
-4.448e-06,-0.18,0.04
-4.416e-06,-0.18,0.032
-4.384e-06,-0.18,0.024
-4.352e-06,-0.2,0.024
-4.320e-06,-0.22,0.016
-4.288e-06,-0.2,0.016
-4.256e-06,-0.22,0.008
-4.224e-06,-0.24,-5.96046e-10
-4.192e-06,-0.24,-5.96046e-10
-4.160e-06,-0.24,-0.008
-4.128e-06,-0.26,-0.016
-4.096e-06,-0.26,-0.024
-4.064e-06,-0.26,-0.024
-4.032e-06,-0.28,-0.024
-4.000e-06,-0.28,-0.032
