capacitor_data_0412/TEK00078.CSV

Model,TBS2074B
Firmware Version,v1.32.136

Point Format,Y,
Horizontal Units,S,
Horizontal Scale,4e-07,
Sample Interval,4e-09,
Filter Frequency,2e+08,
Record Length,2000,
Gating,0.0% to 100.0%,0.0% to 100.0%
Probe Attenuation,1,1
Vertical Units,V,V
Vertical Offset,0,0
Vertical Scale,2,1
Label,,
TIME,CH1,CH2
-4.000e-06,0.08,0.56
-3.996e-06,0.08,0.56
-3.992e-06,0.16,0.6
-3.988e-06,0.24,0.6
-3.984e-06,0.32,0.6
-3.980e-06,0.4,0.64
-3.976e-06,0.48,0.64
-3.972e-06,0.56,0.68
-3.968e-06,0.64,0.68
-3.964e-06,0.72,0.68
-3.960e-06,0.72,0.72
-3.956e-06,0.88,0.72
-3.952e-06,0.88,0.72
-3.948e-06,0.96,0.76
-3.944e-06,1.04,0.76
-3.940e-06,1.12,0.76
-3.936e-06,1.12,0.76
-3.932e-06,1.2,0.8
-3.928e-06,1.28,0.8
-3.924e-06,1.36,0.8
-3.920e-06,1.44,0.84
-3.916e-06,1.52,0.84
-3.912e-06,1.6,0.84
-3.908e-06,1.6,0.84
-3.904e-06,1.68,0.84
-3.900e-06,1.76,0.88
-3.896e-06,1.84,0.84
-3.892e-06,1.84,0.84
-3.888e-06,1.92,0.84
-3.884e-06,2,0.84
-3.880e-06,2,0.88
-3.876e-06,2.08,0.88
-3.872e-06,2.16,0.88
-3.868e-06,2.16,0.88
-3.864e-06,2.24,0.88
-3.860e-06,2.24,0.88
-3.856e-06,2.32,0.88
-3.852e-06,2.32,0.88
-3.848e-06,2.4,0.92
-3.844e-06,2.48,0.88
-3.840e-06,2.48,0.88
-3.836e-06,2.56,0.88
-3.832e-06,2.56,0.88
-3.828e-06,2.64,0.88
-3.824e-06,2.64,0.88
-3.820e-06,2.64,0.88
-3.816e-06,2.72,0.88
-3.812e-06,2.8,0.88
-3.808e-06,2.8,0.84
-3.804e-06,2.8,0.84
-3.800e-06,2.8,0.84
-3.796e-06,2.88,0.8
-3.792e-06,2.88,0.8
-3.788e-06,2.88,0.8
-3.784e-06,2.88,0.8
-3.780e-06,2.88,0.8
-3.776e-06,2.88,0.76
-3.772e-06,2.88,0.76
-3.768e-06,2.96,0.76
-3.764e-06,2.96,0.76
-3.760e-06,2.96,0.72
-3.756e-06,2.96,0.72
-3.752e-06,2.96,0.68
-3.748e-06,2.96,0.72
-3.744e-06,2.96,0.68
-3.740e-06,2.96,0.68
-3.736e-06,2.88,0.64
-3.732e-06,2.96,0.6
-3.728e-06,2.96,0.6
-3.724e-06,2.88,0.6
-3.720e-06,2.88,0.56
-3.716e-06,2.88,0.56
-3.712e-06,2.8,0.56
-3.708e-06,2.8,0.52
-3.704e-06,2.8,0.52
-3.700e-06,2.8,0.48
-3.696e-06,2.8,0.48
-3.692e-06,2.8,0.48
-3.688e-06,2.72,0.44
-3.684e-06,2.64,0.44
-3.680e-06,2.72,0.4
-3.676e-06,2.64,0.4
-3.672e-06,2.56,0.36
-3.668e-06,2.56,0.32
-3.664e-06,2.48,0.32
-3.660e-06,2.48,0.28
-3.656e-06,2.4,0.28
-3.652e-06,2.4,0.28
-3.648e-06,2.32,0.24
-3.644e-06,2.32,0.2
-3.640e-06,2.24,0.2
-3.636e-06,2.24,0.16
-3.632e-06,2.16,0.16
-3.628e-06,2.08,0.12
-3.624e-06,2.08,0.08
-3.620e-06,2,0.08
-3.616e-06,1.92,0.04
-3.612e-06,1.92,0
-3.608e-06,1.84,0
-3.604e-06,1.76,-0.04
-3.600e-06,1.68,-0.04
-3.596e-06,1.68,-0.04
-3.592e-06,1.6,-0.08
-3.588e-06,1.52,-0.12
-3.584e-06,1.44,-0.12
-3.580e-06,1.36,-0.12
-3.576e-06,1.28,-0.16
-3.572e-06,1.28,-0.2
-3.568e-06,1.2,-0.2
-3.564e-06,1.12,-0.24
-3.560e-06,1.04,-0.24
-3.556e-06,0.96,-0.28
-3.552e-06,0.88,-0.28
-3.548e-06,0.8,-0.32
-3.544e-06,0.72,-0.32
-3.540e-06,0.64,-0.36
-3.536e-06,0.56,-0.4
-3.532e-06,0.56,-0.4
-3.528e-06,0.48,-0.4
-3.524e-06,0.4,-0.44
-3.520e-06,0.32,-0.48
-3.516e-06,0.24,-0.48
-3.512e-06,0.16,-0.48
-3.508e-06,0.16,-0.52
-3.504e-06,0.08,-0.52
-3.500e-06,0,-0.52
-3.496e-06,-0.08,-0.56
-3.492e-06,-0.16,-0.6
-3.488e-06,-0.24,-0.6
-3.484e-06,-0.32,-0.6
-3.480e-06,-0.4,-0.6
-3.476e-06,-0.48,-0.64
-3.472e-06,-0.48,-0.64
-3.468e-06,-0.56,-0.68
-3.464e-06,-0.64,-0.68
-3.460e-06,-0.72,-0.72
-3.456e-06,-0.8,-0.72
-3.452e-06,-0.88,-0.72
-3.448e-06,-0.96,-0.72
-3.444e-06,-1.04,-0.72
-3.440e-06,-1.12,-0.76
-3.436e-06,-1.12,-0.76
-3.432e-06,-1.2,-0.76
-3.428e-06,-1.28,-0.76
-3.424e-06,-1.36,-0.8
-3.420e-06,-1.44,-0.8
-3.416e-06,-1.44,-0.84
-3.412e-06,-1.52,-0.84
-3.408e-06,-1.6,-0.8
-3.404e-06,-1.68,-0.84
-3.400e-06,-1.68,-0.84
-3.396e-06,-1.76,-0.84
-3.392e-06,-1.84,-0.84
-3.388e-06,-1.92,-0.84
-3.384e-06,-1.92,-0.84
-3.380e-06,-2,-0.84
-3.376e-06,-2,-0.88
-3.372e-06,-2.08,-0.88
-3.368e-06,-2.16,-0.88
-3.364e-06,-2.24,-0.88
-3.360e-06,-2.24,-0.88
-3.356e-06,-2.32,-0.88
-3.352e-06,-2.32,-0.88
-3.348e-06,-2.4,-0.92
-3.344e-06,-2.4,-0.88
-3.340e-06,-2.48,-0.88
-3.336e-06,-2.48,-0.88
-3.332e-06,-2.56,-0.84
-3.328e-06,-2.56,-0.84
-3.324e-06,-2.64,-0.84
-3.320e-06,-2.64,-0.84
-3.316e-06,-2.64,-0.84
-3.312e-06,-2.72,-0.84
-3.308e-06,-2.72,-0.84
-3.304e-06,-2.72,-0.8
-3.300e-06,-2.8,-0.8
-3.296e-06,-2.8,-0.8
-3.292e-06,-2.88,-0.8
-3.288e-06,-2.8,-0.8
-3.284e-06,-2.8,-0.76
-3.280e-06,-2.8,-0.76
-3.276e-06,-2.88,-0.76
-3.272e-06,-2.88,-0.76
-3.268e-06,-2.88,-0.72
-3.264e-06,-2.88,-0.72
-3.260e-06,-2.88,-0.72
-3.256e-06,-2.88,-0.68
-3.252e-06,-2.88,-0.68
-3.248e-06,-2.88,-0.64
-3.244e-06,-2.88,-0.64
-3.240e-06,-2.88,-0.64
-3.236e-06,-2.88,-0.64
-3.232e-06,-2.88,-0.64
-3.228e-06,-2.88,-0.6
-3.224e-06,-2.88,-0.6
-3.220e-06,-2.88,-0.6
-3.216e-06,-2.8,-0.56
-3.212e-06,-2.8,-0.52
-3.208e-06,-2.8,-0.52
-3.204e-06,-2.8,-0.52
-3.200e-06,-2.72,-0.48
-3.196e-06,-2.72,-0.48
-3.192e-06,-2.72,-0.44
-3.188e-06,-2.64,-0.44
-3.184e-06,-2.64,-0.4
-3.180e-06,-2.56,-0.4
-3.176e-06,-2.56,-0.36
-3.172e-06,-2.56,-0.36
-3.168e-06,-2.48,-0.32
-3.164e-06,-2.48,-0.28
-3.160e-06,-2.4,-0.28
-3.156e-06,-2.4,-0.24
-3.152e-06,-2.4,-0.24
-3.148e-06,-2.32,-0.24
-3.144e-06,-2.32,-0.2
-3.140e-06,-2.24,-0.2
-3.136e-06,-2.16,-0.16
-3.132e-06,-2.16,-0.16
-3.128e-06,-2.08,-0.12
-3.124e-06,-2,-0.08
-3.120e-06,-1.92,-0.08
-3.116e-06,-1.92,-0.04
-3.112e-06,-1.84,-0.04
-3.108e-06,-1.76,0
-3.104e-06,-1.68,0
-3.100e-06,-1.68,0.04
-3.096e-06,-1.6,0.08
-3.092e-06,-1.52,0.04
-3.088e-06,-1.52,0.12
-3.084e-06,-1.44,0.12
-3.080e-06,-1.36,0.16
-3.076e-06,-1.28,0.16
-3.072e-06,-1.2,0.2
-3.068e-06,-1.12,0.24
-3.064e-06,-1.04,0.24
-3.060e-06,-1.04,0.28
-3.056e-06,-0.96,0.28
-3.052e-06,-0.88,0.28
-3.048e-06,-0.8,0.32
-3.044e-06,-0.8,0.32
-3.040e-06,-0.72,0.36
-3.036e-06,-0.64,0.36
-3.032e-06,-0.56,0.4
-3.028e-06,-0.48,0.44
-3.024e-06,-0.4,0.44
-3.020e-06,-0.32,0.44
-3.016e-06,-0.24,0.48
-3.012e-06,-0.16,0.52
-3.008e-06,-0.08,0.52
-3.004e-06,0,0.56
-3.000e-06,0,0.56
-2.996e-06,0.16,0.6
-2.992e-06,0.16,0.6
-2.988e-06,0.24,0.6
-2.984e-06,0.32,0.6
-2.980e-06,0.4,0.6
-2.976e-06,0.48,0.64
-2.972e-06,0.56,0.64
-2.968e-06,0.64,0.68
-2.964e-06,0.72,0.68
-2.960e-06,0.8,0.68
-2.956e-06,0.8,0.72
-2.952e-06,0.88,0.72
-2.948e-06,0.96,0.76
-2.944e-06,1.04,0.76
-2.940e-06,1.12,0.76
-2.936e-06,1.2,0.76
-2.932e-06,1.28,0.8
-2.928e-06,1.36,0.8
-2.924e-06,1.36,0.8
-2.920e-06,1.44,0.84
-2.916e-06,1.52,0.84
-2.912e-06,1.52,0.84
-2.908e-06,1.6,0.84
-2.904e-06,1.68,0.84
-2.900e-06,1.76,0.84
-2.896e-06,1.84,0.84
-2.892e-06,1.84,0.88
-2.888e-06,1.92,0.88
-2.884e-06,2,0.84
-2.880e-06,2,0.88
-2.876e-06,2.08,0.88
-2.872e-06,2.16,0.88
-2.868e-06,2.24,0.84
-2.864e-06,2.24,0.88
-2.860e-06,2.32,0.88
-2.856e-06,2.32,0.88
-2.852e-06,2.4,0.92
-2.848e-06,2.4,0.88
-2.844e-06,2.48,0.88
-2.840e-06,2.56,0.88
-2.836e-06,2.48,0.88
-2.832e-06,2.56,0.88
-2.828e-06,2.64,0.88
-2.824e-06,2.64,0.88
-2.820e-06,2.72,0.88
-2.816e-06,2.72,0.84
-2.812e-06,2.72,0.84
-2.808e-06,2.8,0.84
-2.804e-06,2.8,0.84
-2.800e-06,2.8,0.8
-2.796e-06,2.88,0.8
-2.792e-06,2.88,0.8
-2.788e-06,2.88,0.8
-2.784e-06,2.96,0.8
-2.780e-06,2.96,0.8
-2.776e-06,2.96,0.76
-2.772e-06,2.96,0.76
-2.768e-06,2.96,0.76
-2.764e-06,2.96,0.72
-2.760e-06,2.96,0.72
-2.756e-06,2.96,0.68
-2.752e-06,2.96,0.68
-2.748e-06,2.96,0.68
-2.744e-06,2.96,0.68
-2.740e-06,2.96,0.64
-2.736e-06,2.88,0.64
-2.732e-06,2.88,0.6
-2.728e-06,2.96,0.6
-2.724e-06,2.96,0.6
-2.720e-06,2.96,0.56
-2.716e-06,2.88,0.56
-2.712e-06,2.88,0.52
-2.708e-06,2.8,0.52
-2.704e-06,2.88,0.48
-2.700e-06,2.8,0.48
-2.696e-06,2.8,0.44
-2.692e-06,2.72,0.44
-2.688e-06,2.72,0.4
-2.684e-06,2.72,0.4
-2.680e-06,2.64,0.4
-2.676e-06,2.64,0.36
-2.672e-06,2.56,0.32
-2.668e-06,2.56,0.32
-2.664e-06,2.48,0.32
-2.660e-06,2.48,0.28
-2.656e-06,2.48,0.28
-2.652e-06,2.4,0.24
-2.648e-06,2.32,0.24
-2.644e-06,2.32,0.24
-2.640e-06,2.24,0.2
-2.636e-06,2.16,0.16
-2.632e-06,2.16,0.16
-2.628e-06,2.08,0.12
-2.624e-06,2,0.12
-2.620e-06,2,0.08
-2.616e-06,1.92,0.04
-2.612e-06,1.92,0.04
-2.608e-06,1.84,0
-2.604e-06,1.76,0
-2.600e-06,1.68,-0.04
-2.596e-06,1.68,-0.08
-2.592e-06,1.6,-0.08
-2.588e-06,1.52,-0.08
-2.584e-06,1.44,-0.12
-2.580e-06,1.36,-0.12
-2.576e-06,1.28,-0.16
-2.572e-06,1.28,-0.2
-2.568e-06,1.2,-0.2
-2.564e-06,1.12,-0.24
-2.560e-06,1.04,-0.24
-2.556e-06,0.96,-0.28
-2.552e-06,0.96,-0.28
-2.548e-06,0.88,-0.32
-2.544e-06,0.8,-0.32
-2.540e-06,0.72,-0.36
-2.536e-06,0.64,-0.4
-2.532e-06,0.56,-0.4
-2.528e-06,0.48,-0.4
-2.524e-06,0.4,-0.44
-2.520e-06,0.32,-0.48
-2.516e-06,0.32,-0.48
-2.512e-06,0.24,-0.52
-2.508e-06,0.08,-0.48
-2.504e-06,0.08,-0.52
-2.500e-06,0,-0.52
-2.496e-06,-0.08,-0.56
-2.492e-06,-0.16,-0.6
-2.488e-06,-0.24,-0.6
-2.484e-06,-0.32,-0.6
-2.480e-06,-0.4,-0.64
-2.476e-06,-0.48,-0.64
-2.472e-06,-0.56,-0.64
-2.468e-06,-0.56,-0.68
-2.464e-06,-0.64,-0.68
-2.460e-06,-0.72,-0.72
-2.456e-06,-0.8,-0.72
-2.452e-06,-0.88,-0.72
-2.448e-06,-0.96,-0.72
-2.444e-06,-1.04,-0.76
-2.440e-06,-1.12,-0.76
-2.436e-06,-1.12,-0.76
-2.432e-06,-1.2,-0.76
-2.428e-06,-1.28,-0.76
-2.424e-06,-1.36,-0.8
-2.420e-06,-1.44,-0.8
-2.416e-06,-1.44,-0.84
-2.412e-06,-1.52,-0.84
-2.408e-06,-1.6,-0.84
-2.404e-06,-1.68,-0.84
-2.400e-06,-1.68,-0.84
-2.396e-06,-1.76,-0.84
-2.392e-06,-1.84,-0.84
-2.388e-06,-1.92,-0.88
-2.384e-06,-1.92,-0.88
-2.380e-06,-2,-0.84
-2.376e-06,-2.08,-0.88
-2.372e-06,-2.08,-0.88
-2.368e-06,-2.16,-0.88
-2.364e-06,-2.16,-0.88
-2.360e-06,-2.24,-0.88
-2.356e-06,-2.32,-0.88
-2.352e-06,-2.32,-0.88
-2.348e-06,-2.4,-0.88
-2.344e-06,-2.4,-0.88
-2.340e-06,-2.48,-0.88
-2.336e-06,-2.48,-0.88
-2.332e-06,-2.56,-0.84
-2.328e-06,-2.56,-0.84
-2.324e-06,-2.56,-0.84
-2.320e-06,-2.64,-0.84
-2.316e-06,-2.64,-0.84
-2.312e-06,-2.72,-0.88
-2.308e-06,-2.72,-0.84
-2.304e-06,-2.8,-0.84
-2.300e-06,-2.72,-0.84
-2.296e-06,-2.72,-0.8
-2.292e-06,-2.72,-0.8
-2.288e-06,-2.8,-0.8
-2.284e-06,-2.8,-0.76
-2.280e-06,-2.8,-0.8
-2.276e-06,-2.8,-0.76
-2.272e-06,-2.8,-0.76
-2.268e-06,-2.8,-0.72
-2.264e-06,-2.88,-0.72
-2.260e-06,-2.88,-0.72
-2.256e-06,-2.88,-0.68
-2.252e-06,-2.88,-0.68
-2.248e-06,-2.88,-0.68
-2.244e-06,-2.88,-0.68
-2.240e-06,-2.88,-0.64
-2.236e-06,-2.88,-0.6
-2.232e-06,-2.88,-0.64
-2.228e-06,-2.88,-0.6
-2.224e-06,-2.88,-0.56
-2.220e-06,-2.8,-0.56
-2.216e-06,-2.8,-0.56
-2.212e-06,-2.8,-0.56
-2.208e-06,-2.8,-0.52
-2.204e-06,-2.8,-0.52
-2.200e-06,-2.72,-0.48
-2.196e-06,-2.72,-0.48
-2.192e-06,-2.72,-0.48
-2.188e-06,-2.64,-0.44
-2.184e-06,-2.64,-0.4
-2.180e-06,-2.56,-0.4
-2.176e-06,-2.56,-0.36
-2.172e-06,-2.56,-0.36
-2.168e-06,-2.56,-0.32
-2.164e-06,-2.48,-0.32
-2.160e-06,-2.48,-0.28
-2.156e-06,-2.4,-0.28
-2.152e-06,-2.4,-0.24
-2.148e-06,-2.32,-0.24
-2.144e-06,-2.24,-0.2
-2.140e-06,-2.24,-0.2
-2.136e-06,-2.16,-0.16
-2.132e-06,-2.08,-0.16
-2.128e-06,-2.08,-0.12
-2.124e-06,-2,-0.08
-2.120e-06,-2,-0.08
-2.116e-06,-1.92,-0.04
-2.112e-06,-1.84,-0.04
-2.108e-06,-1.76,0
-2.104e-06,-1.68,0
-2.100e-06,-1.68,0.04
-2.096e-06,-1.6,0.04
-2.092e-06,-1.52,0.08
-2.088e-06,-1.44,0.12
-2.084e-06,-1.44,0.12
-2.080e-06,-1.36,0.16
-2.076e-06,-1.28,0.16
-2.072e-06,-1.2,0.2
-2.068e-06,-1.12,0.24
-2.064e-06,-1.12,0.24
-2.060e-06,-1.04,0.28
-2.056e-06,-0.96,0.28
-2.052e-06,-0.88,0.32
-2.048e-06,-0.8,0.32
-2.044e-06,-0.72,0.32
-2.040e-06,-0.64,0.36
-2.036e-06,-0.64,0.4
-2.032e-06,-0.56,0.4
-2.028e-06,-0.48,0.4
-2.024e-06,-0.4,0.44
-2.020e-06,-0.32,0.44
-2.016e-06,-0.24,0.48
-2.012e-06,-0.24,0.48
-2.008e-06,-0.08,0.52
-2.004e-06,0,0.52
-2.000e-06,0,0.56
-1.996e-06,0.08,0.56
-1.992e-06,0.16,0.56
-1.988e-06,0.24,0.6
-1.984e-06,0.32,0.6
-1.980e-06,0.4,0.64
-1.976e-06,0.48,0.64
-1.972e-06,0.56,0.64
-1.968e-06,0.64,0.68
-1.964e-06,0.72,0.68
-1.960e-06,0.8,0.72
-1.956e-06,0.88,0.72
-1.952e-06,0.88,0.72
-1.948e-06,0.96,0.76
-1.944e-06,1.04,0.8
-1.940e-06,1.12,0.8
-1.936e-06,1.2,0.8
-1.932e-06,1.2,0.8
-1.928e-06,1.28,0.8
-1.924e-06,1.36,0.8
-1.920e-06,1.44,0.8
-1.916e-06,1.52,0.84
-1.912e-06,1.52,0.84
-1.908e-06,1.6,0.84
-1.904e-06,1.68,0.84
-1.900e-06,1.76,0.84
-1.896e-06,1.84,0.88
-1.892e-06,1.84,0.88
-1.888e-06,1.92,0.88
-1.884e-06,1.92,0.88
-1.880e-06,2,0.88
-1.876e-06,2.08,0.88
-1.872e-06,2.16,0.88
-1.868e-06,2.16,0.88
-1.864e-06,2.24,0.88
-1.860e-06,2.24,0.88
-1.856e-06,2.32,0.88
-1.852e-06,2.4,0.88
-1.848e-06,2.4,0.88
-1.844e-06,2.48,0.88
-1.840e-06,2.48,0.88
-1.836e-06,2.48,0.88
-1.832e-06,2.56,0.88
-1.828e-06,2.64,0.88
-1.824e-06,2.64,0.88
-1.820e-06,2.64,0.88
-1.816e-06,2.72,0.88
-1.812e-06,2.72,0.84
-1.808e-06,2.72,0.84
-1.804e-06,2.8,0.84
-1.800e-06,2.8,0.84
-1.796e-06,2.88,0.8
-1.792e-06,2.88,0.8
-1.788e-06,2.88,0.8
-1.784e-06,2.88,0.8
-1.780e-06,2.88,0.8
-1.776e-06,2.96,0.76
-1.772e-06,2.96,0.76
-1.768e-06,2.96,0.72
-1.764e-06,2.88,0.72
-1.760e-06,2.96,0.72
-1.756e-06,2.96,0.72
-1.752e-06,2.96,0.72
-1.748e-06,2.96,0.68
-1.744e-06,2.96,0.64
-1.740e-06,2.96,0.64
-1.736e-06,2.96,0.64
-1.732e-06,2.96,0.64
-1.728e-06,2.96,0.6
-1.724e-06,2.88,0.56
-1.720e-06,2.88,0.6
-1.716e-06,2.88,0.56
-1.712e-06,2.88,0.56
-1.708e-06,2.8,0.52
-1.704e-06,2.8,0.52
-1.700e-06,2.8,0.48
-1.696e-06,2.8,0.44
-1.692e-06,2.72,0.44
-1.688e-06,2.72,0.44
-1.684e-06,2.64,0.4
-1.680e-06,2.64,0.4
-1.676e-06,2.64,0.36
-1.672e-06,2.56,0.36
-1.668e-06,2.56,0.36
-1.664e-06,2.48,0.32
-1.660e-06,2.48,0.28
-1.656e-06,2.4,0.28
-1.652e-06,2.4,0.24
-1.648e-06,2.32,0.24
-1.644e-06,2.32,0.2
-1.640e-06,2.24,0.2
-1.636e-06,2.16,0.16
-1.632e-06,2.16,0.12
-1.628e-06,2.08,0.08
-1.624e-06,2.08,0.08
-1.620e-06,2,0.08
-1.616e-06,1.92,0.04
-1.612e-06,1.92,0.04
-1.608e-06,1.84,0
-1.604e-06,1.76,0
-1.600e-06,1.68,-0.04
-1.596e-06,1.68,-0.08
-1.592e-06,1.6,-0.08
-1.588e-06,1.52,-0.12
-1.584e-06,1.44,-0.12
-1.580e-06,1.36,-0.16
-1.576e-06,1.28,-0.16
-1.572e-06,1.28,-0.2
-1.568e-06,1.2,-0.2
-1.564e-06,1.12,-0.24
-1.560e-06,1.04,-0.28
-1.556e-06,1.04,-0.28
-1.552e-06,0.96,-0.28
-1.548e-06,0.88,-0.32
-1.544e-06,0.8,-0.32
-1.540e-06,0.72,-0.36
-1.536e-06,0.64,-0.36
-1.532e-06,0.56,-0.4
-1.528e-06,0.48,-0.4
-1.524e-06,0.4,-0.44
-1.520e-06,0.32,-0.44
-1.516e-06,0.24,-0.48
-1.512e-06,0.16,-0.52
-1.508e-06,0.16,-0.52
-1.504e-06,0.08,-0.52
-1.500e-06,0,-0.56
-1.496e-06,-0.08,-0.56
-1.492e-06,-0.16,-0.56
-1.488e-06,-0.24,-0.6
-1.484e-06,-0.32,-0.6
-1.480e-06,-0.32,-0.6
-1.476e-06,-0.4,-0.64
-1.472e-06,-0.48,-0.68
-1.468e-06,-0.56,-0.68
-1.464e-06,-0.72,-0.68
-1.460e-06,-0.72,-0.68
-1.456e-06,-0.8,-0.68
-1.452e-06,-0.88,-0.72
-1.448e-06,-0.88,-0.72
-1.444e-06,-0.96,-0.72
-1.440e-06,-1.12,-0.76
-1.436e-06,-1.12,-0.76
-1.432e-06,-1.2,-0.76
-1.428e-06,-1.28,-0.76
-1.424e-06,-1.36,-0.8
-1.420e-06,-1.44,-0.84
-1.416e-06,-1.44,-0.8
-1.412e-06,-1.52,-0.84
-1.408e-06,-1.6,-0.84
-1.404e-06,-1.6,-0.84
-1.400e-06,-1.68,-0.84
-1.396e-06,-1.76,-0.84
-1.392e-06,-1.84,-0.84
-1.388e-06,-1.84,-0.84
-1.384e-06,-1.92,-0.84
-1.380e-06,-2,-0.84
-1.376e-06,-2,-0.84
-1.372e-06,-2.08,-0.84
-1.368e-06,-2.16,-0.84
-1.364e-06,-2.24,-0.88
-1.360e-06,-2.24,-0.88
-1.356e-06,-2.32,-0.88
-1.352e-06,-2.32,-0.88
-1.348e-06,-2.4,-0.88
-1.344e-06,-2.4,-0.88
-1.340e-06,-2.48,-0.88
-1.336e-06,-2.48,-0.88
-1.332e-06,-2.48,-0.88
-1.328e-06,-2.56,-0.88
-1.324e-06,-2.56,-0.84
-1.320e-06,-2.64,-0.88
-1.316e-06,-2.64,-0.84
-1.312e-06,-2.72,-0.84
-1.308e-06,-2.72,-0.84
-1.304e-06,-2.72,-0.8
-1.300e-06,-2.8,-0.8
-1.296e-06,-2.8,-0.8
-1.292e-06,-2.8,-0.8
-1.288e-06,-2.8,-0.8
-1.284e-06,-2.8,-0.8
-1.280e-06,-2.88,-0.76
-1.276e-06,-2.8,-0.76
-1.272e-06,-2.88,-0.76
-1.268e-06,-2.88,-0.76
-1.264e-06,-2.88,-0.72
-1.260e-06,-2.88,-0.72
-1.256e-06,-2.88,-0.72
-1.252e-06,-2.96,-0.68
-1.248e-06,-2.88,-0.68
-1.244e-06,-2.96,-0.64
-1.240e-06,-2.88,-0.64
-1.236e-06,-2.88,-0.64
-1.232e-06,-2.88,-0.6
-1.228e-06,-2.8,-0.6
-1.224e-06,-2.8,-0.56
-1.220e-06,-2.8,-0.56
-1.216e-06,-2.8,-0.56
-1.212e-06,-2.8,-0.52
-1.208e-06,-2.8,-0.52
-1.204e-06,-2.72,-0.52
-1.200e-06,-2.72,-0.48
-1.196e-06,-2.72,-0.48
-1.192e-06,-2.72,-0.44
-1.188e-06,-2.64,-0.44
-1.184e-06,-2.64,-0.4
-1.180e-06,-2.56,-0.36
-1.176e-06,-2.56,-0.36
-1.172e-06,-2.56,-0.36
-1.168e-06,-2.48,-0.32
-1.164e-06,-2.48,-0.32
-1.160e-06,-2.48,-0.28
-1.156e-06,-2.4,-0.24
-1.152e-06,-2.4,-0.24
-1.148e-06,-2.32,-0.2
-1.144e-06,-2.24,-0.2
-1.140e-06,-2.24,-0.16
-1.136e-06,-2.16,-0.16
-1.132e-06,-2.16,-0.12
-1.128e-06,-2.08,-0.12
-1.124e-06,-2,-0.08
-1.120e-06,-1.92,-0.08
-1.116e-06,-1.84,-0.04
-1.112e-06,-1.84,0
-1.108e-06,-1.76,0
-1.104e-06,-1.68,0
-1.100e-06,-1.68,0.04
-1.096e-06,-1.6,0.08
-1.092e-06,-1.52,0.08
-1.088e-06,-1.52,0.12
-1.084e-06,-1.44,0.16
-1.080e-06,-1.36,0.16
-1.076e-06,-1.28,0.16
-1.072e-06,-1.2,0.2
-1.068e-06,-1.12,0.2
-1.064e-06,-1.04,0.24
-1.060e-06,-1.04,0.24
-1.056e-06,-0.96,0.28
-1.052e-06,-0.88,0.28
-1.048e-06,-0.8,0.32
-1.044e-06,-0.72,0.36
-1.040e-06,-0.64,0.36
-1.036e-06,-0.56,0.4
-1.032e-06,-0.56,0.4
-1.028e-06,-0.48,0.4
-1.024e-06,-0.4,0.44
-1.020e-06,-0.32,0.48
-1.016e-06,-0.24,0.48
-1.012e-06,-0.16,0.48
-1.008e-06,-0.08,0.52
-1.004e-06,0,0.52
-1.000e-06,0.08,0.52
-9.960e-07,0.16,0.56
-9.920e-07,0.16,0.6
-9.880e-07,0.24,0.6
-9.840e-07,0.32,0.64
-9.800e-07,0.4,0.64
-9.760e-07,0.48,0.64
-9.720e-07,0.56,0.64
-9.680e-07,0.64,0.68
-9.640e-07,0.72,0.68
-9.600e-07,0.8,0.72
-9.560e-07,0.8,0.72
-9.520e-07,0.88,0.76
-9.480e-07,0.96,0.76
-9.440e-07,1.04,0.72
-9.400e-07,1.12,0.76
-9.360e-07,1.2,0.76
-9.320e-07,1.28,0.76
-9.280e-07,1.28,0.8
-9.240e-07,1.36,0.8
-9.200e-07,1.44,0.84
-9.160e-07,1.52,0.84
-9.120e-07,1.52,0.84
-9.080e-07,1.6,0.84
-9.040e-07,1.68,0.84
-9.000e-07,1.76,0.84
-8.960e-07,1.84,0.84
-8.920e-07,1.92,0.84
-8.880e-07,1.92,0.84
-8.840e-07,2,0.88
-8.800e-07,2,0.88
-8.760e-07,2.08,0.88
-8.720e-07,2.16,0.88
-8.680e-07,2.16,0.88
-8.640e-07,2.24,0.88
-8.600e-07,2.24,0.92
-8.560e-07,2.32,0.88
-8.520e-07,2.4,0.88
-8.480e-07,2.4,0.88
-8.440e-07,2.48,0.88
-8.400e-07,2.48,0.88
-8.360e-07,2.48,0.88
-8.320e-07,2.56,0.88
-8.280e-07,2.64,0.88
-8.240e-07,2.64,0.84
-8.200e-07,2.72,0.84
-8.160e-07,2.72,0.84
-8.120e-07,2.72,0.84
-8.080e-07,2.72,0.84
-8.040e-07,2.72,0.84
-8.000e-07,2.8,0.84
-7.960e-07,2.88,0.84
-7.920e-07,2.88,0.8
-7.880e-07,2.88,0.8
-7.840e-07,2.88,0.8
-7.800e-07,2.88,0.8
-7.760e-07,2.96,0.76
-7.720e-07,2.96,0.76
-7.680e-07,2.96,0.72
-7.640e-07,2.96,0.72
-7.600e-07,2.96,0.72
-7.560e-07,2.96,0.72
-7.520e-07,2.96,0.68
-7.480e-07,2.96,0.68
-7.440e-07,2.88,0.68
-7.400e-07,2.96,0.68
-7.360e-07,2.96,0.64
-7.320e-07,2.96,0.64
-7.280e-07,2.96,0.6
-7.240e-07,2.88,0.6
-7.200e-07,2.88,0.6
-7.160e-07,2.88,0.56
-7.120e-07,2.8,0.56
-7.080e-07,2.88,0.52
-7.040e-07,2.8,0.48
-7.000e-07,2.72,0.48
-6.960e-07,2.8,0.48
-6.920e-07,2.72,0.44
-6.880e-07,2.72,0.44
-6.840e-07,2.72,0.44
-6.800e-07,2.64,0.4
-6.760e-07,2.64,0.36
-6.720e-07,2.56,0.36
-6.680e-07,2.56,0.32
-6.640e-07,2.56,0.32
-6.600e-07,2.48,0.28
-6.560e-07,2.48,0.28
-6.520e-07,2.4,0.24
-6.480e-07,2.32,0.24
-6.440e-07,2.32,0.2
-6.400e-07,2.24,0.2
-6.360e-07,2.24,0.16
-6.320e-07,2.16,0.12
-6.280e-07,2.08,0.12
-6.240e-07,2.08,0.08
-6.200e-07,2,0.08
-6.160e-07,1.92,0.04
-6.120e-07,1.84,0
-6.080e-07,1.84,0
-6.040e-07,1.76,-0.04
-6.000e-07,1.68,-0.04
-5.960e-07,1.6,-0.04
-5.920e-07,1.6,-0.08
-5.880e-07,1.52,-0.12
-5.840e-07,1.44,-0.12
-5.800e-07,1.36,-0.16
-5.760e-07,1.28,-0.16
-5.720e-07,1.28,-0.2
-5.680e-07,1.2,-0.24
-5.640e-07,1.12,-0.24
-5.600e-07,1.04,-0.24
-5.560e-07,0.96,-0.28
-5.520e-07,0.88,-0.32
-5.480e-07,0.8,-0.32
-5.440e-07,0.72,-0.36
-5.400e-07,0.72,-0.36
-5.360e-07,0.64,-0.4
-5.320e-07,0.56,-0.4
-5.280e-07,0.48,-0.44
-5.240e-07,0.4,-0.44
-5.200e-07,0.32,-0.48
-5.160e-07,0.32,-0.48
-5.120e-07,0.24,-0.48
-5.080e-07,0.16,-0.52
-5.040e-07,0.08,-0.52
-5.000e-07,0,-0.52
-4.960e-07,-0.08,-0.56
-4.920e-07,-0.16,-0.56
-4.880e-07,-0.24,-0.6
-4.840e-07,-0.32,-0.6
-4.800e-07,-0.4,-0.64
-4.760e-07,-0.4,-0.64
-4.720e-07,-0.48,-0.64
-4.680e-07,-0.56,-0.68
-4.640e-07,-0.64,-0.68
-4.600e-07,-0.72,-0.68
-4.560e-07,-0.8,-0.72
-4.520e-07,-0.88,-0.72
-4.480e-07,-0.88,-0.72
-4.440e-07,-0.96,-0.72
-4.400e-07,-1.04,-0.76
-4.360e-07,-1.12,-0.76
-4.320e-07,-1.2,-0.8
-4.280e-07,-1.28,-0.8
-4.240e-07,-1.36,-0.8
-4.200e-07,-1.36,-0.8
-4.160e-07,-1.44,-0.8
-4.120e-07,-1.52,-0.8
-4.080e-07,-1.6,-0.8
-4.040e-07,-1.68,-0.84
-4.000e-07,-1.68,-0.84
-3.960e-07,-1.76,-0.84
-3.920e-07,-1.84,-0.84
-3.880e-07,-1.84,-0.84
-3.840e-07,-1.92,-0.84
-3.800e-07,-2,-0.88
-3.760e-07,-2.08,-0.88
-3.720e-07,-2.08,-0.84
-3.680e-07,-2.16,-0.88
-3.640e-07,-2.16,-0.88
-3.600e-07,-2.24,-0.88
-3.560e-07,-2.32,-0.88
-3.520e-07,-2.32,-0.88
-3.480e-07,-2.4,-0.88
-3.440e-07,-2.4,-0.88
-3.400e-07,-2.48,-0.88
-3.360e-07,-2.56,-0.88
-3.320e-07,-2.56,-0.84
