capacitor_data_0412/TEK00026.CSV

Model,TBS2074B
Firmware Version,v1.32.136

Point Format,Y,
Horizontal Units,S,
Horizontal Scale,0.0001,
Sample Interval,8e-07,
Filter Frequency,2e+08,
Record Length,2000,
Gating,0.0% to 100.0%,0.0% to 100.0%
Probe Attenuation,1,1
Vertical Units,V,V
Vertical Offset,0,0
Vertical Scale,2,2
Label,,
TIME,CH1,CH2
-8.000e-04,-4.88,-3.36
-7.992e-04,-4.88,-3.36
-7.984e-04,-4.8,-3.36
-7.976e-04,-4.8,-3.28
-7.968e-04,-4.8,-3.28
-7.960e-04,-4.8,-3.28
-7.952e-04,-4.64,-3.2
-7.944e-04,-4.64,-3.2
-7.936e-04,-4.56,-3.2
-7.928e-04,-4.56,-3.12
-7.920e-04,-4.48,-3.12
-7.912e-04,-4.4,-3.04
-7.904e-04,-4.4,-3.04
-7.896e-04,-4.32,-3.04
-7.888e-04,-4.24,-2.96
-7.880e-04,-4.24,-2.96
-7.872e-04,-4.16,-2.88
-7.864e-04,-4.08,-2.8
-7.856e-04,-4,-2.8
-7.848e-04,-3.92,-2.72
-7.840e-04,-3.92,-2.72
-7.832e-04,-3.76,-2.64
-7.824e-04,-3.76,-2.64
-7.816e-04,-3.68,-2.56
-7.808e-04,-3.6,-2.48
-7.800e-04,-3.52,-2.48
-7.792e-04,-3.52,-2.4
-7.784e-04,-3.36,-2.32
-7.776e-04,-3.28,-2.32
-7.768e-04,-3.2,-2.24
-7.760e-04,-3.2,-2.16
-7.752e-04,-3.04,-2.16
-7.744e-04,-2.96,-2.08
-7.736e-04,-2.88,-2
-7.728e-04,-2.8,-1.92
-7.720e-04,-2.72,-1.92
-7.712e-04,-2.56,-1.84
-7.704e-04,-2.56,-1.76
-7.696e-04,-2.4,-1.68
-7.688e-04,-2.32,-1.68
-7.680e-04,-2.24,-1.52
-7.672e-04,-2.16,-1.52
-7.664e-04,-2.08,-1.44
-7.656e-04,-1.92,-1.36
-7.648e-04,-1.92,-1.28
-7.640e-04,-1.76,-1.28
-7.632e-04,-1.6,-1.28
-7.624e-04,-1.52,-1.12
-7.616e-04,-1.44,-1.04
-7.608e-04,-1.36,-1.04
-7.600e-04,-1.2,-0.88
-7.592e-04,-1.12,-0.8
-7.584e-04,-1.04,-0.8
-7.576e-04,-0.88,-0.72
-7.568e-04,-0.8,-0.72
-7.560e-04,-0.72,-0.56
-7.552e-04,-0.64,-0.48
-7.544e-04,-0.48,-0.4
-7.536e-04,-0.4,-0.4
-7.528e-04,-0.32,-0.32
-7.520e-04,-0.16,-0.24
-7.512e-04,-0.08,-0.16
-7.504e-04,0,-0.08
-7.496e-04,0.16,0
-7.488e-04,0.24,0.08
-7.480e-04,0.32,0.16
-7.472e-04,0.4,0.16
-7.464e-04,0.56,0.24
-7.456e-04,0.64,0.32
-7.448e-04,0.8,0.4
-7.440e-04,0.88,0.48
-7.432e-04,0.96,0.56
-7.424e-04,1.04,0.64
-7.416e-04,1.12,0.72
-7.408e-04,1.28,0.8
-7.400e-04,1.36,0.8
-7.392e-04,1.44,0.88
-7.384e-04,1.6,0.96
-7.376e-04,1.68,1.04
-7.368e-04,1.76,1.12
-7.360e-04,1.84,1.2
-7.352e-04,2,1.28
-7.344e-04,2.08,1.28
-7.336e-04,2.16,1.36
-7.328e-04,2.24,1.44
-7.320e-04,2.4,1.52
-7.312e-04,2.48,1.6
-7.304e-04,2.56,1.68
-7.296e-04,2.64,1.68
-7.288e-04,2.8,1.84
-7.280e-04,2.88,1.84
-7.272e-04,2.96,1.92
-7.264e-04,3.04,2
-7.256e-04,3.12,2
-7.248e-04,3.2,2
-7.240e-04,3.2,2.16
-7.232e-04,3.36,2.16
-7.224e-04,3.44,2.24
-7.216e-04,3.52,2.32
-7.208e-04,3.6,2.4
-7.200e-04,3.68,2.32
-7.192e-04,3.76,2.48
-7.184e-04,3.92,2.56
-7.176e-04,3.92,2.56
-7.168e-04,4,2.64
-7.160e-04,4.08,2.72
-7.152e-04,4.16,2.72
-7.144e-04,4.24,2.8
-7.136e-04,4.32,2.8
-7.128e-04,4.4,2.88
-7.120e-04,4.4,2.96
-7.112e-04,4.48,2.96
-7.104e-04,4.56,2.96
-7.096e-04,4.64,3.04
-7.088e-04,4.64,3.04
-7.080e-04,4.72,3.12
-7.072e-04,4.72,3.2
-7.064e-04,4.8,3.2
-7.056e-04,4.8,3.2
-7.048e-04,4.88,3.28
-7.040e-04,4.96,3.28
-7.032e-04,4.96,3.28
-7.024e-04,5.04,3.36
-7.016e-04,5.04,3.36
-7.008e-04,5.12,3.36
-7.000e-04,5.12,3.44
-6.992e-04,5.2,3.44
-6.984e-04,5.2,3.44
-6.976e-04,5.2,3.52
-6.968e-04,5.2,3.52
-6.960e-04,5.28,3.52
-6.952e-04,5.28,3.52
-6.944e-04,5.28,3.52
-6.936e-04,5.28,3.6
-6.928e-04,5.28,3.6
-6.920e-04,5.36,3.6
-6.912e-04,5.36,3.6
-6.904e-04,5.36,3.6
-6.896e-04,5.36,3.6
-6.888e-04,5.36,3.6
-6.880e-04,5.36,3.6
-6.872e-04,5.28,3.6
-6.864e-04,5.36,3.6
-6.856e-04,5.36,3.6
-6.848e-04,5.36,3.6
-6.840e-04,5.36,3.6
-6.832e-04,5.36,3.6
-6.824e-04,5.36,3.6
-6.816e-04,5.28,3.6
-6.808e-04,5.28,3.6
-6.800e-04,5.28,3.6
-6.792e-04,5.28,3.52
-6.784e-04,5.28,3.52
-6.776e-04,5.2,3.52
-6.768e-04,5.2,3.52
-6.760e-04,5.12,3.52
-6.752e-04,5.12,3.44
-6.744e-04,5.12,3.44
-6.736e-04,5.04,3.44
-6.728e-04,5.04,3.44
-6.720e-04,4.96,3.36
-6.712e-04,4.96,3.28
-6.704e-04,4.88,3.36
-6.696e-04,4.88,3.28
-6.688e-04,4.8,3.28
-6.680e-04,4.8,3.28
-6.672e-04,4.72,3.2
-6.664e-04,4.64,3.2
-6.656e-04,4.64,3.12
-6.648e-04,4.56,3.12
-6.640e-04,4.48,3.04
-6.632e-04,4.4,3.04
-6.624e-04,4.4,2.96
-6.616e-04,4.32,2.96
-6.608e-04,4.24,2.88
-6.600e-04,4.16,2.88
-6.592e-04,4.16,2.8
-6.584e-04,4.08,2.8
-6.576e-04,4,2.72
-6.568e-04,3.92,2.64
-6.560e-04,3.84,2.64
-6.552e-04,3.76,2.56
-6.544e-04,3.6,2.56
-6.536e-04,3.6,2.48
-6.528e-04,3.52,2.4
-6.520e-04,3.36,2.32
-6.512e-04,3.36,2.32
-6.504e-04,3.2,2.24
-6.496e-04,3.2,2.16
-6.488e-04,3.04,2.16
-6.480e-04,2.96,2.08
-6.472e-04,2.8,2
-6.464e-04,2.8,1.92
-6.456e-04,2.72,1.92
-6.448e-04,2.56,1.84
-6.440e-04,2.48,1.76
-6.432e-04,2.4,1.68
-6.424e-04,2.32,1.6
-6.416e-04,2.24,1.6
-6.408e-04,2.08,1.52
-6.400e-04,2,1.44
-6.392e-04,1.92,1.36
-6.384e-04,1.84,1.28
-6.376e-04,1.68,1.2
-6.368e-04,1.52,1.2
-6.360e-04,1.52,1.12
-6.352e-04,1.36,1.04
-6.344e-04,1.28,0.96
-6.336e-04,1.2,0.88
-6.328e-04,1.04,0.8
-6.320e-04,0.96,0.8
-6.312e-04,0.88,0.72
-6.304e-04,0.8,0.64
-6.296e-04,0.72,0.56
-6.288e-04,0.56,0.48
-6.280e-04,0.48,0.4
-6.272e-04,0.4,0.32
-6.264e-04,0.24,0.24
-6.256e-04,0.16,0.16
-6.248e-04,0.08,0.08
-6.240e-04,-0.08,0.08
-6.232e-04,-0.16,-0.08
-6.224e-04,-0.24,-0.08
-6.216e-04,-0.4,-0.16
-6.208e-04,-0.48,-0.24
-6.200e-04,-0.56,-0.32
-6.192e-04,-0.72,-0.32
-6.184e-04,-0.8,-0.4
-6.176e-04,-0.88,-0.56
-6.168e-04,-0.96,-0.56
-6.160e-04,-1.12,-0.64
-6.152e-04,-1.2,-0.72
-6.144e-04,-1.36,-0.8
-6.136e-04,-1.36,-0.88
-6.128e-04,-1.44,-0.88
-6.120e-04,-1.6,-0.96
-6.112e-04,-1.68,-1.04
-6.104e-04,-1.84,-1.12
-6.096e-04,-1.84,-1.2
-6.088e-04,-2,-1.28
-6.080e-04,-2.08,-1.28
-6.072e-04,-2.16,-1.44
-6.064e-04,-2.32,-1.44
-6.056e-04,-2.4,-1.52
-6.048e-04,-2.48,-1.6
-6.040e-04,-2.56,-1.68
-6.032e-04,-2.64,-1.76
-6.024e-04,-2.72,-1.76
-6.016e-04,-2.8,-1.84
-6.008e-04,-2.88,-1.92
-6.000e-04,-3.04,-1.92
-5.992e-04,-3.12,-2
-5.984e-04,-3.2,-2.08
-5.976e-04,-3.28,-2.16
-5.968e-04,-3.36,-2.24
-5.960e-04,-3.36,-2.24
-5.952e-04,-3.52,-2.32
-5.944e-04,-3.52,-2.4
-5.936e-04,-3.68,-2.4
-5.928e-04,-3.76,-2.48
-5.920e-04,-3.76,-2.56
-5.912e-04,-3.84,-2.56
-5.904e-04,-3.92,-2.64
-5.896e-04,-4,-2.64
-5.888e-04,-4.08,-2.72
-5.880e-04,-4.08,-2.72
-5.872e-04,-4.16,-2.8
-5.864e-04,-4.24,-2.88
-5.856e-04,-4.32,-2.88
-5.848e-04,-4.4,-2.96
-5.840e-04,-4.4,-2.96
-5.832e-04,-4.48,-3.04
-5.824e-04,-4.56,-3.04
-5.816e-04,-4.56,-3.12
-5.808e-04,-4.64,-3.12
-5.800e-04,-4.64,-3.12
-5.792e-04,-4.72,-3.12
-5.784e-04,-4.72,-3.2
-5.776e-04,-4.8,-3.28
-5.768e-04,-4.88,-3.28
-5.760e-04,-4.88,-3.28
-5.752e-04,-4.88,-3.36
-5.744e-04,-4.96,-3.36
-5.736e-04,-4.96,-3.36
-5.728e-04,-5.04,-3.36
-5.720e-04,-5.04,-3.36
-5.712e-04,-5.04,-3.44
-5.704e-04,-5.12,-3.44
-5.696e-04,-5.12,-3.44
-5.688e-04,-5.12,-3.44
-5.680e-04,-5.2,-3.52
-5.672e-04,-5.12,-3.52
-5.664e-04,-5.12,-3.52
-5.656e-04,-5.12,-3.52
-5.648e-04,-5.12,-3.52
-5.640e-04,-5.2,-3.52
-5.632e-04,-5.12,-3.52
-5.624e-04,-5.12,-3.52
-5.616e-04,-5.12,-3.52
-5.608e-04,-5.12,-3.52
-5.600e-04,-5.12,-3.52
-5.592e-04,-5.12,-3.52
-5.584e-04,-5.12,-3.52
-5.576e-04,-5.12,-3.52
-5.568e-04,-5.12,-3.52
-5.560e-04,-5.12,-3.52
-5.552e-04,-5.04,-3.52
-5.544e-04,-5.12,-3.44
-5.536e-04,-5.04,-3.44
-5.528e-04,-5.04,-3.44
-5.520e-04,-4.96,-3.44
-5.512e-04,-5.04,-3.36
-5.504e-04,-4.88,-3.36
-5.496e-04,-4.88,-3.36
-5.488e-04,-4.88,-3.36
-5.480e-04,-4.8,-3.36
-5.472e-04,-4.8,-3.28
-5.464e-04,-4.72,-3.28
-5.456e-04,-4.72,-3.28
-5.448e-04,-4.64,-3.2
-5.440e-04,-4.56,-3.2
-5.432e-04,-4.56,-3.12
-5.424e-04,-4.48,-3.12
-5.416e-04,-4.48,-3.12
-5.408e-04,-4.4,-3.04
-5.400e-04,-4.4,-2.96
-5.392e-04,-4.32,-2.96
-5.384e-04,-4.24,-2.96
-5.376e-04,-4.16,-2.88
-5.368e-04,-4.16,-2.8
-5.360e-04,-4.08,-2.8
-5.352e-04,-4,-2.72
-5.344e-04,-3.92,-2.72
-5.336e-04,-3.84,-2.72
-5.328e-04,-3.76,-2.64
-5.320e-04,-3.68,-2.56
-5.312e-04,-3.6,-2.56
-5.304e-04,-3.52,-2.56
-5.296e-04,-3.44,-2.4
-5.288e-04,-3.36,-2.4
-5.280e-04,-3.28,-2.4
-5.272e-04,-3.28,-2.24
-5.264e-04,-3.12,-2.32
-5.256e-04,-3.04,-2.16
-5.248e-04,-2.96,-2.16
-5.240e-04,-2.88,-2
-5.232e-04,-2.8,-2
-5.224e-04,-2.72,-1.92
-5.216e-04,-2.64,-1.84
-5.208e-04,-2.56,-1.84
-5.200e-04,-2.48,-1.76
-5.192e-04,-2.4,-1.68
-5.184e-04,-2.32,-1.6
-5.176e-04,-2.16,-1.52
-5.168e-04,-2.08,-1.52
-5.160e-04,-2,-1.44
-5.152e-04,-1.84,-1.36
-5.144e-04,-1.76,-1.36
-5.136e-04,-1.68,-1.2
-5.128e-04,-1.6,-1.12
-5.120e-04,-1.44,-1.12
-5.112e-04,-1.36,-1.04
-5.104e-04,-1.28,-0.96
-5.096e-04,-1.2,-0.88
-5.088e-04,-1.04,-0.8
-5.080e-04,-0.96,-0.72
-5.072e-04,-0.88,-0.72
-5.064e-04,-0.72,-0.64
-5.056e-04,-0.64,-0.56
-5.048e-04,-0.56,-0.48
-5.040e-04,-0.48,-0.4
-5.032e-04,-0.4,-0.32
-5.024e-04,-0.24,-0.24
-5.016e-04,-0.16,-0.16
-5.008e-04,-0.08,-0.08
-5.000e-04,0.08,0
-4.992e-04,0.16,0
-4.984e-04,0.24,0.08
-4.976e-04,0.4,0.16
-4.968e-04,0.48,0.24
-4.960e-04,0.56,0.32
-4.952e-04,0.72,0.4
-4.944e-04,0.8,0.48
-4.936e-04,0.88,0.56
-4.928e-04,0.96,0.56
-4.920e-04,1.04,0.64
-4.912e-04,1.2,0.72
-4.904e-04,1.28,0.8
-4.896e-04,1.44,0.88
-4.888e-04,1.52,0.96
-4.880e-04,1.6,1.04
-4.872e-04,1.76,1.12
-4.864e-04,1.84,1.12
-4.856e-04,1.92,1.2
-4.848e-04,2,1.28
-4.840e-04,2.16,1.36
-4.832e-04,2.24,1.36
-4.824e-04,2.32,1.44
-4.816e-04,2.4,1.52
-4.808e-04,2.48,1.6
-4.800e-04,2.64,1.68
-4.792e-04,2.72,1.76
-4.784e-04,2.8,1.84
-4.776e-04,2.88,1.84
-4.768e-04,2.96,1.92
-4.760e-04,3.04,2
-4.752e-04,3.2,2.08
-4.744e-04,3.28,2.08
-4.736e-04,3.28,2.16
-4.728e-04,3.36,2.24
-4.720e-04,3.52,2.32
-4.712e-04,3.6,2.32
-4.704e-04,3.68,2.4
-4.696e-04,3.76,2.48
-4.688e-04,3.84,2.48
-4.680e-04,3.92,2.56
-4.672e-04,4,2.64
-4.664e-04,4.08,2.64
-4.656e-04,4.08,2.72
-4.648e-04,4.16,2.8
-4.640e-04,4.24,2.8
-4.632e-04,4.32,2.88
-4.624e-04,4.4,2.88
-4.616e-04,4.4,2.96
-4.608e-04,4.48,2.96
-4.600e-04,4.56,3.04
-4.592e-04,4.64,3.04
-4.584e-04,4.72,3.12
-4.576e-04,4.72,3.12
-4.568e-04,4.8,3.2
-4.560e-04,4.8,3.2
-4.552e-04,4.88,3.2
-4.544e-04,4.88,3.28
-4.536e-04,4.96,3.28
-4.528e-04,5.04,3.36
-4.520e-04,5.04,3.36
-4.512e-04,5.04,3.36
-4.504e-04,5.12,3.44
-4.496e-04,5.12,3.44
-4.488e-04,5.2,3.44
-4.480e-04,5.2,3.44
-4.472e-04,5.2,3.52
-4.464e-04,5.28,3.52
-4.456e-04,5.28,3.52
-4.448e-04,5.28,3.52
-4.440e-04,5.28,3.6
-4.432e-04,5.28,3.6
-4.424e-04,5.28,3.6
-4.416e-04,5.36,3.6
-4.408e-04,5.36,3.6
-4.400e-04,5.36,3.6
-4.392e-04,5.36,3.6
-4.384e-04,5.36,3.6
-4.376e-04,5.36,3.6
-4.368e-04,5.36,3.6
-4.360e-04,5.36,3.68
-4.352e-04,5.36,3.6
-4.344e-04,5.36,3.68
-4.336e-04,5.28,3.68
-4.328e-04,5.36,3.6
-4.320e-04,5.28,3.6
-4.312e-04,5.28,3.6
-4.304e-04,5.28,3.6
-4.296e-04,5.28,3.52
-4.288e-04,5.28,3.52
-4.280e-04,5.2,3.52
-4.272e-04,5.12,3.52
-4.264e-04,5.2,3.52
-4.256e-04,5.12,3.52
-4.248e-04,5.12,3.44
-4.240e-04,5.04,3.44
-4.232e-04,5.04,3.36
-4.224e-04,5.04,3.44
-4.216e-04,4.96,3.44
-4.208e-04,4.96,3.36
-4.200e-04,4.88,3.36
-4.192e-04,4.8,3.36
-4.184e-04,4.8,3.28
-4.176e-04,4.64,3.2
-4.168e-04,4.72,3.2
-4.160e-04,4.64,3.2
-4.152e-04,4.56,3.12
-4.144e-04,4.48,3.12
-4.136e-04,4.48,3.12
-4.128e-04,4.4,3.04
-4.120e-04,4.32,2.96
-4.112e-04,4.32,2.96
-4.104e-04,4.24,2.88
-4.096e-04,4.16,2.88
-4.088e-04,4.08,2.8
-4.080e-04,4,2.8
-4.072e-04,3.92,2.72
-4.064e-04,3.84,2.64
-4.056e-04,3.76,2.64
-4.048e-04,3.68,2.56
-4.040e-04,3.6,2.48
-4.032e-04,3.52,2.4
-4.024e-04,3.44,2.4
-4.016e-04,3.36,2.32
-4.008e-04,3.28,2.32
-4.000e-04,3.2,2.24
-3.992e-04,3.12,2.16
-3.984e-04,3.04,2.08
-3.976e-04,2.96,2
-3.968e-04,2.88,2
-3.960e-04,2.72,1.92
-3.952e-04,2.64,1.84
-3.944e-04,2.56,1.76
-3.936e-04,2.48,1.76
-3.928e-04,2.32,1.68
-3.920e-04,2.24,1.6
-3.912e-04,2.16,1.6
-3.904e-04,2.08,1.52
-3.896e-04,2,1.44
-3.888e-04,1.84,1.36
-3.880e-04,1.76,1.28
-3.872e-04,1.68,1.2
-3.864e-04,1.6,1.12
-3.856e-04,1.44,1.12
-3.848e-04,1.36,1.04
-3.840e-04,1.28,0.96
-3.832e-04,1.2,0.88
-3.824e-04,1.04,0.8
-3.816e-04,0.96,0.72
-3.808e-04,0.88,0.64
-3.800e-04,0.72,0.56
-3.792e-04,0.64,0.48
-3.784e-04,0.56,0.4
-3.776e-04,0.4,0.32
-3.768e-04,0.32,0.32
-3.760e-04,0.24,0.24
-3.752e-04,0.08,0.16
-3.744e-04,0,0.08
-3.736e-04,-0.16,0
-3.728e-04,-0.24,-0.08
-3.720e-04,-0.32,-0.08
-3.712e-04,-0.4,-0.16
-3.704e-04,-0.48,-0.24
-3.696e-04,-0.64,-0.4
-3.688e-04,-0.8,-0.4
-3.680e-04,-0.8,-0.48
-3.672e-04,-0.88,-0.56
-3.664e-04,-1.04,-0.64
-3.656e-04,-1.12,-0.72
-3.648e-04,-1.2,-0.8
-3.640e-04,-1.44,-0.8
-3.632e-04,-1.44,-0.88
-3.624e-04,-1.52,-0.96
-3.616e-04,-1.68,-1.04
-3.608e-04,-1.76,-1.12
-3.600e-04,-1.84,-1.2
-3.592e-04,-1.92,-1.2
-3.584e-04,-2.08,-1.28
-3.576e-04,-2.16,-1.36
-3.568e-04,-2.32,-1.44
-3.560e-04,-2.32,-1.52
-3.552e-04,-2.4,-1.52
-3.544e-04,-2.56,-1.6
-3.536e-04,-2.64,-1.68
-3.528e-04,-2.72,-1.76
-3.520e-04,-2.8,-1.84
-3.512e-04,-2.88,-1.84
-3.504e-04,-2.96,-1.92
-3.496e-04,-3.04,-2.08
-3.488e-04,-3.12,-2.08
-3.480e-04,-3.2,-2.08
-3.472e-04,-3.28,-2.16
-3.464e-04,-3.36,-2.24
-3.456e-04,-3.44,-2.32
-3.448e-04,-3.52,-2.32
-3.440e-04,-3.6,-2.4
-3.432e-04,-3.68,-2.48
-3.424e-04,-3.76,-2.48
-3.416e-04,-3.84,-2.56
-3.408e-04,-3.92,-2.56
-3.400e-04,-3.92,-2.64
-3.392e-04,-4,-2.72
-3.384e-04,-4.08,-2.72
-3.376e-04,-4.16,-2.8
-3.368e-04,-4.24,-2.8
-3.360e-04,-4.24,-2.88
-3.352e-04,-4.32,-2.88
-3.344e-04,-4.4,-2.96
-3.336e-04,-4.4,-2.96
-3.328e-04,-4.48,-3.04
-3.320e-04,-4.56,-3.04
-3.312e-04,-4.56,-3.12
-3.304e-04,-4.64,-3.12
-3.296e-04,-4.64,-3.2
-3.288e-04,-4.72,-3.2
-3.280e-04,-4.8,-3.2
-3.272e-04,-4.8,-3.28
-3.264e-04,-4.88,-3.28
-3.256e-04,-4.88,-3.28
-3.248e-04,-4.88,-3.36
-3.240e-04,-4.96,-3.36
-3.232e-04,-4.96,-3.36
-3.224e-04,-5.04,-3.36
-3.216e-04,-5.04,-3.36
-3.208e-04,-5.04,-3.44
-3.200e-04,-5.04,-3.44
-3.192e-04,-5.12,-3.44
-3.184e-04,-5.12,-3.44
-3.176e-04,-5.12,-3.52
-3.168e-04,-5.12,-3.52
-3.160e-04,-5.12,-3.52
-3.152e-04,-5.12,-3.52
-3.144e-04,-5.2,-3.52
-3.136e-04,-5.12,-3.52
-3.128e-04,-5.12,-3.52
-3.120e-04,-5.12,-3.52
-3.112e-04,-5.12,-3.52
-3.104e-04,-5.12,-3.52
-3.096e-04,-5.12,-3.52
-3.088e-04,-5.12,-3.52
-3.080e-04,-5.12,-3.52
-3.072e-04,-5.12,-3.52
-3.064e-04,-5.04,-3.52
-3.056e-04,-5.12,-3.52
-3.048e-04,-5.04,-3.52
-3.040e-04,-5.04,-3.44
-3.032e-04,-4.96,-3.44
-3.024e-04,-4.96,-3.44
-3.016e-04,-4.96,-3.44
-3.008e-04,-4.96,-3.36
-3.000e-04,-4.88,-3.36
-2.992e-04,-4.88,-3.36
-2.984e-04,-4.8,-3.36
-2.976e-04,-4.88,-3.36
-2.968e-04,-4.8,-3.28
-2.960e-04,-4.72,-3.28
-2.952e-04,-4.64,-3.28
-2.944e-04,-4.64,-3.28
-2.936e-04,-4.64,-3.2
-2.928e-04,-4.56,-3.12
-2.920e-04,-4.48,-3.12
-2.912e-04,-4.4,-3.12
-2.904e-04,-4.4,-3.04
-2.896e-04,-4.32,-3.04
-2.888e-04,-4.24,-2.96
-2.880e-04,-4.24,-2.88
-2.872e-04,-4.16,-2.88
-2.864e-04,-4.16,-2.8
-2.856e-04,-4,-2.88
-2.848e-04,-3.92,-2.8
-2.840e-04,-3.92,-2.72
-2.832e-04,-3.76,-2.64
-2.824e-04,-3.76,-2.64
-2.816e-04,-3.68,-2.56
-2.808e-04,-3.6,-2.48
-2.800e-04,-3.52,-2.48
-2.792e-04,-3.44,-2.4
-2.784e-04,-3.36,-2.4
-2.776e-04,-3.28,-2.32
-2.768e-04,-3.2,-2.24
-2.760e-04,-3.12,-2.24
-2.752e-04,-3.04,-2.16
-2.744e-04,-2.96,-2.08
-2.736e-04,-2.88,-2
-2.728e-04,-2.8,-2
-2.720e-04,-2.72,-1.92
-2.712e-04,-2.56,-1.84
-2.704e-04,-2.48,-1.76
-2.696e-04,-2.4,-1.76
-2.688e-04,-2.32,-1.68
-2.680e-04,-2.24,-1.6
-2.672e-04,-2.16,-1.6
-2.664e-04,-2,-1.44
-2.656e-04,-1.92,-1.36
-2.648e-04,-1.84,-1.28
-2.640e-04,-1.68,-1.2
-2.632e-04,-1.6,-1.2
-2.624e-04,-1.52,-1.12
-2.616e-04,-1.44,-1.04
-2.608e-04,-1.36,-0.96
-2.600e-04,-1.28,-0.96
-2.592e-04,-1.12,-0.88
-2.584e-04,-1.04,-0.8
-2.576e-04,-0.96,-0.72
-2.568e-04,-0.8,-0.64
-2.560e-04,-0.72,-0.56
-2.552e-04,-0.64,-0.48
-2.544e-04,-0.48,-0.4
-2.536e-04,-0.48,-0.4
-2.528e-04,-0.24,-0.32
-2.520e-04,-0.16,-0.24
-2.512e-04,-0.08,-0.16
-2.504e-04,0,-0.08
-2.496e-04,0.16,0
-2.488e-04,0.24,0.08
-2.480e-04,0.32,0.16
-2.472e-04,0.48,0.16
-2.464e-04,0.56,0.24
-2.456e-04,0.64,0.32
-2.448e-04,0.8,0.4
-2.440e-04,0.88,0.48
-2.432e-04,0.96,0.56
-2.424e-04,1.04,0.56
-2.416e-04,1.12,0.72
-2.408e-04,1.28,0.8
-2.400e-04,1.36,0.8
-2.392e-04,1.44,0.8
-2.384e-04,1.6,0.96
-2.376e-04,1.68,1.04
-2.368e-04,1.84,1.12
-2.360e-04,1.92,1.2
-2.352e-04,2,1.28
-2.344e-04,2.08,1.28
-2.336e-04,2.24,1.36
-2.328e-04,2.32,1.44
-2.320e-04,2.4,1.52
-2.312e-04,2.48,1.6
-2.304e-04,2.56,1.6
-2.296e-04,2.72,1.68
-2.288e-04,2.8,1.76
-2.280e-04,2.88,1.84
-2.272e-04,2.96,1.92
-2.264e-04,3.04,1.92
-2.256e-04,3.12,2
-2.248e-04,3.2,2.08
-2.240e-04,3.28,2.16
-2.232e-04,3.28,2.16
-2.224e-04,3.44,2.24
-2.216e-04,3.52,2.32
-2.208e-04,3.6,2.4
-2.200e-04,3.68,2.4
-2.192e-04,3.76,2.48
-2.184e-04,3.84,2.56
-2.176e-04,4,2.56
-2.168e-04,4,2.64
-2.160e-04,4.08,2.64
-2.152e-04,4.16,2.72
-2.144e-04,4.24,2.8
-2.136e-04,4.24,2.8
-2.128e-04,4.4,2.88
-2.120e-04,4.4,2.96
-2.112e-04,4.48,2.96
-2.104e-04,4.56,2.96
-2.096e-04,4.56,3.04
-2.088e-04,4.64,3.04
-2.080e-04,4.72,3.12
-2.072e-04,4.8,3.12
-2.064e-04,4.8,3.2
-2.056e-04,4.88,3.2
-2.048e-04,4.88,3.28
-2.040e-04,4.96,3.28
-2.032e-04,4.96,3.28
-2.024e-04,5.04,3.36
-2.016e-04,5.04,3.36
-2.008e-04,5.12,3.36
-2.000e-04,5.12,3.44
-1.992e-04,5.12,3.36
-1.984e-04,5.2,3.44
-1.976e-04,5.2,3.44
-1.968e-04,5.28,3.52
-1.960e-04,5.28,3.52
-1.952e-04,5.28,3.52
-1.944e-04,5.28,3.52
-1.936e-04,5.28,3.6
-1.928e-04,5.28,3.6
-1.920e-04,5.28,3.6
-1.912e-04,5.28,3.6
-1.904e-04,5.36,3.6
-1.896e-04,5.28,3.6
-1.888e-04,5.36,3.6
-1.880e-04,5.36,3.68
-1.872e-04,5.36,3.6
-1.864e-04,5.36,3.6
-1.856e-04,5.36,3.68
-1.848e-04,5.36,3.6
-1.840e-04,5.36,3.6
-1.832e-04,5.36,3.6
-1.824e-04,5.36,3.6
-1.816e-04,5.36,3.6
-1.808e-04,5.28,3.6
-1.800e-04,5.28,3.6
-1.792e-04,5.28,3.6
-1.784e-04,5.2,3.52
-1.776e-04,5.2,3.52
-1.768e-04,5.2,3.52
-1.760e-04,5.12,3.52
-1.752e-04,5.12,3.44
-1.744e-04,5.12,3.36
-1.736e-04,5.12,3.44
-1.728e-04,5.04,3.44
-1.720e-04,4.96,3.36
-1.712e-04,4.88,3.36
-1.704e-04,4.88,3.36
-1.696e-04,4.8,3.28
-1.688e-04,4.8,3.28
-1.680e-04,4.72,3.28
-1.672e-04,4.72,3.2
-1.664e-04,4.64,3.2
-1.656e-04,4.64,3.12
-1.648e-04,4.56,3.04
-1.640e-04,4.48,3.12
-1.632e-04,4.48,3.04
-1.624e-04,4.4,2.96
-1.616e-04,4.32,2.96
-1.608e-04,4.24,2.96
-1.600e-04,4.16,2.88
-1.592e-04,4.08,2.8
-1.584e-04,4.08,2.8
-1.576e-04,3.92,2.72
-1.568e-04,3.92,2.64
-1.560e-04,3.76,2.64
-1.552e-04,3.76,2.56
-1.544e-04,3.68,2.56
-1.536e-04,3.6,2.48
-1.528e-04,3.44,2.4
-1.520e-04,3.36,2.32
-1.512e-04,3.28,2.32
-1.504e-04,3.2,2.24
-1.496e-04,3.12,2.16
-1.488e-04,3.04,2.08
-1.480e-04,2.96,2.08
-1.472e-04,2.88,2
-1.464e-04,2.8,2
-1.456e-04,2.64,1.92
-1.448e-04,2.64,1.84
-1.440e-04,2.48,1.76
-1.432e-04,2.4,1.68
-1.424e-04,2.32,1.6
-1.416e-04,2.24,1.6
-1.408e-04,2.08,1.52
-1.400e-04,2,1.44
-1.392e-04,1.92,1.36
-1.384e-04,1.76,1.28
-1.376e-04,1.68,1.2
-1.368e-04,1.6,1.2
-1.360e-04,1.52,1.12
-1.352e-04,1.36,1.04
-1.344e-04,1.28,0.96
-1.336e-04,1.2,0.88
-1.328e-04,1.12,0.88
-1.320e-04,0.96,0.72
-1.312e-04,0.88,0.72
-1.304e-04,0.8,0.64
-1.296e-04,0.72,0.56
-1.288e-04,0.56,0.48
-1.280e-04,0.48,0.4
-1.272e-04,0.4,0.32
-1.264e-04,0.24,0.24
-1.256e-04,0.08,0.24
-1.248e-04,0.08,0.16
-1.240e-04,-0.08,0
-1.232e-04,-0.16,0
-1.224e-04,-0.24,-0.08
-1.216e-04,-0.4,-0.16
-1.208e-04,-0.48,-0.24
-1.200e-04,-0.56,-0.32
-1.192e-04,-0.64,-0.4
-1.184e-04,-0.72,-0.4
-1.176e-04,-0.88,-0.48
-1.168e-04,-1.04,-0.56
-1.160e-04,-1.04,-0.64
-1.152e-04,-1.2,-0.72
-1.144e-04,-1.28,-0.8
-1.136e-04,-1.36,-0.88
-1.128e-04,-1.52,-0.96
-1.120e-04,-1.6,-0.96
-1.112e-04,-1.68,-1.04
-1.104e-04,-1.76,-1.12
-1.096e-04,-1.92,-1.2
-1.088e-04,-2,-1.28
-1.080e-04,-2.16,-1.36
-1.072e-04,-2.16,-1.36
-1.064e-04,-2.32,-1.44
-1.056e-04,-2.48,-1.52
-1.048e-04,-2.48,-1.6
-1.040e-04,-2.56,-1.68
-1.032e-04,-2.64,-1.68
-1.024e-04,-2.72,-1.84
-1.016e-04,-2.8,-1.84
-1.008e-04,-2.88,-1.92
-1.000e-04,-2.96,-2
-9.920e-05,-3.04,-2
-9.840e-05,-3.2,-2.08
-9.760e-05,-3.2,-2.16
-9.680e-05,-3.36,-2.24
-9.600e-05,-3.44,-2.24
-9.520e-05,-3.44,-2.4
-9.440e-05,-3.6,-2.32
-9.360e-05,-3.68,-2.4
-9.280e-05,-3.68,-2.48
-9.200e-05,-3.76,-2.56
-9.120e-05,-3.84,-2.56
-9.040e-05,-3.92,-2.64
-8.960e-05,-3.92,-2.64
-8.880e-05,-4.08,-2.8
-8.800e-05,-4.16,-2.72
-8.720e-05,-4.16,-2.8
-8.640e-05,-4.24,-2.88
-8.560e-05,-4.32,-2.88
-8.480e-05,-4.4,-2.88
-8.400e-05,-4.4,-2.96
-8.320e-05,-4.48,-3.04
-8.240e-05,-4.56,-3.04
-8.160e-05,-4.56,-3.12
-8.080e-05,-4.64,-3.12
-8.000e-05,-4.64,-3.2
-7.920e-05,-4.72,-3.12
-7.840e-05,-4.72,-3.2
-7.760e-05,-4.8,-3.2
-7.680e-05,-4.8,-3.28
-7.600e-05,-4.88,-3.28
-7.520e-05,-4.88,-3.28
-7.440e-05,-4.88,-3.36
-7.360e-05,-5.04,-3.36
-7.280e-05,-5.04,-3.36
-7.200e-05,-5.04,-3.44
-7.120e-05,-5.04,-3.44
-7.040e-05,-5.04,-3.44
-6.960e-05,-5.04,-3.52
-6.880e-05,-5.12,-3.44
-6.800e-05,-5.12,-3.52
-6.720e-05,-5.12,-3.52
-6.640e-05,-5.12,-3.52
