capacitor_data_0412/TEK00104.CSV

Model,TBS2074B
Firmware Version,v1.32.136

Point Format,Y,
Horizontal Units,S,
Horizontal Scale,0.4,
Sample Interval,0.0032,
Filter Frequency,2e+08,
Record Length,2000,
Gating,0.0% to 100.0%,0.0% to 100.0%
Probe Attenuation,1,1
Vertical Units,V,V
Vertical Offset,0,0
Vertical Scale,2,2
Label,,
TIME,CH1,CH2
-3.200e+00,7.2,4.92
-3.197e+00,7.12,4.84
-3.194e+00,7.12,4.84
-3.190e+00,7.04,4.76
-3.187e+00,6.96,4.76
-3.184e+00,6.88,4.68
-3.181e+00,6.8,4.6
-3.178e+00,6.72,4.6
-3.174e+00,6.64,4.52
-3.171e+00,6.56,4.44
-3.168e+00,6.48,4.36
-3.165e+00,6.4,4.36
-3.162e+00,6.32,4.28
-3.158e+00,6.24,4.2
-3.155e+00,6.16,4.12
-3.152e+00,6,4.04
-3.149e+00,5.92,4.04
-3.146e+00,5.84,3.96
-3.142e+00,5.68,3.88
-3.139e+00,5.6,3.8
-3.136e+00,5.44,3.72
-3.133e+00,5.36,3.64
-3.130e+00,5.28,3.56
-3.126e+00,5.12,3.48
-3.123e+00,5.04,3.4
-3.120e+00,4.96,3.32
-3.117e+00,4.8,3.24
-3.114e+00,4.64,3.16
-3.110e+00,4.48,3.08
-3.107e+00,4.4,3
-3.104e+00,4.24,2.84
-3.101e+00,4.16,2.76
-3.098e+00,4,2.68
-3.094e+00,3.84,2.6
-3.091e+00,3.68,2.52
-3.088e+00,3.52,2.44
-3.085e+00,3.44,2.36
-3.082e+00,3.28,2.2
-3.078e+00,3.12,2.12
-3.075e+00,3.04,2.04
-3.072e+00,2.88,1.96
-3.069e+00,2.72,1.8
-3.066e+00,2.56,1.72
-3.062e+00,2.48,1.64
-3.059e+00,2.24,1.48
-3.056e+00,2.08,1.48
-3.053e+00,2,1.32
-3.050e+00,1.84,1.24
-3.046e+00,1.68,1.08
-3.043e+00,1.52,1
-3.040e+00,1.36,0.84
-3.037e+00,1.2,0.84
-3.034e+00,1.04,0.68
-3.030e+00,0.8,0.6
-3.027e+00,0.72,0.52
-3.024e+00,0.56,0.36
-3.021e+00,0.48,0.28
-3.018e+00,0.24,0.2
-3.014e+00,0.16,0.12
-3.011e+00,0,-0.04
-3.008e+00,-0.16,-0.12
-3.005e+00,-0.32,-0.2
-3.002e+00,-0.48,-0.28
-2.998e+00,-0.64,-0.44
-2.995e+00,-0.8,-0.52
-2.992e+00,-0.96,-0.68
-2.989e+00,-1.12,-0.76
-2.986e+00,-1.28,-0.84
-2.982e+00,-1.44,-0.92
-2.979e+00,-1.6,-1.08
-2.976e+00,-1.68,-1.16
-2.973e+00,-1.84,-1.24
-2.970e+00,-2,-1.32
-2.966e+00,-2.16,-1.48
-2.963e+00,-2.32,-1.56
-2.960e+00,-2.48,-1.64
-2.957e+00,-2.64,-1.8
-2.954e+00,-2.72,-1.88
-2.950e+00,-2.96,-1.96
-2.947e+00,-3.04,-2.04
-2.944e+00,-3.12,-2.2
-2.941e+00,-3.28,-2.28
-2.938e+00,-3.44,-2.36
-2.934e+00,-3.6,-2.44
-2.931e+00,-3.76,-2.52
-2.928e+00,-3.84,-2.6
-2.925e+00,-4,-2.68
-2.922e+00,-4.16,-2.84
-2.918e+00,-4.24,-2.92
-2.915e+00,-4.4,-3
-2.912e+00,-4.56,-3.08
-2.909e+00,-4.64,-3.16
-2.906e+00,-4.8,-3.24
-2.902e+00,-4.88,-3.32
-2.899e+00,-4.96,-3.4
-2.896e+00,-5.04,-3.48
-2.893e+00,-5.2,-3.56
-2.890e+00,-5.36,-3.64
-2.886e+00,-5.44,-3.72
-2.883e+00,-5.52,-3.8
-2.880e+00,-5.68,-3.88
-2.877e+00,-5.76,-3.96
-2.874e+00,-5.84,-3.96
-2.870e+00,-6,-4.04
-2.867e+00,-6.08,-4.12
-2.864e+00,-6.16,-4.2
-2.861e+00,-6.24,-4.28
-2.858e+00,-6.32,-4.36
-2.854e+00,-6.4,-4.36
-2.851e+00,-6.48,-4.52
-2.848e+00,-6.56,-4.52
-2.845e+00,-6.72,-4.52
-2.842e+00,-6.72,-4.6
-2.838e+00,-6.8,-4.6
-2.835e+00,-6.88,-4.68
-2.832e+00,-6.96,-4.76
-2.829e+00,-7.04,-4.76
-2.826e+00,-7.04,-4.84
-2.822e+00,-7.12,-4.84
-2.819e+00,-7.12,-4.92
-2.816e+00,-7.2,-4.92
-2.813e+00,-7.28,-4.92
-2.810e+00,-7.28,-5
-2.806e+00,-7.36,-5
-2.803e+00,-7.44,-5.08
-2.800e+00,-7.44,-5.08
-2.797e+00,-7.52,-5.08
-2.794e+00,-7.52,-5.16
-2.790e+00,-7.52,-5.16
-2.787e+00,-7.6,-5.16
-2.784e+00,-7.6,-5.16
-2.781e+00,-7.6,-5.16
-2.778e+00,-7.6,-5.24
-2.774e+00,-7.6,-5.24
-2.771e+00,-7.68,-5.24
-2.768e+00,-7.68,-5.24
-2.765e+00,-7.68,-5.24
-2.762e+00,-7.68,-5.24
-2.758e+00,-7.68,-5.24
-2.755e+00,-7.68,-5.24
-2.752e+00,-7.68,-5.24
-2.749e+00,-7.6,-5.24
-2.746e+00,-7.6,-5.16
-2.742e+00,-7.6,-5.16
-2.739e+00,-7.6,-5.16
-2.736e+00,-7.52,-5.16
-2.733e+00,-7.52,-5.16
-2.730e+00,-7.52,-5.08
-2.726e+00,-7.44,-5.08
-2.723e+00,-7.36,-5.08
-2.720e+00,-7.36,-5
-2.717e+00,-7.36,-5
-2.714e+00,-7.28,-5
-2.710e+00,-7.28,-5
-2.707e+00,-7.2,-4.92
-2.704e+00,-7.12,-4.84
-2.701e+00,-7.04,-4.76
-2.698e+00,-7.04,-4.76
-2.694e+00,-6.96,-4.68
-2.691e+00,-6.88,-4.68
-2.688e+00,-6.8,-4.68
-2.685e+00,-6.72,-4.6
-2.682e+00,-6.64,-4.6
-2.678e+00,-6.56,-4.52
-2.675e+00,-6.56,-4.44
-2.672e+00,-6.4,-4.36
-2.669e+00,-6.32,-4.36
-2.666e+00,-6.24,-4.28
-2.662e+00,-6.16,-4.2
-2.659e+00,-6.08,-4.12
-2.656e+00,-5.92,-4.04
-2.653e+00,-5.84,-3.96
-2.650e+00,-5.76,-3.96
-2.646e+00,-5.68,-3.88
-2.643e+00,-5.52,-3.8
-2.640e+00,-5.44,-3.72
-2.637e+00,-5.28,-3.64
-2.634e+00,-5.2,-3.56
-2.630e+00,-5.12,-3.48
-2.627e+00,-4.96,-3.4
-2.624e+00,-4.88,-3.32
-2.621e+00,-4.72,-3.24
-2.618e+00,-4.64,-3.16
-2.614e+00,-4.48,-3.08
-2.611e+00,-4.4,-3
-2.608e+00,-4.24,-2.92
-2.605e+00,-4.08,-2.84
-2.602e+00,-4,-2.76
-2.598e+00,-3.84,-2.6
-2.595e+00,-3.68,-2.52
-2.592e+00,-3.52,-2.44
-2.589e+00,-3.44,-2.36
-2.586e+00,-3.28,-2.28
-2.582e+00,-3.2,-2.2
-2.579e+00,-3.04,-2.12
-2.576e+00,-2.88,-1.96
-2.573e+00,-2.72,-1.88
-2.570e+00,-2.56,-1.8
-2.566e+00,-2.48,-1.64
-2.563e+00,-2.32,-1.56
-2.560e+00,-2.16,-1.48
-2.557e+00,-2,-1.32
-2.554e+00,-1.84,-1.24
-2.550e+00,-1.68,-1.16
-2.547e+00,-1.52,-1.08
-2.544e+00,-1.36,-1
-2.541e+00,-1.28,-0.84
-2.538e+00,-1.12,-0.76
-2.534e+00,-0.96,-0.6
-2.531e+00,-0.8,-0.52
-2.528e+00,-0.64,-0.44
-2.525e+00,-0.48,-0.36
-2.522e+00,-0.32,-0.2
-2.518e+00,-0.16,-0.12
-2.515e+00,-0.08,-0.04
-2.512e+00,0.08,0.04
-2.509e+00,0.24,0.2
-2.506e+00,0.4,0.28
-2.502e+00,0.64,0.36
-2.499e+00,0.72,0.52
-2.496e+00,0.88,0.52
-2.493e+00,1.04,0.68
-2.490e+00,1.2,0.76
-2.486e+00,1.36,0.92
-2.483e+00,1.52,1
-2.480e+00,1.68,1.08
-2.477e+00,1.84,1.24
-2.474e+00,2,1.32
-2.470e+00,2.08,1.4
-2.467e+00,2.24,1.56
-2.464e+00,2.4,1.64
-2.461e+00,2.56,1.72
-2.458e+00,2.72,1.8
-2.454e+00,2.88,1.96
-2.451e+00,3.04,2.04
-2.448e+00,3.2,2.12
-2.445e+00,3.36,2.2
-2.442e+00,3.44,2.36
-2.438e+00,3.6,2.44
-2.435e+00,3.76,2.52
-2.432e+00,3.92,2.6
-2.429e+00,4,2.68
-2.426e+00,4.16,2.76
-2.422e+00,4.32,2.92
-2.419e+00,4.4,2.92
-2.416e+00,4.48,3.08
-2.413e+00,4.64,3.16
-2.410e+00,4.8,3.24
-2.406e+00,4.88,3.32
-2.403e+00,5.04,3.4
-2.400e+00,5.12,3.48
-2.397e+00,5.28,3.56
-2.394e+00,5.36,3.64
-2.390e+00,5.44,3.64
-2.387e+00,5.6,3.8
-2.384e+00,5.68,3.88
-2.381e+00,5.84,3.96
-2.378e+00,5.92,4.04
-2.374e+00,6,4.04
-2.371e+00,6.16,4.12
-2.368e+00,6.24,4.2
-2.365e+00,6.32,4.28
-2.362e+00,6.4,4.36
-2.358e+00,6.48,4.36
-2.355e+00,6.56,4.44
-2.352e+00,6.64,4.52
-2.349e+00,6.72,4.52
-2.346e+00,6.8,4.6
-2.342e+00,6.88,4.68
-2.339e+00,6.88,4.68
-2.336e+00,7.04,4.76
-2.333e+00,7.12,4.84
-2.330e+00,7.2,4.84
-2.326e+00,7.2,4.84
-2.323e+00,7.28,4.92
-2.320e+00,7.36,5
-2.317e+00,7.36,5
-2.314e+00,7.44,5
-2.310e+00,7.52,5.08
-2.307e+00,7.6,5.08
-2.304e+00,7.6,5.08
-2.301e+00,7.6,5.16
-2.298e+00,7.6,5.16
-2.294e+00,7.68,5.24
-2.291e+00,7.68,5.24
-2.288e+00,7.68,5.24
-2.285e+00,7.76,5.24
-2.282e+00,7.76,5.24
-2.278e+00,7.76,5.24
-2.275e+00,7.76,5.24
-2.272e+00,7.76,5.32
-2.269e+00,7.84,5.32
-2.266e+00,7.84,5.32
-2.262e+00,7.84,5.32
-2.259e+00,7.84,5.32
-2.256e+00,7.84,5.32
-2.253e+00,7.76,5.24
-2.250e+00,7.76,5.24
-2.246e+00,7.76,5.24
-2.243e+00,7.68,5.24
-2.240e+00,7.76,5.24
-2.237e+00,7.68,5.24
-2.234e+00,7.68,5.16
-2.230e+00,7.68,5.16
-2.227e+00,7.6,5.16
-2.224e+00,7.6,5.16
-2.221e+00,7.6,5.16
-2.218e+00,7.52,5.08
-2.214e+00,7.44,5.08
-2.211e+00,7.44,5
-2.208e+00,7.36,5
-2.205e+00,7.28,4.92
-2.202e+00,7.2,4.92
-2.198e+00,7.2,4.84
-2.195e+00,7.12,4.76
-2.192e+00,7.04,4.76
-2.189e+00,6.96,4.76
-2.186e+00,6.88,4.68
-2.182e+00,6.88,4.6
-2.179e+00,6.8,4.6
-2.176e+00,6.72,4.52
-2.173e+00,6.56,4.52
-2.170e+00,6.48,4.44
-2.166e+00,6.4,4.36
-2.163e+00,6.32,4.28
-2.160e+00,6.24,4.2
-2.157e+00,6.16,4.2
-2.154e+00,6.08,4.04
-2.150e+00,6,4.04
-2.147e+00,5.84,3.96
-2.144e+00,5.76,3.88
-2.141e+00,5.68,3.8
-2.138e+00,5.52,3.72
-2.134e+00,5.44,3.72
-2.131e+00,5.28,3.64
-2.128e+00,5.2,3.48
-2.125e+00,5.04,3.48
-2.122e+00,4.96,3.32
-2.118e+00,4.88,3.24
-2.115e+00,4.72,3.16
-2.112e+00,4.64,3.08
-2.109e+00,4.48,3
-2.106e+00,4.32,2.92
-2.102e+00,4.24,2.84
-2.099e+00,4.08,2.76
-2.096e+00,3.92,2.68
-2.093e+00,3.84,2.6
-2.090e+00,3.68,2.44
-2.086e+00,3.52,2.36
-2.083e+00,3.36,2.28
-2.080e+00,3.2,2.2
-2.077e+00,3.12,2.04
-2.074e+00,2.88,1.96
-2.070e+00,2.8,1.88
-2.067e+00,2.64,1.8
-2.064e+00,2.48,1.72
-2.061e+00,2.4,1.56
-2.058e+00,2.16,1.48
-2.054e+00,2,1.4
-2.051e+00,1.92,1.32
-2.048e+00,1.76,1.16
-2.045e+00,1.6,1.08
-2.042e+00,1.44,0.92
-2.038e+00,1.28,0.84
-2.035e+00,1.12,0.76
-2.032e+00,0.96,0.6
-2.029e+00,0.8,0.52
-2.026e+00,0.64,0.44
-2.022e+00,0.48,0.36
-2.019e+00,0.4,0.2
-2.016e+00,0.16,0.12
-2.013e+00,0,0.04
-2.010e+00,-0.08,-0.04
-2.006e+00,-0.32,-0.2
-2.003e+00,-0.4,-0.28
-2.000e+00,-0.56,-0.44
-1.997e+00,-0.72,-0.52
-1.994e+00,-0.88,-0.6
-1.990e+00,-1.04,-0.68
-1.987e+00,-1.12,-0.84
-1.984e+00,-1.36,-0.92
-1.981e+00,-1.44,-1
-1.978e+00,-1.68,-1.08
-1.974e+00,-1.76,-1.24
-1.971e+00,-1.92,-1.32
-1.968e+00,-2.08,-1.4
-1.965e+00,-2.24,-1.48
-1.962e+00,-2.4,-1.64
-1.958e+00,-2.56,-1.72
-1.955e+00,-2.64,-1.8
-1.952e+00,-2.8,-1.96
-1.949e+00,-2.96,-2.04
-1.946e+00,-3.12,-2.12
-1.942e+00,-3.2,-2.2
-1.939e+00,-3.36,-2.28
-1.936e+00,-3.52,-2.44
-1.933e+00,-3.68,-2.44
-1.930e+00,-3.84,-2.6
-1.926e+00,-3.92,-2.68
-1.923e+00,-4.08,-2.76
-1.920e+00,-4.16,-2.84
-1.917e+00,-4.32,-2.92
-1.914e+00,-4.4,-3
-1.910e+00,-4.56,-3.08
-1.907e+00,-4.72,-3.16
-1.904e+00,-4.8,-3.32
-1.901e+00,-4.88,-3.4
-1.898e+00,-5.04,-3.48
-1.894e+00,-5.12,-3.56
-1.891e+00,-5.28,-3.56
-1.888e+00,-5.36,-3.72
-1.885e+00,-5.52,-3.8
-1.882e+00,-5.6,-3.88
-1.878e+00,-5.68,-3.88
-1.875e+00,-5.76,-3.96
-1.872e+00,-5.92,-4.12
-1.869e+00,-6,-4.12
-1.866e+00,-6.08,-4.2
-1.862e+00,-6.24,-4.28
-1.859e+00,-6.32,-4.28
-1.856e+00,-6.4,-4.44
-1.853e+00,-6.48,-4.44
-1.850e+00,-6.56,-4.44
-1.846e+00,-6.64,-4.52
-1.843e+00,-6.72,-4.6
-1.840e+00,-6.8,-4.6
-1.837e+00,-6.8,-4.68
-1.834e+00,-6.88,-4.76
-1.830e+00,-6.96,-4.76
-1.827e+00,-7.04,-4.84
-1.824e+00,-7.12,-4.84
-1.821e+00,-7.2,-4.92
-1.818e+00,-7.2,-4.92
-1.814e+00,-7.28,-4.92
-1.811e+00,-7.28,-5
-1.808e+00,-7.36,-5
-1.805e+00,-7.44,-5.08
-1.802e+00,-7.44,-5.08
-1.798e+00,-7.44,-5.08
-1.795e+00,-7.52,-5.08
-1.792e+00,-7.52,-5.16
-1.789e+00,-7.6,-5.16
-1.786e+00,-7.6,-5.16
-1.782e+00,-7.6,-5.24
-1.779e+00,-7.6,-5.16
-1.776e+00,-7.6,-5.24
-1.773e+00,-7.68,-5.24
-1.770e+00,-7.68,-5.24
-1.766e+00,-7.68,-5.24
-1.763e+00,-7.68,-5.24
-1.760e+00,-7.68,-5.24
-1.757e+00,-7.68,-5.24
-1.754e+00,-7.68,-5.24
-1.750e+00,-7.6,-5.24
-1.747e+00,-7.6,-5.24
-1.744e+00,-7.6,-5.24
-1.741e+00,-7.6,-5.16
-1.738e+00,-7.52,-5.16
-1.734e+00,-7.52,-5.16
-1.731e+00,-7.44,-5.08
-1.728e+00,-7.44,-5.08
-1.725e+00,-7.44,-5.08
-1.722e+00,-7.36,-5.08
-1.718e+00,-7.36,-5
-1.715e+00,-7.36,-5
-1.712e+00,-7.28,-4.92
-1.709e+00,-7.2,-4.92
-1.706e+00,-7.12,-4.84
-1.702e+00,-7.12,-4.84
-1.699e+00,-7.04,-4.84
-1.696e+00,-6.96,-4.76
-1.693e+00,-6.88,-4.76
-1.690e+00,-6.8,-4.68
-1.686e+00,-6.8,-4.6
-1.683e+00,-6.72,-4.6
-1.680e+00,-6.64,-4.52
-1.677e+00,-6.56,-4.44
-1.674e+00,-6.48,-4.44
-1.670e+00,-6.4,-4.36
-1.667e+00,-6.32,-4.28
-1.664e+00,-6.24,-4.28
-1.661e+00,-6.08,-4.12
-1.658e+00,-6,-4.12
-1.654e+00,-5.84,-4.04
-1.651e+00,-5.76,-3.96
-1.648e+00,-5.76,-3.88
-1.645e+00,-5.6,-3.88
-1.642e+00,-5.52,-3.72
-1.638e+00,-5.36,-3.72
-1.635e+00,-5.28,-3.56
-1.632e+00,-5.12,-3.56
-1.629e+00,-5.04,-3.48
-1.626e+00,-4.88,-3.4
-1.622e+00,-4.8,-3.32
-1.619e+00,-4.64,-3.24
-1.616e+00,-4.56,-3.16
-1.613e+00,-4.4,-3
-1.610e+00,-4.4,-3
-1.606e+00,-4.16,-2.84
-1.603e+00,-4.08,-2.76
-1.600e+00,-3.92,-2.68
-1.597e+00,-3.76,-2.6
-1.594e+00,-3.68,-2.52
-1.590e+00,-3.52,-2.44
-1.587e+00,-3.36,-2.36
-1.584e+00,-3.2,-2.2
-1.581e+00,-3.12,-2.12
-1.578e+00,-2.96,-2.04
-1.574e+00,-2.8,-1.96
-1.571e+00,-2.64,-1.88
-1.568e+00,-2.56,-1.72
-1.565e+00,-2.4,-1.64
-1.562e+00,-2.24,-1.56
-1.558e+00,-2.08,-1.4
-1.555e+00,-1.92,-1.32
-1.552e+00,-1.76,-1.24
-1.549e+00,-1.6,-1.16
-1.546e+00,-1.44,-1.08
-1.542e+00,-1.28,-0.92
-1.539e+00,-1.2,-0.84
-1.536e+00,-1.04,-0.68
-1.533e+00,-0.88,-0.68
-1.530e+00,-0.72,-0.52
-1.526e+00,-0.56,-0.44
-1.523e+00,-0.4,-0.28
-1.520e+00,-0.24,-0.2
-1.517e+00,-0.08,-0.12
-1.514e+00,0.08,0.04
-1.510e+00,0.24,0.12
-1.507e+00,0.32,0.2
-1.504e+00,0.56,0.36
-1.501e+00,0.64,0.36
-1.498e+00,0.8,0.52
-1.494e+00,0.96,0.68
-1.491e+00,1.12,0.76
-1.488e+00,1.28,0.84
-1.485e+00,1.44,1
-1.482e+00,1.6,1.08
-1.478e+00,1.76,1.16
-1.475e+00,1.92,1.24
-1.472e+00,2,1.4
-1.469e+00,2.16,1.48
-1.466e+00,2.32,1.56
-1.462e+00,2.48,1.64
-1.459e+00,2.64,1.8
-1.456e+00,2.8,1.88
-1.453e+00,2.96,1.96
-1.450e+00,3.12,2.04
-1.446e+00,3.2,2.12
-1.443e+00,3.36,2.2
-1.440e+00,3.52,2.36
-1.437e+00,3.68,2.52
-1.434e+00,3.84,2.52
-1.430e+00,3.92,2.6
-1.427e+00,4.08,2.76
-1.424e+00,4.24,2.84
-1.421e+00,4.32,2.92
-1.418e+00,4.48,3
-1.414e+00,4.64,3.08
-1.411e+00,4.72,3.16
-1.408e+00,4.88,3.24
-1.405e+00,4.96,3.32
-1.402e+00,5.12,3.4
-1.398e+00,5.2,3.4
-1.395e+00,5.28,3.56
-1.392e+00,5.44,3.64
-1.389e+00,5.6,3.72
-1.386e+00,5.68,3.8
-1.382e+00,5.76,3.88
-1.379e+00,5.92,3.96
-1.376e+00,6,4.04
-1.373e+00,6.08,4.12
-1.370e+00,6.16,4.12
-1.366e+00,6.32,4.2
-1.363e+00,6.4,4.28
-1.360e+00,6.48,4.36
-1.357e+00,6.56,4.44
-1.354e+00,6.64,4.52
-1.350e+00,6.72,4.52
-1.347e+00,6.72,4.6
-1.344e+00,6.88,4.6
-1.341e+00,6.96,4.68
-1.338e+00,6.96,4.76
-1.334e+00,7.12,4.76
-1.331e+00,7.12,4.76
-1.328e+00,7.2,4.84
-1.325e+00,7.28,4.92
-1.322e+00,7.28,4.92
-1.318e+00,7.28,5
-1.315e+00,7.44,5
-1.312e+00,7.44,5.08
-1.309e+00,7.52,5.08
-1.306e+00,7.6,5.08
-1.302e+00,7.6,5.16
-1.299e+00,7.68,5.16
-1.296e+00,7.68,5.16
-1.293e+00,7.68,5.16
-1.290e+00,7.76,5.24
-1.286e+00,7.76,5.24
-1.283e+00,7.76,5.24
-1.280e+00,7.76,5.24
-1.277e+00,7.76,5.24
-1.274e+00,7.84,5.32
-1.270e+00,7.84,5.32
-1.267e+00,7.84,5.24
-1.264e+00,7.84,5.32
-1.261e+00,7.84,5.32
-1.258e+00,7.84,5.32
-1.254e+00,7.76,5.32
-1.251e+00,7.76,5.24
-1.248e+00,7.76,5.24
-1.245e+00,7.76,5.24
-1.242e+00,7.76,5.24
-1.238e+00,7.76,5.16
-1.235e+00,7.68,5.24
-1.232e+00,7.68,5.16
-1.229e+00,7.68,5.16
-1.226e+00,7.6,5.16
-1.222e+00,7.6,5.16
-1.219e+00,7.52,5.08
-1.216e+00,7.44,5.08
-1.213e+00,7.44,5
-1.210e+00,7.36,5
-1.206e+00,7.36,5
-1.203e+00,7.28,4.92
-1.200e+00,7.2,4.92
-1.197e+00,7.12,4.76
-1.194e+00,7.04,4.84
-1.190e+00,7.04,4.76
-1.187e+00,6.96,4.68
-1.184e+00,6.88,4.68
-1.181e+00,6.8,4.6
-1.178e+00,6.72,4.52
-1.174e+00,6.64,4.52
-1.171e+00,6.56,4.44
-1.168e+00,6.48,4.36
-1.165e+00,6.4,4.36
-1.162e+00,6.32,4.2
-1.158e+00,6.24,4.2
-1.155e+00,6.16,4.12
-1.152e+00,6,4.04
-1.149e+00,5.92,4.04
-1.146e+00,5.84,3.96
-1.142e+00,5.68,3.88
-1.139e+00,5.6,3.8
-1.136e+00,5.52,3.72
-1.133e+00,5.36,3.64
-1.130e+00,5.28,3.56
-1.126e+00,5.12,3.48
-1.123e+00,5.04,3.4
-1.120e+00,4.88,3.32
-1.117e+00,4.8,3.24
-1.114e+00,4.64,3.16
-1.110e+00,4.56,3.08
-1.107e+00,4.4,3
-1.104e+00,4.32,2.84
-1.101e+00,4.16,2.76
-1.098e+00,4,2.68
-1.094e+00,3.84,2.52
-1.091e+00,3.68,2.52
-1.088e+00,3.6,2.36
-1.085e+00,3.44,2.36
-1.082e+00,3.28,2.2
-1.078e+00,3.2,2.12
-1.075e+00,3.04,2.04
-1.072e+00,2.88,1.96
-1.069e+00,2.72,1.8
-1.066e+00,2.56,1.72
-1.062e+00,2.48,1.56
-1.059e+00,2.24,1.56
-1.056e+00,2.16,1.4
-1.053e+00,1.92,1.32
-1.050e+00,1.84,1.24
-1.046e+00,1.68,1.08
-1.043e+00,1.52,1
-1.040e+00,1.36,0.84
-1.037e+00,1.2,0.84
-1.034e+00,1.04,0.68
-1.030e+00,0.88,0.6
-1.027e+00,0.72,0.52
-1.024e+00,0.56,0.36
-1.021e+00,0.4,0.28
-1.018e+00,0.24,0.2
-1.014e+00,0.08,0.04
-1.011e+00,-0.08,-0.04
-1.008e+00,-0.16,-0.12
-1.005e+00,-0.32,-0.2
-1.002e+00,-0.48,-0.36
-9.984e-01,-0.64,-0.44
-9.952e-01,-0.8,-0.6
-9.920e-01,-0.96,-0.68
-9.888e-01,-1.12,-0.76
-9.856e-01,-1.28,-0.84
-9.824e-01,-1.36,-1
-9.792e-01,-1.6,-1.08
-9.760e-01,-1.68,-1.16
-9.728e-01,-1.84,-1.24
-9.696e-01,-2,-1.32
-9.664e-01,-2.16,-1.48
-9.632e-01,-2.32,-1.56
-9.600e-01,-2.48,-1.72
-9.568e-01,-2.56,-1.72
-9.536e-01,-2.8,-1.88
-9.504e-01,-2.88,-1.96
-9.472e-01,-3.04,-2.12
-9.440e-01,-3.12,-2.2
-9.408e-01,-3.28,-2.28
-9.376e-01,-3.44,-2.36
-9.344e-01,-3.6,-2.44
-9.312e-01,-3.76,-2.52
-9.280e-01,-3.84,-2.68
-9.248e-01,-3.92,-2.76
-9.216e-01,-4.08,-2.84
-9.184e-01,-4.24,-2.92
-9.152e-01,-4.4,-3
-9.120e-01,-4.48,-3.08
-9.088e-01,-4.64,-3.16
-9.056e-01,-4.72,-3.24
-9.024e-01,-4.88,-3.32
-8.992e-01,-5.04,-3.4
-8.960e-01,-5.12,-3.48
-8.928e-01,-5.2,-3.56
-8.896e-01,-5.36,-3.64
-8.864e-01,-5.44,-3.72
-8.832e-01,-5.52,-3.8
-8.800e-01,-5.68,-3.88
-8.768e-01,-5.76,-3.96
-8.736e-01,-5.84,-4.04
-8.704e-01,-6,-4.04
-8.672e-01,-6.08,-4.12
-8.640e-01,-6.16,-4.2
-8.608e-01,-6.32,-4.28
-8.576e-01,-6.32,-4.36
-8.544e-01,-6.4,-4.36
-8.512e-01,-6.48,-4.44
-8.480e-01,-6.64,-4.44
-8.448e-01,-6.72,-4.52
-8.416e-01,-6.72,-4.6
-8.384e-01,-6.8,-4.68
-8.352e-01,-6.88,-4.76
-8.320e-01,-6.88,-4.76
-8.288e-01,-7.04,-4.84
-8.256e-01,-7.04,-4.84
-8.224e-01,-7.12,-4.84
-8.192e-01,-7.2,-4.92
-8.160e-01,-7.2,-4.92
-8.128e-01,-7.28,-5
-8.096e-01,-7.36,-5
-8.064e-01,-7.36,-5.08
-8.032e-01,-7.44,-5.08
-8.000e-01,-7.52,-5.08
-7.968e-01,-7.52,-5.08
-7.936e-01,-7.52,-5.16
-7.904e-01,-7.6,-5.16
-7.872e-01,-7.6,-5.16
-7.840e-01,-7.6,-5.24
-7.808e-01,-7.6,-5.24
-7.776e-01,-7.68,-5.24
-7.744e-01,-7.6,-5.24
-7.712e-01,-7.6,-5.24
-7.680e-01,-7.68,-5.24
-7.648e-01,-7.68,-5.24
-7.616e-01,-7.68,-5.24
-7.584e-01,-7.68,-5.32
-7.552e-01,-7.68,-5.24
-7.520e-01,-7.68,-5.16
-7.488e-01,-7.6,-5.24
-7.456e-01,-7.6,-5.16
-7.424e-01,-7.6,-5.16
-7.392e-01,-7.6,-5.16
-7.360e-01,-7.52,-5.16
-7.328e-01,-7.52,-5.16
-7.296e-01,-7.44,-5.08
-7.264e-01,-7.44,-5.08
-7.232e-01,-7.44,-5.08
-7.200e-01,-7.36,-5
-7.168e-01,-7.36,-5
-7.136e-01,-7.28,-5
-7.104e-01,-7.2,-5
-7.072e-01,-7.12,-4.92
-7.040e-01,-7.12,-4.92
-7.008e-01,-7.04,-4.84
-6.976e-01,-7.04,-4.76
-6.944e-01,-6.96,-4.76
-6.912e-01,-6.88,-4.68
-6.880e-01,-6.8,-4.68
-6.848e-01,-6.72,-4.6
-6.816e-01,-6.64,-4.52
-6.784e-01,-6.64,-4.44
-6.752e-01,-6.56,-4.44
-6.720e-01,-6.48,-4.36
-6.688e-01,-6.32,-4.36
-6.656e-01,-6.24,-4.28
-6.624e-01,-6.16,-4.2
-6.592e-01,-6.08,-4.12
-6.560e-01,-6,-4.04
-6.528e-01,-5.92,-4.04
-6.496e-01,-5.76,-3.96
-6.464e-01,-5.68,-3.88
-6.432e-01,-5.52,-3.8
-6.400e-01,-5.44,-3.8
-6.368e-01,-5.28,-3.64
-6.336e-01,-5.2,-3.56
-6.304e-01,-5.12,-3.48
-6.272e-01,-4.96,-3.4
-6.240e-01,-4.88,-3.32
-6.208e-01,-4.72,-3.32
-6.176e-01,-4.64,-3.16
-6.144e-01,-4.48,-3.16
-6.112e-01,-4.4,-3
-6.080e-01,-4.24,-2.92
-6.048e-01,-4.08,-2.84
-6.016e-01,-4,-2.76
-5.984e-01,-3.84,-2.68
-5.952e-01,-3.76,-2.52
-5.920e-01,-3.6,-2.44
-5.888e-01,-3.44,-2.36
-5.856e-01,-3.28,-2.28
-5.824e-01,-3.12,-2.12
-5.792e-01,-2.96,-2.04
-5.760e-01,-2.88,-1.96
-5.728e-01,-2.72,-1.88
-5.696e-01,-2.56,-1.72
-5.664e-01,-2.48,-1.64
-5.632e-01,-2.32,-1.56
-5.600e-01,-2.16,-1.48
-5.568e-01,-2,-1.32
-5.536e-01,-1.84,-1.24
-5.504e-01,-1.68,-1.16
-5.472e-01,-1.52,-1.08
-5.440e-01,-1.36,-1
-5.408e-01,-1.2,-0.84
-5.376e-01,-1.04,-0.76
-5.344e-01,-0.96,-0.68
-5.312e-01,-0.8,-0.52
-5.280e-01,-0.64,-0.44
-5.248e-01,-0.48,-0.36
-5.216e-01,-0.32,-0.2
-5.184e-01,-0.16,-0.12
-5.152e-01,0,-0.04
-5.120e-01,0.08,0.04
-5.088e-01,0.24,0.2
-5.056e-01,0.48,0.28
-5.024e-01,0.56,0.44
-4.992e-01,0.72,0.52
-4.960e-01,0.88,0.6
-4.928e-01,1.04,0.68
-4.896e-01,1.2,0.76
-4.864e-01,1.36,0.92
-4.832e-01,1.52,1
-4.800e-01,1.68,1.08
-4.768e-01,1.84,1.24
-4.736e-01,2,1.32
-4.704e-01,2.08,1.4
-4.672e-01,2.24,1.56
-4.640e-01,2.4,1.64
-4.608e-01,2.56,1.72
-4.576e-01,2.72,1.8
-4.544e-01,2.88,1.96
-4.512e-01,3.04,2.04
-4.480e-01,3.12,2.12
-4.448e-01,3.28,2.2
-4.416e-01,3.44,2.28
-4.384e-01,3.6,2.44
-4.352e-01,3.76,2.52
-4.320e-01,3.92,2.6
-4.288e-01,4,2.68
-4.256e-01,4.16,2.76
-4.224e-01,4.32,2.84
-4.192e-01,4.4,3
-4.160e-01,4.56,3.08
-4.128e-01,4.64,3.16
-4.096e-01,4.8,3.24
-4.064e-01,4.88,3.32
-4.032e-01,5.04,3.4
-4.000e-01,5.12,3.48
-3.968e-01,5.28,3.56
-3.936e-01,5.36,3.64
-3.904e-01,5.52,3.72
-3.872e-01,5.6,3.8
-3.840e-01,5.68,3.88
-3.808e-01,5.84,3.96
-3.776e-01,5.92,4.04
-3.744e-01,6,4.12
-3.712e-01,6.16,4.12
-3.680e-01,6.24,4.2
-3.648e-01,6.32,4.28
-3.616e-01,6.4,4.36
-3.584e-01,6.48,4.36
-3.552e-01,6.56,4.44
-3.520e-01,6.64,4.52
-3.488e-01,6.72,4.52
-3.456e-01,6.8,4.6
-3.424e-01,6.88,4.68
-3.392e-01,6.96,4.68
-3.360e-01,7.04,4.76
-3.328e-01,7.04,4.76
-3.296e-01,7.12,4.84
-3.264e-01,7.2,4.92
-3.232e-01,7.28,4.92
-3.200e-01,7.36,5
-3.168e-01,7.36,5
-3.136e-01,7.44,5.08
-3.104e-01,7.52,5.08
-3.072e-01,7.44,5.08
-3.040e-01,7.6,5.16
-3.008e-01,7.6,5.16
-2.976e-01,7.6,5.16
-2.944e-01,7.68,5.24
-2.912e-01,7.68,5.24
-2.880e-01,7.76,5.24
-2.848e-01,7.76,5.24
-2.816e-01,7.76,5.24
-2.784e-01,7.76,5.24
-2.752e-01,7.76,5.24
-2.720e-01,7.84,5.32
-2.688e-01,7.84,5.32
