capacitor_data_0412/TEK00111.CSV

Model,TBS2074B
Firmware Version,v1.32.136

Point Format,Y,
Horizontal Units,S,
Horizontal Scale,0.01,
Sample Interval,8e-05,
Filter Frequency,2e+08,
Record Length,2000,
Gating,0.0% to 100.0%,0.0% to 100.0%
Probe Attenuation,1,1
Vertical Units,V,V
Vertical Offset,0,0
Vertical Scale,2,2
Label,,
TIME,CH1,CH2
-8.000e-02,0,-0.08
-7.992e-02,0.08,0
-7.984e-02,0.16,0.08
-7.976e-02,0.24,0.08
-7.968e-02,0.32,0.16
-7.960e-02,0.4,0.24
-7.952e-02,0.48,0.24
-7.944e-02,0.56,0.24
-7.936e-02,0.56,0.32
-7.928e-02,0.64,0.4
-7.920e-02,0.72,0.4
-7.912e-02,0.8,0.48
-7.904e-02,0.88,0.56
-7.896e-02,0.88,0.56
-7.888e-02,0.96,0.64
-7.880e-02,1.04,0.72
-7.872e-02,1.12,0.72
-7.864e-02,1.2,0.8
-7.856e-02,1.28,0.8
-7.848e-02,1.36,0.88
-7.840e-02,1.36,0.88
-7.832e-02,1.52,0.88
-7.824e-02,1.52,0.96
-7.816e-02,1.6,1.04
-7.808e-02,1.68,1.04
-7.800e-02,1.76,1.12
-7.792e-02,1.76,1.12
-7.784e-02,1.84,1.2
-7.776e-02,1.92,1.2
-7.768e-02,1.92,1.28
-7.760e-02,2,1.28
-7.752e-02,2.08,1.36
-7.744e-02,2.08,1.36
-7.736e-02,2.16,1.36
-7.728e-02,2.24,1.44
-7.720e-02,2.24,1.44
-7.712e-02,2.32,1.52
-7.704e-02,2.4,1.52
-7.696e-02,2.4,1.52
-7.688e-02,2.4,1.6
-7.680e-02,2.48,1.6
-7.672e-02,2.56,1.6
-7.664e-02,2.56,1.68
-7.656e-02,2.56,1.76
-7.648e-02,2.64,1.76
-7.640e-02,2.64,1.76
-7.632e-02,2.64,1.76
-7.624e-02,2.72,1.76
-7.616e-02,2.72,1.84
-7.608e-02,2.72,1.84
-7.600e-02,2.8,1.84
-7.592e-02,2.8,1.84
-7.584e-02,2.8,1.84
-7.576e-02,2.8,1.92
-7.568e-02,2.88,1.92
-7.560e-02,2.88,1.92
-7.552e-02,2.88,1.92
-7.544e-02,2.96,1.92
-7.536e-02,2.88,1.92
-7.528e-02,2.96,1.92
-7.520e-02,2.96,2
-7.512e-02,2.96,2
-7.504e-02,2.88,2
-7.496e-02,2.96,2
-7.488e-02,2.96,2
-7.480e-02,2.96,2
-7.472e-02,2.96,2
-7.464e-02,2.96,2
-7.456e-02,2.88,1.92
-7.448e-02,2.88,1.92
-7.440e-02,2.88,1.92
-7.432e-02,2.88,1.92
-7.424e-02,2.8,1.92
-7.416e-02,2.88,1.92
-7.408e-02,2.8,1.92
-7.400e-02,2.8,1.92
-7.392e-02,2.8,1.84
-7.384e-02,2.72,1.84
-7.376e-02,2.72,1.84
-7.368e-02,2.72,1.84
-7.360e-02,2.64,1.84
-7.352e-02,2.64,1.84
-7.344e-02,2.56,1.76
-7.336e-02,2.56,1.68
-7.328e-02,2.48,1.68
-7.320e-02,2.48,1.76
-7.312e-02,2.48,1.68
-7.304e-02,2.4,1.68
-7.296e-02,2.4,1.6
-7.288e-02,2.32,1.6
-7.280e-02,2.24,1.52
-7.272e-02,2.24,1.52
-7.264e-02,2.16,1.52
-7.256e-02,2.16,1.44
-7.248e-02,2.08,1.44
-7.240e-02,2,1.36
-7.232e-02,2,1.36
-7.224e-02,1.92,1.36
-7.216e-02,1.84,1.28
-7.208e-02,1.76,1.28
-7.200e-02,1.76,1.2
-7.192e-02,1.68,1.2
-7.184e-02,1.6,1.12
-7.176e-02,1.6,1.12
-7.168e-02,1.44,1.04
-7.160e-02,1.44,1.04
-7.152e-02,1.28,0.96
-7.144e-02,1.28,0.96
-7.136e-02,1.2,0.88
-7.128e-02,1.12,0.88
-7.120e-02,1.12,0.8
-7.112e-02,1.04,0.72
-7.104e-02,0.96,0.72
-7.096e-02,0.88,0.72
-7.088e-02,0.8,0.64
-7.080e-02,0.8,0.56
-7.072e-02,0.64,0.48
-7.064e-02,0.56,0.48
-7.056e-02,0.56,0.4
-7.048e-02,0.48,0.4
-7.040e-02,0.4,0.32
-7.032e-02,0.32,0.32
-7.024e-02,0.24,0.24
-7.016e-02,0.16,0.24
-7.008e-02,0.08,0.16
-7.000e-02,0,0.08
-6.992e-02,-0.08,0
-6.984e-02,-0.08,-0.08
-6.976e-02,-0.16,-0.08
-6.968e-02,-0.24,-0.08
-6.960e-02,-0.32,-0.16
-6.952e-02,-0.4,-0.16
-6.944e-02,-0.48,-0.24
-6.936e-02,-0.56,-0.32
-6.928e-02,-0.64,-0.32
-6.920e-02,-0.72,-0.4
-6.912e-02,-0.72,-0.4
-6.904e-02,-0.8,-0.48
-6.896e-02,-0.88,-0.48
-6.888e-02,-0.96,-0.56
-6.880e-02,-1.04,-0.64
-6.872e-02,-1.12,-0.72
-6.864e-02,-1.12,-0.72
-6.856e-02,-1.2,-0.8
-6.848e-02,-1.28,-0.8
-6.840e-02,-1.36,-0.8
-6.832e-02,-1.44,-0.88
-6.824e-02,-1.44,-0.96
-6.816e-02,-1.52,-0.96
-6.808e-02,-1.6,-0.96
-6.800e-02,-1.6,-1.04
-6.792e-02,-1.68,-1.12
-6.784e-02,-1.76,-1.12
-6.776e-02,-1.84,-1.2
-6.768e-02,-1.84,-1.2
-6.760e-02,-1.92,-1.2
-6.752e-02,-2,-1.28
-6.744e-02,-2.08,-1.28
-6.736e-02,-2.08,-1.36
-6.728e-02,-2.24,-1.36
-6.720e-02,-2.16,-1.36
-6.712e-02,-2.24,-1.44
-6.704e-02,-2.32,-1.52
-6.696e-02,-2.32,-1.52
-6.688e-02,-2.4,-1.52
-6.680e-02,-2.4,-1.6
-6.672e-02,-2.48,-1.6
-6.664e-02,-2.48,-1.6
-6.656e-02,-2.48,-1.6
-6.648e-02,-2.56,-1.68
-6.640e-02,-2.56,-1.68
-6.632e-02,-2.64,-1.76
-6.624e-02,-2.64,-1.76
-6.616e-02,-2.64,-1.76
-6.608e-02,-2.72,-1.76
-6.600e-02,-2.72,-1.84
-6.592e-02,-2.8,-1.84
-6.584e-02,-2.72,-1.84
-6.576e-02,-2.8,-1.84
-6.568e-02,-2.8,-1.92
-6.560e-02,-2.8,-1.84
-6.552e-02,-2.8,-1.92
-6.544e-02,-2.88,-1.92
-6.536e-02,-2.8,-1.92
-6.528e-02,-2.88,-1.92
-6.520e-02,-2.88,-2
-6.512e-02,-2.88,-1.92
-6.504e-02,-2.88,-1.92
-6.496e-02,-2.88,-1.92
-6.488e-02,-2.88,-1.92
-6.480e-02,-2.88,-1.92
-6.472e-02,-2.8,-1.92
-6.464e-02,-2.88,-1.92
-6.456e-02,-2.8,-1.92
-6.448e-02,-2.8,-1.92
-6.440e-02,-2.8,-1.92
-6.432e-02,-2.8,-1.92
-6.424e-02,-2.8,-1.92
-6.416e-02,-2.8,-1.92
-6.408e-02,-2.72,-1.84
-6.400e-02,-2.72,-1.84
-6.392e-02,-2.72,-1.84
-6.384e-02,-2.64,-1.84
-6.376e-02,-2.64,-1.76
-6.368e-02,-2.56,-1.76
-6.360e-02,-2.64,-1.76
-6.352e-02,-2.56,-1.76
-6.344e-02,-2.56,-1.68
-6.336e-02,-2.48,-1.68
-6.328e-02,-2.48,-1.68
-6.320e-02,-2.48,-1.68
-6.312e-02,-2.4,-1.6
-6.304e-02,-2.32,-1.6
-6.296e-02,-2.32,-1.6
-6.288e-02,-2.24,-1.52
-6.280e-02,-2.24,-1.52
-6.272e-02,-2.16,-1.44
-6.264e-02,-2.08,-1.44
-6.256e-02,-2.08,-1.44
-6.248e-02,-2,-1.36
-6.240e-02,-1.92,-1.36
-6.232e-02,-1.92,-1.36
-6.224e-02,-1.92,-1.28
-6.216e-02,-1.76,-1.2
-6.208e-02,-1.68,-1.2
-6.200e-02,-1.68,-1.2
-6.192e-02,-1.6,-1.12
-6.184e-02,-1.52,-1.2
-6.176e-02,-1.52,-1.04
-6.168e-02,-1.44,-1.04
-6.160e-02,-1.36,-0.96
-6.152e-02,-1.28,-0.96
-6.144e-02,-1.2,-0.88
-6.136e-02,-1.2,-0.88
-6.128e-02,-1.12,-0.8
-6.120e-02,-1.04,-0.8
-6.112e-02,-0.96,-0.8
-6.104e-02,-0.88,-0.72
-6.096e-02,-0.88,-0.64
-6.088e-02,-0.72,-0.56
-6.080e-02,-0.64,-0.56
-6.072e-02,-0.64,-0.48
-6.064e-02,-0.56,-0.48
-6.056e-02,-0.48,-0.4
-6.048e-02,-0.4,-0.32
-6.040e-02,-0.32,-0.32
-6.032e-02,-0.24,-0.24
-6.024e-02,-0.24,-0.24
-6.016e-02,-0.16,-0.24
-6.008e-02,-0.08,-0.08
-6.000e-02,0,-0.08
-5.992e-02,0.08,0
-5.984e-02,0.16,0.08
-5.976e-02,0.24,0.08
-5.968e-02,0.32,0.16
-5.960e-02,0.4,0.16
-5.952e-02,0.48,0.24
-5.944e-02,0.48,0.32
-5.936e-02,0.56,0.32
-5.928e-02,0.64,0.4
-5.920e-02,0.72,0.4
-5.912e-02,0.8,0.48
-5.904e-02,0.88,0.48
-5.896e-02,0.88,0.56
-5.888e-02,0.96,0.64
-5.880e-02,1.04,0.64
-5.872e-02,1.12,0.72
-5.864e-02,1.2,0.8
-5.856e-02,1.28,0.8
-5.848e-02,1.28,0.88
-5.840e-02,1.36,0.88
-5.832e-02,1.44,0.96
-5.824e-02,1.52,0.96
-5.816e-02,1.6,1.04
-5.808e-02,1.68,1.04
-5.800e-02,1.68,1.04
-5.792e-02,1.76,1.12
-5.784e-02,1.84,1.2
-5.776e-02,1.92,1.2
-5.768e-02,1.92,1.28
-5.760e-02,2,1.28
-5.752e-02,2.08,1.28
-5.744e-02,2.08,1.36
-5.736e-02,2.16,1.44
-5.728e-02,2.16,1.44
-5.720e-02,2.24,1.44
-5.712e-02,2.32,1.52
-5.704e-02,2.32,1.52
-5.696e-02,2.4,1.6
-5.688e-02,2.4,1.6
-5.680e-02,2.48,1.6
-5.672e-02,2.48,1.68
-5.664e-02,2.56,1.68
-5.656e-02,2.56,1.68
-5.648e-02,2.64,1.76
-5.640e-02,2.64,1.76
-5.632e-02,2.72,1.76
-5.624e-02,2.72,1.76
-5.616e-02,2.72,1.84
-5.608e-02,2.8,1.84
-5.600e-02,2.8,1.84
-5.592e-02,2.8,1.84
-5.584e-02,2.8,1.92
-5.576e-02,2.8,1.92
-5.568e-02,2.88,1.92
-5.560e-02,2.88,1.92
-5.552e-02,2.88,1.92
-5.544e-02,2.96,1.92
-5.536e-02,2.88,1.92
-5.528e-02,2.96,1.92
-5.520e-02,2.96,2
-5.512e-02,2.88,1.92
-5.504e-02,2.96,1.92
-5.496e-02,2.88,2
-5.488e-02,2.96,1.92
-5.480e-02,2.96,1.92
-5.472e-02,2.88,2
-5.464e-02,2.88,2
-5.456e-02,2.96,2
-5.448e-02,2.88,1.92
-5.440e-02,2.88,1.92
-5.432e-02,2.88,1.92
-5.424e-02,2.88,1.92
-5.416e-02,2.8,1.92
-5.408e-02,2.8,1.92
-5.400e-02,2.8,1.92
-5.392e-02,2.8,1.92
-5.384e-02,2.72,1.84
-5.376e-02,2.72,1.84
-5.368e-02,2.72,1.84
-5.360e-02,2.64,1.84
-5.352e-02,2.64,1.84
-5.344e-02,2.64,1.76
-5.336e-02,2.56,1.76
-5.328e-02,2.48,1.76
-5.320e-02,2.48,1.68
-5.312e-02,2.48,1.68
-5.304e-02,2.4,1.68
-5.296e-02,2.32,1.6
-5.288e-02,2.32,1.6
-5.280e-02,2.32,1.52
-5.272e-02,2.24,1.52
-5.264e-02,2.16,1.52
-5.256e-02,2.08,1.52
-5.248e-02,2.08,1.44
-5.240e-02,2,1.36
-5.232e-02,1.92,1.36
-5.224e-02,1.92,1.36
-5.216e-02,1.84,1.28
-5.208e-02,1.76,1.28
-5.200e-02,1.76,1.2
-5.192e-02,1.68,1.2
-5.184e-02,1.6,1.12
-5.176e-02,1.52,1.12
-5.168e-02,1.44,1.04
-5.160e-02,1.44,1.04
-5.152e-02,1.36,0.96
-5.144e-02,1.28,0.96
-5.136e-02,1.2,0.88
-5.128e-02,1.12,0.88
-5.120e-02,1.12,0.8
-5.112e-02,1.04,0.8
-5.104e-02,0.96,0.72
-5.096e-02,0.88,0.64
-5.088e-02,0.8,0.64
-5.080e-02,0.72,0.56
-5.072e-02,0.64,0.56
-5.064e-02,0.56,0.48
-5.056e-02,0.48,0.4
-5.048e-02,0.48,0.4
-5.040e-02,0.32,0.24
-5.032e-02,0.32,0.32
-5.024e-02,0.24,0.24
-5.016e-02,0.08,0.16
-5.008e-02,0.08,0.16
-5.000e-02,0,0
-4.992e-02,-0.08,0
-4.984e-02,-0.08,0
-4.976e-02,-0.16,-0.08
-4.968e-02,-0.24,-0.16
-4.960e-02,-0.32,-0.16
-4.952e-02,-0.4,-0.24
-4.944e-02,-0.48,-0.24
-4.936e-02,-0.56,-0.32
-4.928e-02,-0.56,-0.32
-4.920e-02,-0.64,-0.4
-4.912e-02,-0.72,-0.4
-4.904e-02,-0.8,-0.48
-4.896e-02,-0.88,-0.56
-4.888e-02,-0.96,-0.56
-4.880e-02,-1.04,-0.64
-4.872e-02,-1.12,-0.72
-4.864e-02,-1.2,-0.72
-4.856e-02,-1.2,-0.8
-4.848e-02,-1.28,-0.8
-4.840e-02,-1.36,-0.88
-4.832e-02,-1.36,-0.88
-4.824e-02,-1.44,-0.96
-4.816e-02,-1.6,-0.96
-4.808e-02,-1.6,-1.04
-4.800e-02,-1.68,-1.04
-4.792e-02,-1.68,-1.12
-4.784e-02,-1.76,-1.12
-4.776e-02,-1.84,-1.12
-4.768e-02,-1.92,-1.2
-4.760e-02,-2,-1.28
-4.752e-02,-2,-1.28
-4.744e-02,-2.08,-1.28
-4.736e-02,-2.16,-1.36
-4.728e-02,-2.16,-1.36
-4.720e-02,-2.16,-1.44
-4.712e-02,-2.24,-1.44
-4.704e-02,-2.32,-1.44
-4.696e-02,-2.32,-1.52
-4.688e-02,-2.4,-1.52
-4.680e-02,-2.4,-1.6
-4.672e-02,-2.48,-1.6
-4.664e-02,-2.48,-1.6
-4.656e-02,-2.56,-1.68
-4.648e-02,-2.56,-1.68
-4.640e-02,-2.56,-1.68
-4.632e-02,-2.64,-1.68
-4.624e-02,-2.64,-1.76
-4.616e-02,-2.64,-1.76
-4.608e-02,-2.64,-1.76
-4.600e-02,-2.72,-1.84
-4.592e-02,-2.8,-1.84
-4.584e-02,-2.8,-1.84
-4.576e-02,-2.8,-1.84
-4.568e-02,-2.8,-1.84
-4.560e-02,-2.8,-1.84
-4.552e-02,-2.8,-1.92
-4.544e-02,-2.8,-1.92
-4.536e-02,-2.88,-1.92
-4.528e-02,-2.8,-1.92
-4.520e-02,-2.88,-1.92
-4.512e-02,-2.88,-1.92
-4.504e-02,-2.88,-1.92
-4.496e-02,-2.8,-1.92
-4.488e-02,-2.88,-1.92
-4.480e-02,-2.88,-1.92
-4.472e-02,-2.8,-1.92
-4.464e-02,-2.8,-1.92
-4.456e-02,-2.8,-1.92
-4.448e-02,-2.8,-1.92
-4.440e-02,-2.88,-1.92
-4.432e-02,-2.8,-1.92
-4.424e-02,-2.88,-1.92
-4.416e-02,-2.72,-1.92
-4.408e-02,-2.72,-1.92
-4.400e-02,-2.72,-1.84
-4.392e-02,-2.72,-1.92
-4.384e-02,-2.64,-1.84
-4.376e-02,-2.64,-1.76
-4.368e-02,-2.64,-1.76
-4.360e-02,-2.56,-1.76
-4.352e-02,-2.56,-1.76
-4.344e-02,-2.56,-1.76
-4.336e-02,-2.48,-1.68
-4.328e-02,-2.48,-1.68
-4.320e-02,-2.4,-1.68
-4.312e-02,-2.4,-1.6
-4.304e-02,-2.32,-1.6
-4.296e-02,-2.32,-1.6
-4.288e-02,-2.24,-1.52
-4.280e-02,-2.16,-1.52
-4.272e-02,-2.16,-1.52
-4.264e-02,-2.08,-1.44
-4.256e-02,-2.08,-1.44
-4.248e-02,-2,-1.36
-4.240e-02,-1.92,-1.36
-4.232e-02,-1.92,-1.28
-4.224e-02,-1.92,-1.28
-4.216e-02,-1.76,-1.28
-4.208e-02,-1.68,-1.28
-4.200e-02,-1.68,-1.2
-4.192e-02,-1.6,-1.12
-4.184e-02,-1.52,-1.12
-4.176e-02,-1.44,-1.04
-4.168e-02,-1.44,-1.04
-4.160e-02,-1.36,-0.96
-4.152e-02,-1.28,-0.96
-4.144e-02,-1.2,-0.96
-4.136e-02,-1.2,-0.8
-4.128e-02,-1.12,-0.8
-4.120e-02,-1.04,-0.8
-4.112e-02,-0.96,-0.72
-4.104e-02,-0.88,-0.64
-4.096e-02,-0.8,-0.64
-4.088e-02,-0.8,-0.56
-4.080e-02,-0.72,-0.56
-4.072e-02,-0.64,-0.48
-4.064e-02,-0.56,-0.4
-4.056e-02,-0.48,-0.4
-4.048e-02,-0.48,-0.32
-4.040e-02,-0.32,-0.32
-4.032e-02,-0.24,-0.32
-4.024e-02,-0.24,-0.24
-4.016e-02,-0.08,-0.16
-4.008e-02,-0.08,-0.08
-4.000e-02,0,-0.08
-3.992e-02,0.08,-0.08
-3.984e-02,0.16,0
-3.976e-02,0.24,0.08
-3.968e-02,0.24,0.16
-3.960e-02,0.32,0.24
-3.952e-02,0.48,0.24
-3.944e-02,0.56,0.32
-3.936e-02,0.56,0.32
-3.928e-02,0.64,0.4
-3.920e-02,0.72,0.48
-3.912e-02,0.8,0.48
-3.904e-02,0.88,0.48
-3.896e-02,0.96,0.56
-3.888e-02,0.96,0.64
-3.880e-02,1.04,0.72
-3.872e-02,1.12,0.72
-3.864e-02,1.2,0.72
-3.856e-02,1.28,0.8
-3.848e-02,1.36,0.88
-3.840e-02,1.44,0.88
-3.832e-02,1.44,0.96
-3.824e-02,1.52,0.96
-3.816e-02,1.6,1.04
-3.808e-02,1.68,1.04
-3.800e-02,1.68,1.12
-3.792e-02,1.76,1.12
-3.784e-02,1.84,1.12
-3.776e-02,1.92,1.2
-3.768e-02,1.92,1.28
-3.760e-02,2,1.28
-3.752e-02,2,1.36
-3.744e-02,2.08,1.36
-3.736e-02,2.16,1.44
-3.728e-02,2.24,1.44
-3.720e-02,2.24,1.52
-3.712e-02,2.32,1.52
-3.704e-02,2.32,1.52
-3.696e-02,2.4,1.52
-3.688e-02,2.4,1.6
-3.680e-02,2.48,1.6
-3.672e-02,2.48,1.68
-3.664e-02,2.56,1.68
-3.656e-02,2.56,1.68
-3.648e-02,2.64,1.76
-3.640e-02,2.64,1.76
-3.632e-02,2.64,1.76
-3.624e-02,2.72,1.76
-3.616e-02,2.72,1.84
-3.608e-02,2.8,1.84
-3.600e-02,2.72,1.76
-3.592e-02,2.8,1.84
-3.584e-02,2.8,1.92
-3.576e-02,2.8,1.92
-3.568e-02,2.88,1.92
-3.560e-02,2.88,1.92
-3.552e-02,2.88,1.92
-3.544e-02,2.88,1.92
-3.536e-02,2.88,1.92
-3.528e-02,2.88,1.92
-3.520e-02,2.96,2
-3.512e-02,2.88,2
-3.504e-02,2.96,1.92
-3.496e-02,2.88,2
-3.488e-02,2.96,1.92
-3.480e-02,2.96,2
-3.472e-02,2.88,1.92
-3.464e-02,2.96,2
-3.456e-02,2.88,1.92
-3.448e-02,2.88,1.92
-3.440e-02,2.88,1.92
-3.432e-02,2.88,1.92
-3.424e-02,2.8,1.92
-3.416e-02,2.88,1.92
-3.408e-02,2.8,1.92
-3.400e-02,2.8,1.92
-3.392e-02,2.8,1.84
-3.384e-02,2.72,1.84
-3.376e-02,2.72,1.84
-3.368e-02,2.64,1.84
-3.360e-02,2.72,1.84
-3.352e-02,2.64,1.76
-3.344e-02,2.56,1.76
-3.336e-02,2.56,1.76
-3.328e-02,2.48,1.68
-3.320e-02,2.48,1.68
-3.312e-02,2.48,1.6
-3.304e-02,2.4,1.68
-3.296e-02,2.4,1.6
-3.288e-02,2.32,1.6
-3.280e-02,2.24,1.6
-3.272e-02,2.24,1.52
-3.264e-02,2.16,1.52
-3.256e-02,2.08,1.44
-3.248e-02,2.08,1.44
-3.240e-02,2,1.36
-3.232e-02,1.92,1.36
-3.224e-02,1.92,1.36
-3.216e-02,1.84,1.28
-3.208e-02,1.76,1.28
-3.200e-02,1.76,1.2
-3.192e-02,1.68,1.2
-3.184e-02,1.52,1.12
-3.176e-02,1.52,1.12
-3.168e-02,1.52,1.12
-3.160e-02,1.36,1.04
-3.152e-02,1.36,0.96
-3.144e-02,1.28,0.88
-3.136e-02,1.2,0.8
-3.128e-02,1.12,0.8
-3.120e-02,1.04,0.8
-3.112e-02,1.04,0.72
-3.104e-02,0.96,0.72
-3.096e-02,0.88,0.72
-3.088e-02,0.8,0.56
-3.080e-02,0.72,0.56
-3.072e-02,0.64,0.56
-3.064e-02,0.64,0.48
-3.056e-02,0.48,0.4
-3.048e-02,0.48,0.4
-3.040e-02,0.4,0.32
-3.032e-02,0.32,0.24
-3.024e-02,0.24,0.24
-3.016e-02,0.16,0.24
-3.008e-02,0,0.16
-3.000e-02,0,0.08
-2.992e-02,-0.08,0.08
-2.984e-02,-0.08,0
-2.976e-02,-0.24,-0.08
-2.968e-02,-0.24,-0.08
-2.960e-02,-0.32,-0.16
-2.952e-02,-0.4,-0.16
-2.944e-02,-0.48,-0.24
-2.936e-02,-0.56,-0.32
-2.928e-02,-0.64,-0.32
-2.920e-02,-0.64,-0.4
-2.912e-02,-0.72,-0.48
-2.904e-02,-0.8,-0.48
-2.896e-02,-0.88,-0.56
-2.888e-02,-0.96,-0.56
-2.880e-02,-1.04,-0.64
-2.872e-02,-1.12,-0.64
-2.864e-02,-1.12,-0.72
-2.856e-02,-1.2,-0.8
-2.848e-02,-1.28,-0.8
-2.840e-02,-1.36,-0.88
-2.832e-02,-1.44,-0.88
-2.824e-02,-1.44,-0.96
-2.816e-02,-1.52,-0.96
-2.808e-02,-1.6,-1.04
-2.800e-02,-1.68,-1.04
-2.792e-02,-1.68,-1.12
-2.784e-02,-1.76,-1.12
-2.776e-02,-1.84,-1.2
-2.768e-02,-1.84,-1.2
-2.760e-02,-1.92,-1.2
-2.752e-02,-2,-1.28
-2.744e-02,-2.08,-1.36
-2.736e-02,-2.08,-1.36
-2.728e-02,-2.16,-1.36
-2.720e-02,-2.16,-1.44
-2.712e-02,-2.32,-1.44
-2.704e-02,-2.24,-1.52
-2.696e-02,-2.4,-1.52
-2.688e-02,-2.4,-1.52
-2.680e-02,-2.48,-1.6
-2.672e-02,-2.48,-1.6
-2.664e-02,-2.56,-1.6
-2.656e-02,-2.48,-1.68
-2.648e-02,-2.56,-1.68
-2.640e-02,-2.56,-1.68
-2.632e-02,-2.64,-1.76
-2.624e-02,-2.64,-1.76
-2.616e-02,-2.64,-1.76
-2.608e-02,-2.72,-1.76
-2.600e-02,-2.8,-1.76
-2.592e-02,-2.72,-1.84
-2.584e-02,-2.72,-1.84
-2.576e-02,-2.8,-1.84
-2.568e-02,-2.8,-1.84
-2.560e-02,-2.8,-1.92
-2.552e-02,-2.8,-1.84
-2.544e-02,-2.8,-1.92
-2.536e-02,-2.88,-1.92
-2.528e-02,-2.88,-1.92
-2.520e-02,-2.88,-1.92
-2.512e-02,-2.88,-1.92
-2.504e-02,-2.88,-1.92
-2.496e-02,-2.88,-1.92
-2.488e-02,-2.88,-1.92
-2.480e-02,-2.88,-1.92
-2.472e-02,-2.8,-1.92
-2.464e-02,-2.88,-1.92
-2.456e-02,-2.8,-1.92
-2.448e-02,-2.8,-1.92
-2.440e-02,-2.8,-1.92
-2.432e-02,-2.8,-1.92
-2.424e-02,-2.8,-1.92
-2.416e-02,-2.72,-1.84
-2.408e-02,-2.72,-1.84
-2.400e-02,-2.72,-1.84
-2.392e-02,-2.72,-1.84
-2.384e-02,-2.64,-1.84
-2.376e-02,-2.64,-1.84
-2.368e-02,-2.64,-1.76
-2.360e-02,-2.56,-1.76
-2.352e-02,-2.56,-1.76
-2.344e-02,-2.56,-1.68
-2.336e-02,-2.48,-1.68
-2.328e-02,-2.48,-1.68
-2.320e-02,-2.48,-1.68
-2.312e-02,-2.4,-1.6
-2.304e-02,-2.32,-1.6
-2.296e-02,-2.32,-1.52
-2.288e-02,-2.24,-1.52
-2.280e-02,-2.24,-1.52
-2.272e-02,-2.16,-1.52
-2.264e-02,-2.16,-1.44
-2.256e-02,-2.08,-1.44
-2.248e-02,-2,-1.44
-2.240e-02,-1.92,-1.36
-2.232e-02,-1.92,-1.36
-2.224e-02,-1.84,-1.28
-2.216e-02,-1.84,-1.28
-2.208e-02,-1.76,-1.2
-2.200e-02,-1.68,-1.12
-2.192e-02,-1.6,-1.12
-2.184e-02,-1.52,-1.12
-2.176e-02,-1.52,-1.04
-2.168e-02,-1.44,-1.12
-2.160e-02,-1.36,-0.96
-2.152e-02,-1.28,-0.96
-2.144e-02,-1.2,-0.88
-2.136e-02,-1.12,-0.88
-2.128e-02,-1.12,-0.8
-2.120e-02,-1.04,-0.72
-2.112e-02,-0.96,-0.72
-2.104e-02,-0.88,-0.72
-2.096e-02,-0.8,-0.64
-2.088e-02,-0.8,-0.56
-2.080e-02,-0.72,-0.48
-2.072e-02,-0.64,-0.48
-2.064e-02,-0.56,-0.4
-2.056e-02,-0.48,-0.4
-2.048e-02,-0.4,-0.4
-2.040e-02,-0.32,-0.32
-2.032e-02,-0.32,-0.24
-2.024e-02,-0.24,-0.16
-2.016e-02,-0.16,-0.16
-2.008e-02,-0.08,-0.16
-2.000e-02,0,0
-1.992e-02,0.08,0
-1.984e-02,0.16,0.08
-1.976e-02,0.24,0.08
-1.968e-02,0.24,0.16
-1.960e-02,0.4,0.24
-1.952e-02,0.48,0.24
-1.944e-02,0.56,0.32
-1.936e-02,0.56,0.32
-1.928e-02,0.64,0.4
-1.920e-02,0.72,0.48
-1.912e-02,0.8,0.48
-1.904e-02,0.88,0.48
-1.896e-02,0.88,0.56
-1.888e-02,0.96,0.64
-1.880e-02,1.04,0.72
-1.872e-02,1.12,0.72
-1.864e-02,1.2,0.8
-1.856e-02,1.28,0.8
-1.848e-02,1.36,0.88
-1.840e-02,1.36,0.88
-1.832e-02,1.44,0.88
-1.824e-02,1.52,0.96
-1.816e-02,1.6,1.04
-1.808e-02,1.68,1.04
-1.800e-02,1.68,1.12
-1.792e-02,1.76,1.12
-1.784e-02,1.84,1.2
-1.776e-02,1.84,1.2
-1.768e-02,1.92,1.2
-1.760e-02,2,1.28
-1.752e-02,2,1.36
-1.744e-02,2.16,1.28
-1.736e-02,2.16,1.44
-1.728e-02,2.24,1.44
-1.720e-02,2.24,1.44
-1.712e-02,2.24,1.44
-1.704e-02,2.32,1.52
-1.696e-02,2.4,1.52
-1.688e-02,2.4,1.6
-1.680e-02,2.48,1.6
-1.672e-02,2.48,1.68
-1.664e-02,2.56,1.68
-1.656e-02,2.56,1.6
-1.648e-02,2.64,1.76
-1.640e-02,2.64,1.76
-1.632e-02,2.64,1.76
-1.624e-02,2.72,1.84
-1.616e-02,2.72,1.84
-1.608e-02,2.8,1.84
-1.600e-02,2.8,1.84
-1.592e-02,2.8,1.92
-1.584e-02,2.8,1.92
-1.576e-02,2.88,1.92
-1.568e-02,2.88,1.92
-1.560e-02,2.88,1.92
-1.552e-02,2.88,1.92
-1.544e-02,2.88,1.92
-1.536e-02,2.96,1.92
-1.528e-02,2.96,1.92
-1.520e-02,2.96,1.92
-1.512e-02,2.96,2
-1.504e-02,2.96,2
-1.496e-02,2.96,2
-1.488e-02,2.96,1.92
-1.480e-02,2.88,2
-1.472e-02,2.96,1.92
-1.464e-02,2.96,2
-1.456e-02,2.88,1.92
-1.448e-02,2.88,1.92
-1.440e-02,2.88,1.92
-1.432e-02,2.88,1.92
-1.424e-02,2.88,1.92
-1.416e-02,2.88,1.92
-1.408e-02,2.8,1.92
-1.400e-02,2.8,1.92
-1.392e-02,2.8,1.92
-1.384e-02,2.72,1.92
-1.376e-02,2.72,1.84
-1.368e-02,2.64,1.84
-1.360e-02,2.64,1.84
-1.352e-02,2.64,1.76
-1.344e-02,2.56,1.76
-1.336e-02,2.48,1.76
-1.328e-02,2.48,1.76
-1.320e-02,2.48,1.68
-1.312e-02,2.48,1.68
-1.304e-02,2.4,1.68
-1.296e-02,2.4,1.6
-1.288e-02,2.32,1.6
-1.280e-02,2.24,1.6
-1.272e-02,2.24,1.52
-1.264e-02,2.16,1.52
-1.256e-02,2.08,1.52
-1.248e-02,2.08,1.44
-1.240e-02,2,1.44
-1.232e-02,1.92,1.36
-1.224e-02,1.92,1.36
-1.216e-02,1.84,1.28
-1.208e-02,1.76,1.28
-1.200e-02,1.76,1.2
-1.192e-02,1.68,1.2
-1.184e-02,1.6,1.12
-1.176e-02,1.52,1.12
-1.168e-02,1.52,1.04
-1.160e-02,1.36,1.04
-1.152e-02,1.36,0.96
-1.144e-02,1.28,0.96
-1.136e-02,1.2,0.88
-1.128e-02,1.12,0.88
-1.120e-02,1.12,0.8
-1.112e-02,1.04,0.8
-1.104e-02,0.88,0.72
-1.096e-02,0.88,0.64
-1.088e-02,0.8,0.64
-1.080e-02,0.72,0.56
-1.072e-02,0.64,0.56
-1.064e-02,0.64,0.48
-1.056e-02,0.56,0.4
-1.048e-02,0.48,0.4
-1.040e-02,0.4,0.32
-1.032e-02,0.32,0.24
-1.024e-02,0.24,0.24
-1.016e-02,0.16,0.16
-1.008e-02,0.08,0.16
-1.000e-02,0,0.08
-9.920e-03,-0.08,0.08
-9.840e-03,-0.16,0
-9.760e-03,-0.16,-0.08
-9.680e-03,-0.24,-0.08
-9.600e-03,-0.32,-0.24
-9.520e-03,-0.4,-0.16
-9.440e-03,-0.48,-0.24
-9.360e-03,-0.56,-0.32
-9.280e-03,-0.64,-0.32
-9.200e-03,-0.64,-0.4
-9.120e-03,-0.8,-0.48
-9.040e-03,-0.8,-0.48
-8.960e-03,-0.96,-0.56
-8.880e-03,-0.96,-0.56
-8.800e-03,-1.04,-0.64
-8.720e-03,-1.12,-0.72
-8.640e-03,-1.2,-0.72
-8.560e-03,-1.2,-0.8
-8.480e-03,-1.28,-0.8
-8.400e-03,-1.36,-0.8
-8.320e-03,-1.44,-0.88
-8.240e-03,-1.52,-0.96
-8.160e-03,-1.52,-0.96
-8.080e-03,-1.6,-1.04
-8.000e-03,-1.68,-1.04
-7.920e-03,-1.68,-1.12
-7.840e-03,-1.76,-1.12
-7.760e-03,-1.84,-1.2
-7.680e-03,-1.92,-1.2
-7.600e-03,-1.92,-1.28
-7.520e-03,-2,-1.28
-7.440e-03,-2.08,-1.28
-7.360e-03,-2.16,-1.36
-7.280e-03,-2.16,-1.36
-7.200e-03,-2.16,-1.44
-7.120e-03,-2.24,-1.44
-7.040e-03,-2.32,-1.52
-6.960e-03,-2.32,-1.52
-6.880e-03,-2.4,-1.52
-6.800e-03,-2.4,-1.6
-6.720e-03,-2.48,-1.6
-6.640e-03,-2.48,-1.6
-6.560e-03,-2.56,-1.68
-6.480e-03,-2.56,-1.68
-6.400e-03,-2.56,-1.68
