capacitor_data_0412/TEK00047.CSV

Model,TBS2074B
Firmware Version,v1.32.136

Point Format,Y,
Horizontal Units,S,
Horizontal Scale,2e-05,
Sample Interval,1.6e-07,
Filter Frequency,2e+08,
Record Length,2000,
Gating,0.0% to 100.0%,0.0% to 100.0%
Probe Attenuation,1,1
Vertical Units,V,V
Vertical Offset,0,0
Vertical Scale,2,2
Label,,
TIME,CH1,CH2
-1.600e-04,-7.44,-4.96
-1.598e-04,-7.36,-4.96
-1.597e-04,-7.36,-4.96
-1.595e-04,-7.36,-4.96
-1.594e-04,-7.36,-4.96
-1.592e-04,-7.36,-4.96
-1.590e-04,-7.36,-4.96
-1.589e-04,-7.36,-4.96
-1.587e-04,-7.28,-4.96
-1.586e-04,-7.28,-4.96
-1.584e-04,-7.28,-4.96
-1.582e-04,-7.2,-4.96
-1.581e-04,-7.2,-4.88
-1.579e-04,-7.2,-4.96
-1.578e-04,-7.12,-4.88
-1.576e-04,-7.12,-4.88
-1.574e-04,-7.12,-4.88
-1.573e-04,-7.12,-4.88
-1.571e-04,-7.04,-4.88
-1.570e-04,-6.96,-4.88
-1.568e-04,-6.96,-4.8
-1.566e-04,-6.96,-4.8
-1.565e-04,-6.88,-4.8
-1.563e-04,-6.88,-4.8
-1.562e-04,-6.8,-4.72
-1.560e-04,-6.8,-4.72
-1.558e-04,-6.72,-4.72
-1.557e-04,-6.64,-4.72
-1.555e-04,-6.72,-4.64
-1.554e-04,-6.56,-4.64
-1.552e-04,-6.56,-4.56
-1.550e-04,-6.48,-4.56
-1.549e-04,-6.4,-4.56
-1.547e-04,-6.4,-4.56
-1.546e-04,-6.32,-4.48
-1.544e-04,-6.24,-4.48
-1.542e-04,-6.24,-4.4
-1.541e-04,-6.16,-4.4
-1.539e-04,-6.08,-4.32
-1.538e-04,-6.08,-4.32
-1.536e-04,-6,-4.24
-1.534e-04,-5.92,-4.24
-1.533e-04,-5.84,-4.24
-1.531e-04,-5.76,-4.16
-1.530e-04,-5.68,-4.16
-1.528e-04,-5.6,-4.16
-1.526e-04,-5.52,-4.08
-1.525e-04,-5.52,-4
-1.523e-04,-5.44,-3.92
-1.522e-04,-5.36,-3.92
-1.520e-04,-5.28,-3.92
-1.518e-04,-5.2,-3.84
-1.517e-04,-5.2,-3.76
-1.515e-04,-5.04,-3.84
-1.514e-04,-4.96,-3.68
-1.512e-04,-4.88,-3.6
-1.510e-04,-4.8,-3.6
-1.509e-04,-4.72,-3.52
-1.507e-04,-4.64,-3.52
-1.506e-04,-4.56,-3.44
-1.504e-04,-4.48,-3.36
-1.502e-04,-4.4,-3.36
-1.501e-04,-4.32,-3.28
-1.499e-04,-4.24,-3.28
-1.498e-04,-4.16,-3.2
-1.496e-04,-4.08,-3.12
-1.494e-04,-3.92,-3.04
-1.493e-04,-3.84,-3.04
-1.491e-04,-3.76,-2.96
-1.490e-04,-3.68,-2.88
-1.488e-04,-3.68,-2.88
-1.486e-04,-3.52,-2.8
-1.485e-04,-3.36,-2.72
-1.483e-04,-3.36,-2.64
-1.482e-04,-3.2,-2.56
-1.480e-04,-3.12,-2.56
-1.478e-04,-3.04,-2.48
-1.477e-04,-2.96,-2.4
-1.475e-04,-2.88,-2.4
-1.474e-04,-2.8,-2.32
-1.472e-04,-2.64,-2.24
-1.470e-04,-2.56,-2.16
-1.469e-04,-2.48,-2.08
-1.467e-04,-2.4,-2.08
-1.466e-04,-2.24,-2
-1.464e-04,-2.16,-1.92
-1.462e-04,-2.08,-1.84
-1.461e-04,-1.92,-1.76
-1.459e-04,-1.84,-1.68
-1.458e-04,-1.76,-1.68
-1.456e-04,-1.6,-1.6
-1.454e-04,-1.52,-1.52
-1.453e-04,-1.44,-1.44
-1.451e-04,-1.28,-1.36
-1.450e-04,-1.2,-1.28
-1.448e-04,-1.12,-1.2
-1.446e-04,-1.04,-1.2
-1.445e-04,-0.88,-1.12
-1.443e-04,-0.8,-1.12
-1.442e-04,-0.72,-0.96
-1.440e-04,-0.64,-0.88
-1.438e-04,-0.48,-0.88
-1.437e-04,-0.4,-0.8
-1.435e-04,-0.32,-0.72
-1.434e-04,-0.16,-0.64
-1.432e-04,-0.08,-0.56
-1.430e-04,0,-0.48
-1.429e-04,0.08,-0.4
-1.427e-04,0.24,-0.32
-1.426e-04,0.32,-0.32
-1.424e-04,0.4,-0.24
-1.422e-04,0.56,-0.16
-1.421e-04,0.64,-0.08
-1.419e-04,0.8,0
-1.418e-04,0.88,0.08
-1.416e-04,0.88,0.16
-1.414e-04,1.04,0.24
-1.413e-04,1.2,0.32
-1.411e-04,1.28,0.32
-1.410e-04,1.36,0.4
-1.408e-04,1.52,0.48
-1.406e-04,1.6,0.56
-1.405e-04,1.68,0.64
-1.403e-04,1.84,0.72
-1.402e-04,1.92,0.8
-1.400e-04,2,0.8
-1.398e-04,2.08,0.88
-1.397e-04,2.24,0.96
-1.395e-04,2.32,1.04
-1.394e-04,2.4,1.12
-1.392e-04,2.56,1.2
-1.390e-04,2.64,1.2
-1.389e-04,2.72,1.36
-1.387e-04,2.8,1.36
-1.386e-04,2.96,1.44
-1.384e-04,2.96,1.52
-1.382e-04,3.12,1.6
-1.381e-04,3.2,1.68
-1.379e-04,3.28,1.68
-1.378e-04,3.44,1.76
-1.376e-04,3.52,1.84
-1.374e-04,3.52,1.92
-1.373e-04,3.68,2
-1.371e-04,3.84,2
-1.370e-04,3.92,2.08
-1.368e-04,4,2.16
-1.366e-04,4.08,2.24
-1.365e-04,4.16,2.32
-1.363e-04,4.24,2.32
-1.362e-04,4.32,2.4
-1.360e-04,4.4,2.48
-1.358e-04,4.48,2.56
-1.357e-04,4.56,2.64
-1.355e-04,4.72,2.72
-1.354e-04,4.72,2.72
-1.352e-04,4.8,2.8
-1.350e-04,4.96,2.8
-1.349e-04,5.04,2.96
-1.347e-04,5.12,2.96
-1.346e-04,5.12,3.04
-1.344e-04,5.2,3.12
-1.342e-04,5.28,3.12
-1.341e-04,5.36,3.2
-1.339e-04,5.44,3.28
-1.338e-04,5.52,3.28
-1.336e-04,5.6,3.36
-1.334e-04,5.68,3.44
-1.333e-04,5.76,3.44
-1.331e-04,5.84,3.52
-1.330e-04,5.92,3.6
-1.328e-04,6,3.6
-1.326e-04,6.08,3.68
-1.325e-04,6.08,3.68
-1.323e-04,6.16,3.76
-1.322e-04,6.24,3.84
-1.320e-04,6.24,3.84
-1.318e-04,6.32,3.92
-1.317e-04,6.4,4
-1.315e-04,6.48,4
-1.314e-04,6.48,4.08
-1.312e-04,6.56,4.08
-1.310e-04,6.64,4.16
-1.309e-04,6.64,4.16
-1.307e-04,6.72,4.24
-1.306e-04,6.72,4.24
-1.304e-04,6.8,4.24
-1.302e-04,6.8,4.32
-1.301e-04,6.88,4.32
-1.299e-04,6.88,4.4
-1.298e-04,6.96,4.4
-1.296e-04,7.04,4.4
-1.294e-04,7.04,4.48
-1.293e-04,7.12,4.56
-1.291e-04,7.12,4.56
-1.290e-04,7.12,4.56
-1.288e-04,7.2,4.64
-1.286e-04,7.2,4.64
-1.285e-04,7.28,4.72
-1.283e-04,7.28,4.72
-1.282e-04,7.36,4.72
-1.280e-04,7.36,4.72
-1.278e-04,7.36,4.8
-1.277e-04,7.36,4.8
-1.275e-04,7.44,4.8
-1.274e-04,7.44,4.88
-1.272e-04,7.52,4.88
-1.270e-04,7.44,4.88
-1.269e-04,7.52,4.88
-1.267e-04,7.52,4.96
-1.266e-04,7.52,4.96
-1.264e-04,7.6,4.96
-1.262e-04,7.6,4.96
-1.261e-04,7.6,4.96
-1.259e-04,7.6,4.96
-1.258e-04,7.6,4.96
-1.256e-04,7.6,5.04
-1.254e-04,7.6,5.04
-1.253e-04,7.6,4.96
-1.251e-04,7.6,5.04
-1.250e-04,7.6,5.04
-1.248e-04,7.6,5.04
-1.246e-04,7.6,5.04
-1.245e-04,7.6,5.04
-1.243e-04,7.6,5.04
-1.242e-04,7.6,5.04
-1.240e-04,7.6,5.12
-1.238e-04,7.6,5.04
-1.237e-04,7.52,5.04
-1.235e-04,7.52,5.04
-1.234e-04,7.52,5.04
-1.232e-04,7.52,5.04
-1.230e-04,7.44,5.04
-1.229e-04,7.44,5.04
-1.227e-04,7.44,5.04
-1.226e-04,7.44,5.04
-1.224e-04,7.36,5.04
-1.222e-04,7.36,5.04
-1.221e-04,7.36,5.04
-1.219e-04,7.28,4.96
-1.218e-04,7.28,4.96
-1.216e-04,7.28,4.88
-1.214e-04,7.2,4.96
-1.213e-04,7.2,4.88
-1.211e-04,7.12,4.88
-1.210e-04,7.12,4.88
-1.208e-04,7.04,4.88
-1.206e-04,7.04,4.88
-1.205e-04,6.96,4.8
-1.203e-04,6.96,4.8
-1.202e-04,6.88,4.8
-1.200e-04,6.88,4.72
-1.198e-04,6.8,4.72
-1.197e-04,6.72,4.72
-1.195e-04,6.72,4.64
-1.194e-04,6.64,4.64
-1.192e-04,6.64,4.64
-1.190e-04,6.56,4.56
-1.189e-04,6.56,4.56
-1.187e-04,6.48,4.56
-1.186e-04,6.4,4.48
-1.184e-04,6.32,4.48
-1.182e-04,6.32,4.48
-1.181e-04,6.24,4.4
-1.179e-04,6.08,4.4
-1.178e-04,6.08,4.32
-1.176e-04,6,4.32
-1.174e-04,6,4.24
-1.173e-04,5.92,4.24
-1.171e-04,5.84,4.16
-1.170e-04,5.76,4.16
-1.168e-04,5.68,4.08
-1.166e-04,5.6,4.08
-1.165e-04,5.52,4
-1.163e-04,5.44,3.92
-1.162e-04,5.36,3.92
-1.160e-04,5.28,3.84
-1.158e-04,5.28,3.84
-1.157e-04,5.12,3.76
-1.155e-04,5.12,3.76
-1.154e-04,5.04,3.68
-1.152e-04,4.88,3.68
-1.150e-04,4.8,3.6
-1.149e-04,4.8,3.52
-1.147e-04,4.72,3.52
-1.146e-04,4.56,3.44
-1.144e-04,4.48,3.44
-1.142e-04,4.4,3.36
-1.141e-04,4.32,3.28
-1.139e-04,4.24,3.28
-1.138e-04,4.16,3.2
-1.136e-04,4.08,3.12
-1.134e-04,4,3.12
-1.133e-04,3.92,2.96
-1.131e-04,3.76,2.96
-1.130e-04,3.68,2.8
-1.128e-04,3.6,2.8
-1.126e-04,3.44,2.8
-1.125e-04,3.36,2.72
-1.123e-04,3.28,2.64
-1.122e-04,3.2,2.64
-1.120e-04,3.12,2.56
-1.118e-04,3.04,2.48
-1.117e-04,2.96,2.4
-1.115e-04,2.8,2.32
-1.114e-04,2.72,2.32
-1.112e-04,2.64,2.16
-1.110e-04,2.56,2.16
-1.109e-04,2.4,2.08
-1.107e-04,2.32,2
-1.106e-04,2.24,1.92
-1.104e-04,2.16,1.92
-1.102e-04,2,1.84
-1.101e-04,1.92,1.76
-1.099e-04,1.76,1.68
-1.098e-04,1.68,1.6
-1.096e-04,1.6,1.52
-1.094e-04,1.52,1.44
-1.093e-04,1.36,1.44
-1.091e-04,1.28,1.36
-1.090e-04,1.2,1.28
-1.088e-04,1.04,1.2
-1.086e-04,0.96,1.12
-1.085e-04,0.88,1.04
-1.083e-04,0.8,1.04
-1.082e-04,0.64,0.96
-1.080e-04,0.56,0.88
-1.078e-04,0.48,0.8
-1.077e-04,0.32,0.72
-1.075e-04,0.24,0.64
-1.074e-04,0.08,0.56
-1.072e-04,0.08,0.56
-1.070e-04,-0.08,0.48
-1.069e-04,-0.16,0.4
-1.067e-04,-0.32,0.32
-1.066e-04,-0.4,0.24
-1.064e-04,-0.48,0.24
-1.062e-04,-0.56,0.16
-1.061e-04,-0.72,0
-1.059e-04,-0.8,0
-1.058e-04,-0.88,-0.08
-1.056e-04,-0.96,-0.16
-1.054e-04,-1.12,-0.24
-1.053e-04,-1.2,-0.32
-1.051e-04,-1.36,-0.32
-1.050e-04,-1.44,-0.4
-1.048e-04,-1.52,-0.48
-1.046e-04,-1.6,-0.56
-1.045e-04,-1.68,-0.64
-1.043e-04,-1.84,-0.72
-1.042e-04,-1.92,-0.8
-1.040e-04,-2.08,-0.88
-1.038e-04,-2.16,-0.96
-1.037e-04,-2.32,-0.96
-1.035e-04,-2.4,-1.04
-1.034e-04,-2.48,-1.12
-1.032e-04,-2.56,-1.2
-1.030e-04,-2.72,-1.28
-1.029e-04,-2.72,-1.28
-1.027e-04,-2.8,-1.44
-1.026e-04,-2.96,-1.44
-1.024e-04,-3.04,-1.52
-1.022e-04,-3.12,-1.6
-1.021e-04,-3.2,-1.68
-1.019e-04,-3.28,-1.76
-1.018e-04,-3.36,-1.84
-1.016e-04,-3.52,-1.84
-1.014e-04,-3.6,-1.92
-1.013e-04,-3.68,-2
-1.011e-04,-3.76,-2.08
-1.010e-04,-3.92,-2.16
-1.008e-04,-3.92,-2.24
-1.006e-04,-4,-2.24
-1.005e-04,-4.16,-2.32
-1.003e-04,-4.24,-2.4
-1.002e-04,-4.32,-2.4
-1.000e-04,-4.4,-2.48
-9.984e-05,-4.48,-2.56
-9.968e-05,-4.56,-2.64
-9.952e-05,-4.64,-2.72
-9.936e-05,-4.72,-2.72
-9.920e-05,-4.8,-2.8
-9.904e-05,-4.88,-2.88
-9.888e-05,-4.96,-2.96
-9.872e-05,-5.04,-2.96
-9.856e-05,-5.12,-3.04
-9.840e-05,-5.2,-3.12
-9.824e-05,-5.28,-3.12
-9.808e-05,-5.28,-3.2
-9.792e-05,-5.44,-3.28
-9.776e-05,-5.44,-3.36
-9.760e-05,-5.52,-3.36
-9.744e-05,-5.6,-3.44
-9.728e-05,-5.68,-3.44
-9.712e-05,-5.76,-3.52
-9.696e-05,-5.84,-3.6
-9.680e-05,-5.92,-3.6
-9.664e-05,-6,-3.68
-9.648e-05,-6,-3.68
-9.632e-05,-6.08,-3.84
-9.616e-05,-6.16,-3.84
-9.600e-05,-6.24,-3.84
-9.584e-05,-6.24,-3.92
-9.568e-05,-6.32,-4
-9.552e-05,-6.4,-3.92
-9.536e-05,-6.4,-4
-9.520e-05,-6.48,-4.08
-9.504e-05,-6.56,-4.08
-9.488e-05,-6.56,-4.16
-9.472e-05,-6.64,-4.16
-9.456e-05,-6.64,-4.24
-9.440e-05,-6.72,-4.24
-9.424e-05,-6.8,-4.32
-9.408e-05,-6.8,-4.32
-9.392e-05,-6.88,-4.4
-9.376e-05,-6.88,-4.4
-9.360e-05,-6.96,-4.4
-9.344e-05,-6.96,-4.4
-9.328e-05,-7.04,-4.48
-9.312e-05,-7.12,-4.56
-9.296e-05,-7.04,-4.56
-9.280e-05,-7.12,-4.56
-9.264e-05,-7.12,-4.64
-9.248e-05,-7.12,-4.64
-9.232e-05,-7.2,-4.64
-9.216e-05,-7.2,-4.64
-9.200e-05,-7.28,-4.72
-9.184e-05,-7.28,-4.72
-9.168e-05,-7.28,-4.72
-9.152e-05,-7.28,-4.8
-9.136e-05,-7.28,-4.8
-9.120e-05,-7.36,-4.8
-9.104e-05,-7.36,-4.8
-9.088e-05,-7.36,-4.88
-9.072e-05,-7.36,-4.88
-9.056e-05,-7.36,-4.88
-9.040e-05,-7.36,-4.88
-9.024e-05,-7.44,-4.88
-9.008e-05,-7.44,-4.88
-8.992e-05,-7.44,-4.88
-8.976e-05,-7.44,-4.96
-8.960e-05,-7.44,-4.96
-8.944e-05,-7.44,-4.96
-8.928e-05,-7.44,-4.96
-8.912e-05,-7.44,-4.96
-8.896e-05,-7.44,-4.96
-8.880e-05,-7.44,-4.96
-8.864e-05,-7.36,-4.96
-8.848e-05,-7.36,-4.96
-8.832e-05,-7.44,-4.96
-8.816e-05,-7.36,-4.96
-8.800e-05,-7.36,-4.96
-8.784e-05,-7.36,-4.96
-8.768e-05,-7.28,-4.96
-8.752e-05,-7.36,-4.96
-8.736e-05,-7.28,-4.96
-8.720e-05,-7.28,-5.04
-8.704e-05,-7.28,-4.96
-8.688e-05,-7.2,-4.96
-8.672e-05,-7.28,-4.96
-8.656e-05,-7.2,-4.88
-8.640e-05,-7.12,-4.88
-8.624e-05,-7.12,-4.88
-8.608e-05,-7.12,-4.88
-8.592e-05,-7.12,-4.88
-8.576e-05,-7.04,-4.96
-8.560e-05,-7.04,-4.8
-8.544e-05,-6.96,-4.8
-8.528e-05,-6.96,-4.8
-8.512e-05,-6.96,-4.8
-8.496e-05,-6.88,-4.8
-8.480e-05,-6.88,-4.72
-8.464e-05,-6.8,-4.72
-8.448e-05,-6.8,-4.72
-8.432e-05,-6.72,-4.72
-8.416e-05,-6.64,-4.64
-8.400e-05,-6.64,-4.64
-8.384e-05,-6.56,-4.64
-8.368e-05,-6.48,-4.56
-8.352e-05,-6.48,-4.56
-8.336e-05,-6.4,-4.56
-8.320e-05,-6.4,-4.48
-8.304e-05,-6.32,-4.48
-8.288e-05,-6.24,-4.4
-8.272e-05,-6.16,-4.4
-8.256e-05,-6.16,-4.4
-8.240e-05,-6.08,-4.4
-8.224e-05,-6,-4.32
-8.208e-05,-5.92,-4.24
-8.192e-05,-5.84,-4.24
-8.176e-05,-5.76,-4.16
-8.160e-05,-5.76,-4.16
-8.144e-05,-5.68,-4.08
-8.128e-05,-5.6,-4.08
-8.112e-05,-5.52,-4
-8.096e-05,-5.44,-3.92
-8.080e-05,-5.36,-3.92
-8.064e-05,-5.28,-3.84
-8.048e-05,-5.2,-3.92
-8.032e-05,-5.12,-3.84
-8.016e-05,-5.04,-3.76
-8.000e-05,-4.96,-3.68
-7.984e-05,-4.88,-3.68
-7.968e-05,-4.8,-3.6
-7.952e-05,-4.72,-3.6
-7.936e-05,-4.64,-3.52
-7.920e-05,-4.56,-3.44
-7.904e-05,-4.48,-3.44
-7.888e-05,-4.4,-3.36
-7.872e-05,-4.32,-3.28
-7.856e-05,-4.24,-3.28
-7.840e-05,-4.16,-3.2
-7.824e-05,-4.16,-3.2
-7.808e-05,-4,-3.12
-7.792e-05,-3.92,-3.04
-7.776e-05,-3.84,-2.96
-7.760e-05,-3.76,-2.96
-7.744e-05,-3.6,-2.88
-7.728e-05,-3.52,-2.8
-7.712e-05,-3.44,-2.72
-7.696e-05,-3.36,-2.72
-7.680e-05,-3.2,-2.64
-7.664e-05,-3.12,-2.56
-7.648e-05,-3.04,-2.48
-7.632e-05,-2.96,-2.48
-7.616e-05,-2.88,-2.4
-7.600e-05,-2.88,-2.32
-7.584e-05,-2.72,-2.24
-7.568e-05,-2.64,-2.24
-7.552e-05,-2.48,-2.16
-7.536e-05,-2.4,-2.08
-7.520e-05,-2.32,-2
-7.504e-05,-2.24,-2
-7.488e-05,-2.08,-1.92
-7.472e-05,-2,-1.84
-7.456e-05,-1.92,-1.76
-7.440e-05,-1.76,-1.68
-7.424e-05,-1.68,-1.6
-7.408e-05,-1.6,-1.52
-7.392e-05,-1.44,-1.44
-7.376e-05,-1.36,-1.44
-7.360e-05,-1.28,-1.36
-7.344e-05,-1.2,-1.28
-7.328e-05,-1.04,-1.2
-7.312e-05,-0.96,-1.12
-7.296e-05,-0.88,-1.12
-7.280e-05,-0.72,-1.04
-7.264e-05,-0.64,-0.88
-7.248e-05,-0.56,-0.88
-7.232e-05,-0.48,-0.8
-7.216e-05,-0.32,-0.72
-7.200e-05,-0.24,-0.64
-7.184e-05,-0.16,-0.56
-7.168e-05,0,-0.56
-7.152e-05,0.08,-0.48
-7.136e-05,0.16,-0.32
-7.120e-05,0.32,-0.32
-7.104e-05,0.32,-0.24
-7.088e-05,0.48,-0.16
-7.072e-05,0.64,-0.08
-7.056e-05,0.72,-0.08
-7.040e-05,0.8,0.08
-7.024e-05,0.88,0.16
-7.008e-05,1.04,0.16
-6.992e-05,1.12,0.24
-6.976e-05,1.2,0.32
-6.960e-05,1.28,0.4
-6.944e-05,1.44,0.4
-6.928e-05,1.52,0.56
-6.912e-05,1.68,0.56
-6.896e-05,1.76,0.64
-6.880e-05,1.84,0.72
-6.864e-05,2,0.8
-6.848e-05,2.08,0.88
-6.832e-05,2.16,0.96
-6.816e-05,2.24,1.04
-6.800e-05,2.4,1.12
-6.784e-05,2.48,1.2
-6.768e-05,2.56,1.2
-6.752e-05,2.64,1.28
-6.736e-05,2.8,1.36
-6.720e-05,2.88,1.44
-6.704e-05,2.96,1.44
-6.688e-05,3.12,1.52
-6.672e-05,3.2,1.6
-6.656e-05,3.28,1.68
-6.640e-05,3.36,1.76
-6.624e-05,3.44,1.84
-6.608e-05,3.52,1.84
-6.592e-05,3.68,1.92
-6.576e-05,3.76,2
-6.560e-05,3.84,2.08
-6.544e-05,4,2.16
-6.528e-05,4.08,2.16
-6.512e-05,4.16,2.24
-6.496e-05,4.24,2.32
-6.480e-05,4.32,2.4
-6.464e-05,4.4,2.48
-6.448e-05,4.48,2.56
-6.432e-05,4.56,2.64
-6.416e-05,4.64,2.64
-6.400e-05,4.72,2.72
-6.384e-05,4.8,2.8
-6.368e-05,4.88,2.8
-6.352e-05,4.96,2.8
-6.336e-05,5.04,2.96
-6.320e-05,5.12,2.96
-6.304e-05,5.2,2.96
-6.288e-05,5.28,3.12
-6.272e-05,5.36,3.2
-6.256e-05,5.44,3.2
-6.240e-05,5.52,3.28
-6.224e-05,5.52,3.36
-6.208e-05,5.68,3.36
-6.192e-05,5.76,3.44
-6.176e-05,5.84,3.44
-6.160e-05,5.84,3.52
-6.144e-05,5.92,3.6
-6.128e-05,6,3.6
-6.112e-05,6.08,3.68
-6.096e-05,6.16,3.76
-6.080e-05,6.16,3.76
-6.064e-05,6.24,3.84
-6.048e-05,6.32,3.92
-6.032e-05,6.4,3.92
-6.016e-05,6.48,3.92
-6.000e-05,6.48,4
-5.984e-05,6.56,4.08
-5.968e-05,6.48,4.08
-5.952e-05,6.64,4.16
-5.936e-05,6.72,4.16
-5.920e-05,6.72,4.24
-5.904e-05,6.8,4.24
-5.888e-05,6.8,4.32
-5.872e-05,6.88,4.32
-5.856e-05,6.88,4.32
-5.840e-05,6.96,4.4
-5.824e-05,6.96,4.4
-5.808e-05,7.04,4.48
-5.792e-05,7.12,4.48
-5.776e-05,7.12,4.56
-5.760e-05,7.12,4.56
-5.744e-05,7.2,4.56
-5.728e-05,7.2,4.64
-5.712e-05,7.2,4.64
-5.696e-05,7.28,4.64
-5.680e-05,7.36,4.72
-5.664e-05,7.36,4.64
-5.648e-05,7.36,4.72
-5.632e-05,7.44,4.8
-5.616e-05,7.44,4.8
-5.600e-05,7.44,4.8
-5.584e-05,7.44,4.8
-5.568e-05,7.52,4.88
-5.552e-05,7.52,4.88
-5.536e-05,7.52,4.88
-5.520e-05,7.52,4.96
-5.504e-05,7.6,4.96
-5.488e-05,7.6,4.96
-5.472e-05,7.6,4.96
-5.456e-05,7.6,4.96
-5.440e-05,7.6,4.96
-5.424e-05,7.6,5.04
-5.408e-05,7.6,5.04
-5.392e-05,7.6,5.04
-5.376e-05,7.6,5.04
-5.360e-05,7.6,5.04
-5.344e-05,7.6,5.04
-5.328e-05,7.6,5.04
-5.312e-05,7.6,5.12
-5.296e-05,7.6,5.04
-5.280e-05,7.52,5.04
-5.264e-05,7.6,5.04
-5.248e-05,7.52,5.04
-5.232e-05,7.52,5.04
-5.216e-05,7.52,5.12
-5.200e-05,7.52,5.04
-5.184e-05,7.44,5.04
-5.168e-05,7.52,5.04
-5.152e-05,7.44,5.04
-5.136e-05,7.44,5.04
-5.120e-05,7.44,5.04
-5.104e-05,7.44,5.04
-5.088e-05,7.36,4.96
-5.072e-05,7.36,4.96
-5.056e-05,7.36,4.96
-5.040e-05,7.28,4.96
-5.024e-05,7.28,4.96
-5.008e-05,7.2,4.96
-4.992e-05,7.2,4.96
-4.976e-05,7.2,4.96
-4.960e-05,7.04,4.88
-4.944e-05,7.04,4.88
-4.928e-05,7.04,4.88
-4.912e-05,6.96,4.88
-4.896e-05,6.96,4.8
-4.880e-05,6.88,4.8
-4.864e-05,6.88,4.8
-4.848e-05,6.8,4.72
-4.832e-05,6.8,4.72
-4.816e-05,6.72,4.64
-4.800e-05,6.64,4.64
-4.784e-05,6.64,4.64
-4.768e-05,6.56,4.64
-4.752e-05,6.56,4.64
-4.736e-05,6.48,4.56
-4.720e-05,6.4,4.56
-4.704e-05,6.4,4.48
-4.688e-05,6.32,4.48
-4.672e-05,6.24,4.4
-4.656e-05,6.16,4.4
-4.640e-05,6.08,4.4
-4.624e-05,6.08,4.32
-4.608e-05,6,4.32
-4.592e-05,5.92,4.24
-4.576e-05,5.84,4.24
-4.560e-05,5.76,4.16
-4.544e-05,5.76,4.16
-4.528e-05,5.6,4.08
-4.512e-05,5.6,4
-4.496e-05,5.52,4
-4.480e-05,5.44,3.92
-4.464e-05,5.36,3.84
-4.448e-05,5.28,3.84
-4.432e-05,5.2,3.76
-4.416e-05,5.12,3.76
-4.400e-05,5.04,3.68
-4.384e-05,4.96,3.68
-4.368e-05,4.88,3.6
-4.352e-05,4.8,3.6
-4.336e-05,4.72,3.52
-4.320e-05,4.64,3.44
-4.304e-05,4.56,3.44
-4.288e-05,4.48,3.36
-4.272e-05,4.4,3.28
-4.256e-05,4.32,3.28
-4.240e-05,4.24,3.2
-4.224e-05,4.16,3.2
-4.208e-05,4,3.12
-4.192e-05,3.92,3.04
-4.176e-05,3.84,2.96
-4.160e-05,3.76,2.96
-4.144e-05,3.68,2.88
-4.128e-05,3.52,2.8
-4.112e-05,3.44,2.8
-4.096e-05,3.28,2.72
-4.080e-05,3.28,2.64
-4.064e-05,3.2,2.56
-4.048e-05,3.04,2.56
-4.032e-05,3.04,2.48
-4.016e-05,2.88,2.4
-4.000e-05,2.8,2.32
-3.984e-05,2.64,2.24
-3.968e-05,2.56,2.16
-3.952e-05,2.48,2.16
-3.936e-05,2.4,2.08
-3.920e-05,2.32,2
-3.904e-05,2.16,1.92
-3.888e-05,2,1.84
-3.872e-05,1.92,1.76
-3.856e-05,1.84,1.68
-3.840e-05,1.76,1.68
-3.824e-05,1.68,1.6
-3.808e-05,1.52,1.52
-3.792e-05,1.44,1.44
-3.776e-05,1.28,1.44
-3.760e-05,1.2,1.36
-3.744e-05,1.12,1.2
-3.728e-05,1.04,1.2
-3.712e-05,0.88,1.12
-3.696e-05,0.8,1.04
-3.680e-05,0.72,1.04
-3.664e-05,0.64,0.88
-3.648e-05,0.48,0.88
-3.632e-05,0.4,0.72
-3.616e-05,0.24,0.72
-3.600e-05,0.16,0.56
-3.584e-05,0.08,0.56
-3.568e-05,0,0.48
-3.552e-05,-0.16,0.48
-3.536e-05,-0.24,0.4
-3.520e-05,-0.32,0.24
-3.504e-05,-0.48,0.24
-3.488e-05,-0.64,0.16
-3.472e-05,-0.64,0.08
-3.456e-05,-0.72,0
-3.440e-05,-0.8,-0.08
-3.424e-05,-0.96,-0.08
-3.408e-05,-1.04,-0.16
-3.392e-05,-1.2,-0.24
-3.376e-05,-1.28,-0.32
-3.360e-05,-1.36,-0.4
-3.344e-05,-1.44,-0.56
-3.328e-05,-1.6,-0.56
-3.312e-05,-1.68,-0.64
-3.296e-05,-1.76,-0.72
-3.280e-05,-1.92,-0.8
-3.264e-05,-2,-0.8
-3.248e-05,-2.08,-0.88
-3.232e-05,-2.16,-0.96
-3.216e-05,-2.32,-1.04
-3.200e-05,-2.4,-1.12
-3.184e-05,-2.48,-1.2
-3.168e-05,-2.56,-1.2
-3.152e-05,-2.72,-1.28
-3.136e-05,-2.8,-1.36
-3.120e-05,-2.88,-1.52
-3.104e-05,-2.96,-1.52
-3.088e-05,-3.04,-1.6
-3.072e-05,-3.12,-1.6
-3.056e-05,-3.28,-1.68
-3.040e-05,-3.36,-1.76
-3.024e-05,-3.44,-1.84
-3.008e-05,-3.52,-1.92
-2.992e-05,-3.68,-2
-2.976e-05,-3.76,-2
-2.960e-05,-3.84,-2.08
-2.944e-05,-3.92,-2.16
-2.928e-05,-4,-2.16
-2.912e-05,-4.08,-2.32
-2.896e-05,-4.16,-2.32
-2.880e-05,-4.32,-2.4
-2.864e-05,-4.32,-2.56
-2.848e-05,-4.4,-2.56
-2.832e-05,-4.48,-2.56
-2.816e-05,-4.56,-2.64
-2.800e-05,-4.64,-2.72
-2.784e-05,-4.72,-2.8
-2.768e-05,-4.8,-2.8
-2.752e-05,-4.88,-2.88
-2.736e-05,-4.96,-2.96
-2.720e-05,-5.04,-3.04
-2.704e-05,-5.2,-3.04
-2.688e-05,-5.2,-3.12
-2.672e-05,-5.28,-3.2
-2.656e-05,-5.36,-3.2
-2.640e-05,-5.44,-3.28
-2.624e-05,-5.6,-3.36
-2.608e-05,-5.68,-3.36
-2.592e-05,-5.6,-3.44
-2.576e-05,-5.76,-3.52
-2.560e-05,-5.84,-3.52
-2.544e-05,-5.84,-3.6
-2.528e-05,-5.92,-3.68
-2.512e-05,-6,-3.68
-2.496e-05,-6.08,-3.76
-2.480e-05,-6.08,-3.76
-2.464e-05,-6.16,-3.84
-2.448e-05,-6.24,-3.84
-2.432e-05,-6.32,-3.92
-2.416e-05,-6.32,-4
-2.400e-05,-6.4,-4
-2.384e-05,-6.48,-4
-2.368e-05,-6.48,-4.08
-2.352e-05,-6.56,-4.08
-2.336e-05,-6.64,-4.16
-2.320e-05,-6.64,-4.16
-2.304e-05,-6.72,-4.24
-2.288e-05,-6.72,-4.24
-2.272e-05,-6.8,-4.32
-2.256e-05,-6.88,-4.32
-2.240e-05,-6.88,-4.4
-2.224e-05,-6.88,-4.4
-2.208e-05,-6.96,-4.4
-2.192e-05,-7.04,-4.48
-2.176e-05,-7.04,-4.56
-2.160e-05,-7.04,-4.56
-2.144e-05,-7.12,-4.56
-2.128e-05,-7.12,-4.56
-2.112e-05,-7.12,-4.64
-2.096e-05,-7.12,-4.64
-2.080e-05,-7.2,-4.64
-2.064e-05,-7.2,-4.72
-2.048e-05,-7.2,-4.72
-2.032e-05,-7.28,-4.72
-2.016e-05,-7.28,-4.8
-2.000e-05,-7.28,-4.8
-1.984e-05,-7.36,-4.8
-1.968e-05,-7.36,-4.8
-1.952e-05,-7.36,-4.88
-1.936e-05,-7.36,-4.8
-1.920e-05,-7.36,-4.88
-1.904e-05,-7.36,-4.88
-1.888e-05,-7.36,-4.88
-1.872e-05,-7.44,-4.88
-1.856e-05,-7.44,-4.88
-1.840e-05,-7.44,-4.96
-1.824e-05,-7.44,-4.96
-1.808e-05,-7.44,-4.96
-1.792e-05,-7.44,-4.96
-1.776e-05,-7.44,-5.04
-1.760e-05,-7.44,-4.96
-1.744e-05,-7.44,-4.96
-1.728e-05,-7.44,-4.96
-1.712e-05,-7.36,-4.96
-1.696e-05,-7.36,-4.96
-1.680e-05,-7.36,-4.96
-1.664e-05,-7.36,-4.96
-1.648e-05,-7.36,-4.96
-1.632e-05,-7.36,-4.96
-1.616e-05,-7.36,-4.96
-1.600e-05,-7.36,-4.96
-1.584e-05,-7.28,-4.96
-1.568e-05,-7.28,-4.96
-1.552e-05,-7.28,-4.96
-1.536e-05,-7.2,-4.96
-1.520e-05,-7.2,-4.96
-1.504e-05,-7.12,-4.88
-1.488e-05,-7.12,-4.88
-1.472e-05,-7.12,-4.88
-1.456e-05,-7.12,-4.88
-1.440e-05,-7.04,-4.88
-1.424e-05,-7.04,-4.88
-1.408e-05,-7.04,-4.8
-1.392e-05,-6.96,-4.8
-1.376e-05,-6.96,-4.8
