capacitor_data_0412/TEK00112.CSV

Model,TBS2074B
Firmware Version,v1.32.136

Point Format,Y,
Horizontal Units,S,
Horizontal Scale,0.01,
Sample Interval,8e-05,
Filter Frequency,2e+08,
Record Length,2000,
Gating,0.0% to 100.0%,0.0% to 100.0%
Probe Attenuation,1,1
Vertical Units,V,V
Vertical Offset,0,0
Vertical Scale,2,2
Label,,
TIME,CH1,CH2
-8.000e-02,0.08,-0.08
-7.992e-02,0.24,0
-7.984e-02,0.32,0.16
-7.976e-02,0.48,0.24
-7.968e-02,0.64,0.32
-7.960e-02,0.72,0.4
-7.952e-02,0.88,0.48
-7.944e-02,0.96,0.48
-7.936e-02,1.12,0.64
-7.928e-02,1.28,0.72
-7.920e-02,1.36,0.8
-7.912e-02,1.52,0.88
-7.904e-02,1.6,0.96
-7.896e-02,1.76,1.12
-7.888e-02,1.92,1.2
-7.880e-02,2,1.2
-7.872e-02,2.16,1.36
-7.864e-02,2.32,1.44
-7.856e-02,2.4,1.52
-7.848e-02,2.56,1.6
-7.840e-02,2.64,1.68
-7.832e-02,2.8,1.76
-7.824e-02,2.88,1.84
-7.816e-02,3.04,1.92
-7.808e-02,3.12,2
-7.800e-02,3.2,2.08
-7.792e-02,3.36,2.08
-7.784e-02,3.44,2.24
-7.776e-02,3.52,2.24
-7.768e-02,3.68,2.32
-7.760e-02,3.76,2.4
-7.752e-02,3.84,2.48
-7.744e-02,3.92,2.48
-7.736e-02,4.08,2.64
-7.728e-02,4.16,2.64
-7.720e-02,4.24,2.72
-7.712e-02,4.24,2.8
-7.704e-02,4.4,2.88
-7.696e-02,4.48,2.88
-7.688e-02,4.56,2.96
-7.680e-02,4.64,3.04
-7.672e-02,4.72,3.12
-7.664e-02,4.8,3.12
-7.656e-02,4.8,3.12
-7.648e-02,4.88,3.2
-7.640e-02,4.96,3.28
-7.632e-02,4.96,3.28
-7.624e-02,5.04,3.28
-7.616e-02,5.04,3.28
-7.608e-02,5.12,3.36
-7.600e-02,5.2,3.44
-7.592e-02,5.28,3.44
-7.584e-02,5.28,3.44
-7.576e-02,5.28,3.52
-7.568e-02,5.36,3.52
-7.560e-02,5.36,3.52
-7.552e-02,5.36,3.6
-7.544e-02,5.36,3.6
-7.536e-02,5.36,3.6
-7.528e-02,5.36,3.68
-7.520e-02,5.44,3.6
-7.512e-02,5.44,3.68
-7.504e-02,5.44,3.68
-7.496e-02,5.44,3.68
-7.488e-02,5.44,3.6
-7.480e-02,5.44,3.6
-7.472e-02,5.44,3.68
-7.464e-02,5.36,3.6
-7.456e-02,5.36,3.68
-7.448e-02,5.36,3.6
-7.440e-02,5.36,3.6
-7.432e-02,5.28,3.6
-7.424e-02,5.28,3.6
-7.416e-02,5.28,3.52
-7.408e-02,5.28,3.52
-7.400e-02,5.2,3.52
-7.392e-02,5.12,3.44
-7.384e-02,5.12,3.36
-7.376e-02,4.96,3.44
-7.368e-02,4.96,3.36
-7.360e-02,4.96,3.36
-7.352e-02,4.88,3.28
-7.344e-02,4.8,3.28
-7.336e-02,4.8,3.28
-7.328e-02,4.72,3.2
-7.320e-02,4.64,3.12
-7.312e-02,4.56,3.12
-7.304e-02,4.48,2.96
-7.296e-02,4.4,2.96
-7.288e-02,4.32,2.96
-7.280e-02,4.24,2.8
-7.272e-02,4.16,2.88
-7.264e-02,4.08,2.8
-7.256e-02,4,2.64
-7.248e-02,3.84,2.64
-7.240e-02,3.76,2.64
-7.232e-02,3.68,2.56
-7.224e-02,3.52,2.48
-7.216e-02,3.36,2.4
-7.208e-02,3.36,2.32
-7.200e-02,3.2,2.24
-7.192e-02,3.12,2.16
-7.184e-02,2.96,2
-7.176e-02,2.88,2
-7.168e-02,2.8,2
-7.160e-02,2.56,1.92
-7.152e-02,2.56,1.84
-7.144e-02,2.4,1.68
-7.136e-02,2.32,1.6
-7.128e-02,2.16,1.6
-7.120e-02,2,1.44
-7.112e-02,1.92,1.36
-7.104e-02,1.76,1.28
-7.096e-02,1.68,1.2
-7.088e-02,1.52,1.12
-7.080e-02,1.36,1.04
-7.072e-02,1.28,0.96
-7.064e-02,1.12,0.88
-7.056e-02,0.96,0.8
-7.048e-02,0.88,0.72
-7.040e-02,0.72,0.64
-7.032e-02,0.64,0.48
-7.024e-02,0.48,0.4
-7.016e-02,0.32,0.32
-7.008e-02,0.24,0.24
-7.000e-02,0.08,0.16
-6.992e-02,-0.08,0.08
-6.984e-02,-0.16,0
-6.976e-02,-0.32,-0.08
-6.968e-02,-0.48,-0.24
-6.960e-02,-0.56,-0.24
-6.952e-02,-0.72,-0.4
-6.944e-02,-0.88,-0.48
-6.936e-02,-0.96,-0.56
-6.928e-02,-1.12,-0.64
-6.920e-02,-1.2,-0.72
-6.912e-02,-1.36,-0.8
-6.904e-02,-1.44,-0.88
-6.896e-02,-1.6,-0.96
-6.888e-02,-1.84,-1.12
-6.880e-02,-1.84,-1.12
-6.872e-02,-2,-1.2
-6.864e-02,-2.16,-1.28
-6.856e-02,-2.32,-1.36
-6.848e-02,-2.4,-1.44
-6.840e-02,-2.48,-1.52
-6.832e-02,-2.64,-1.6
-6.824e-02,-2.72,-1.68
-6.816e-02,-2.8,-1.84
-6.808e-02,-2.96,-1.92
-6.800e-02,-3.04,-1.92
-6.792e-02,-3.12,-2
-6.784e-02,-3.36,-2.08
-6.776e-02,-3.36,-2.16
-6.768e-02,-3.44,-2.24
-6.760e-02,-3.6,-2.32
-6.752e-02,-3.68,-2.4
-6.744e-02,-3.76,-2.4
-6.736e-02,-3.84,-2.48
-6.728e-02,-3.92,-2.56
-6.720e-02,-4.08,-2.64
-6.712e-02,-4.16,-2.72
-6.704e-02,-4.16,-2.8
-6.696e-02,-4.24,-2.8
-6.688e-02,-4.32,-2.88
-6.680e-02,-4.4,-2.88
-6.672e-02,-4.48,-2.96
-6.664e-02,-4.56,-3.04
-6.656e-02,-4.56,-3.04
-6.648e-02,-4.64,-3.12
-6.640e-02,-4.72,-3.12
-6.632e-02,-4.8,-3.2
-6.624e-02,-4.88,-3.2
-6.616e-02,-4.88,-3.28
-6.608e-02,-4.88,-3.36
-6.600e-02,-4.96,-3.36
-6.592e-02,-5.04,-3.36
-6.584e-02,-5.04,-3.36
-6.576e-02,-5.04,-3.44
-6.568e-02,-5.12,-3.52
-6.560e-02,-5.12,-3.44
-6.552e-02,-5.12,-3.44
-6.544e-02,-5.2,-3.52
-6.536e-02,-5.2,-3.52
-6.528e-02,-5.2,-3.52
-6.520e-02,-5.28,-3.52
-6.512e-02,-5.2,-3.52
-6.504e-02,-5.2,-3.52
-6.496e-02,-5.2,-3.52
-6.488e-02,-5.2,-3.6
-6.480e-02,-5.2,-3.52
-6.472e-02,-5.2,-3.6
-6.464e-02,-5.2,-3.52
-6.456e-02,-5.2,-3.52
-6.448e-02,-5.2,-3.52
-6.440e-02,-5.12,-3.52
-6.432e-02,-5.12,-3.52
-6.424e-02,-5.12,-3.52
-6.416e-02,-5.04,-3.44
-6.408e-02,-4.96,-3.44
-6.400e-02,-4.96,-3.44
-6.392e-02,-4.88,-3.36
-6.384e-02,-4.88,-3.36
-6.376e-02,-4.8,-3.36
-6.368e-02,-4.8,-3.28
-6.360e-02,-4.72,-3.28
-6.352e-02,-4.64,-3.28
-6.344e-02,-4.56,-3.2
-6.336e-02,-4.56,-3.12
-6.328e-02,-4.48,-3.12
-6.320e-02,-4.4,-3.04
-6.312e-02,-4.32,-2.96
-6.304e-02,-4.24,-2.96
-6.296e-02,-4.16,-2.96
-6.288e-02,-4.16,-2.88
-6.280e-02,-4,-2.88
-6.272e-02,-3.92,-2.72
-6.264e-02,-3.84,-2.72
-6.256e-02,-3.76,-2.64
-6.248e-02,-3.68,-2.56
-6.240e-02,-3.6,-2.56
-6.232e-02,-3.44,-2.48
-6.224e-02,-3.36,-2.4
-6.216e-02,-3.2,-2.32
-6.208e-02,-3.12,-2.24
-6.200e-02,-3.04,-2.24
-6.192e-02,-2.96,-2.08
-6.184e-02,-2.8,-2
-6.176e-02,-2.72,-1.92
-6.168e-02,-2.64,-1.84
-6.160e-02,-2.48,-1.76
-6.152e-02,-2.4,-1.68
-6.144e-02,-2.32,-1.6
-6.136e-02,-2.08,-1.52
-6.128e-02,-2,-1.44
-6.120e-02,-1.92,-1.36
-6.112e-02,-1.76,-1.28
-6.104e-02,-1.6,-1.28
-6.096e-02,-1.44,-1.12
-6.088e-02,-1.36,-1.04
-6.080e-02,-1.2,-0.96
-6.072e-02,-1.12,-0.88
-6.064e-02,-0.96,-0.8
-6.056e-02,-0.88,-0.72
-6.048e-02,-0.72,-0.64
-6.040e-02,-0.56,-0.48
-6.032e-02,-0.48,-0.4
-6.024e-02,-0.32,-0.32
-6.016e-02,-0.24,-0.24
-6.008e-02,-0.08,-0.16
-6.000e-02,0.08,-0.08
-5.992e-02,0.24,0
-5.984e-02,0.32,0.16
-5.976e-02,0.48,0.16
-5.968e-02,0.64,0.24
-5.960e-02,0.72,0.4
-5.952e-02,0.88,0.48
-5.944e-02,1.04,0.56
-5.936e-02,1.12,0.64
-5.928e-02,1.28,0.72
-5.920e-02,1.36,0.8
-5.912e-02,1.52,0.88
-5.904e-02,1.6,0.96
-5.896e-02,1.76,1.12
-5.888e-02,1.84,1.2
-5.880e-02,2,1.28
-5.872e-02,2.16,1.28
-5.864e-02,2.32,1.44
-5.856e-02,2.4,1.52
-5.848e-02,2.56,1.6
-5.840e-02,2.56,1.68
-5.832e-02,2.8,1.76
-5.824e-02,2.88,1.84
-5.816e-02,3.04,1.92
-5.808e-02,3.12,2
-5.800e-02,3.28,2.08
-5.792e-02,3.36,2.08
-5.784e-02,3.44,2.24
-5.776e-02,3.52,2.32
-5.768e-02,3.68,2.32
-5.760e-02,3.68,2.4
-5.752e-02,3.84,2.48
-5.744e-02,3.92,2.56
-5.736e-02,4.08,2.56
-5.728e-02,4.16,2.72
-5.720e-02,4.24,2.72
-5.712e-02,4.32,2.8
-5.704e-02,4.4,2.88
-5.696e-02,4.48,2.88
-5.688e-02,4.48,2.96
-5.680e-02,4.64,3.04
-5.672e-02,4.64,3.12
-5.664e-02,4.72,3.12
-5.656e-02,4.8,3.2
-5.648e-02,4.88,3.2
-5.640e-02,4.96,3.28
-5.632e-02,5.04,3.28
-5.624e-02,5.04,3.36
-5.616e-02,5.12,3.44
-5.608e-02,5.12,3.36
-5.600e-02,5.2,3.44
-5.592e-02,5.2,3.44
-5.584e-02,5.28,3.52
-5.576e-02,5.28,3.52
-5.568e-02,5.28,3.52
-5.560e-02,5.36,3.6
-5.552e-02,5.36,3.6
-5.544e-02,5.44,3.52
-5.536e-02,5.36,3.6
-5.528e-02,5.36,3.68
-5.520e-02,5.44,3.68
-5.512e-02,5.44,3.6
-5.504e-02,5.44,3.68
-5.496e-02,5.44,3.68
-5.488e-02,5.44,3.68
-5.480e-02,5.44,3.68
-5.472e-02,5.36,3.68
-5.464e-02,5.44,3.68
-5.456e-02,5.44,3.6
-5.448e-02,5.36,3.6
-5.440e-02,5.36,3.6
-5.432e-02,5.28,3.6
-5.424e-02,5.28,3.6
-5.416e-02,5.2,3.52
-5.408e-02,5.2,3.52
-5.400e-02,5.2,3.52
-5.392e-02,5.2,3.44
-5.384e-02,5.12,3.44
-5.376e-02,5.04,3.44
-5.368e-02,4.96,3.44
-5.360e-02,4.88,3.36
-5.352e-02,4.88,3.28
-5.344e-02,4.8,3.28
-5.336e-02,4.72,3.2
-5.328e-02,4.64,3.2
-5.320e-02,4.64,3.12
-5.312e-02,4.56,3.12
-5.304e-02,4.48,3.04
-5.296e-02,4.4,2.96
-5.288e-02,4.32,2.96
-5.280e-02,4.24,2.8
-5.272e-02,4.16,2.88
-5.264e-02,4.08,2.8
-5.256e-02,3.92,2.72
-5.248e-02,3.84,2.72
-5.240e-02,3.76,2.64
-5.232e-02,3.68,2.56
-5.224e-02,3.52,2.48
-5.216e-02,3.44,2.4
-5.208e-02,3.36,2.32
-5.200e-02,3.2,2.24
-5.192e-02,3.12,2.16
-5.184e-02,2.96,2.08
-5.176e-02,2.88,2
-5.168e-02,2.8,1.92
-5.160e-02,2.64,1.84
-5.152e-02,2.56,1.76
-5.144e-02,2.4,1.76
-5.136e-02,2.32,1.68
-5.128e-02,2.16,1.6
-5.120e-02,2,1.44
-5.112e-02,1.92,1.36
-5.104e-02,1.76,1.28
-5.096e-02,1.68,1.2
-5.088e-02,1.52,1.12
-5.080e-02,1.36,1.04
-5.072e-02,1.2,0.96
-5.064e-02,1.12,0.88
-5.056e-02,0.96,0.8
-5.048e-02,0.88,0.72
-5.040e-02,0.72,0.56
-5.032e-02,0.64,0.48
-5.024e-02,0.48,0.4
-5.016e-02,0.32,0.32
-5.008e-02,0.16,0.24
-5.000e-02,0.08,0.16
-4.992e-02,-0.08,0.08
-4.984e-02,-0.16,0
-4.976e-02,-0.32,-0.16
-4.968e-02,-0.48,-0.16
-4.960e-02,-0.56,-0.32
-4.952e-02,-0.72,-0.4
-4.944e-02,-0.88,-0.48
-4.936e-02,-1.04,-0.56
-4.928e-02,-1.12,-0.64
-4.920e-02,-1.28,-0.72
-4.912e-02,-1.36,-0.8
-4.904e-02,-1.52,-0.88
-4.896e-02,-1.6,-0.96
-4.888e-02,-1.76,-1.04
-4.880e-02,-1.84,-1.12
-4.872e-02,-2,-1.2
-4.864e-02,-2.08,-1.28
-4.856e-02,-2.24,-1.44
-4.848e-02,-2.4,-1.44
-4.840e-02,-2.48,-1.6
-4.832e-02,-2.64,-1.6
-4.824e-02,-2.8,-1.76
-4.816e-02,-2.8,-1.84
-4.808e-02,-2.96,-1.92
-4.800e-02,-3.04,-2
-4.792e-02,-3.12,-2
-4.784e-02,-3.28,-2.08
-4.776e-02,-3.36,-2.16
-4.768e-02,-3.44,-2.24
-4.760e-02,-3.52,-2.32
-4.752e-02,-3.68,-2.4
-4.744e-02,-3.76,-2.4
-4.736e-02,-3.84,-2.48
-4.728e-02,-3.92,-2.56
-4.720e-02,-4,-2.64
-4.712e-02,-4.08,-2.72
-4.704e-02,-4.16,-2.72
-4.696e-02,-4.32,-2.8
-4.688e-02,-4.32,-2.88
-4.680e-02,-4.4,-2.88
-4.672e-02,-4.48,-2.96
-4.664e-02,-4.56,-3.04
-4.656e-02,-4.64,-3.12
-4.648e-02,-4.64,-3.12
-4.640e-02,-4.72,-3.2
-4.632e-02,-4.8,-3.2
-4.624e-02,-4.8,-3.2
-4.616e-02,-4.88,-3.28
-4.608e-02,-4.96,-3.28
-4.600e-02,-4.96,-3.36
-4.592e-02,-5.04,-3.36
-4.584e-02,-5.04,-3.36
-4.576e-02,-5.12,-3.44
-4.568e-02,-5.12,-3.44
-4.560e-02,-5.12,-3.44
-4.552e-02,-5.12,-3.44
-4.544e-02,-5.2,-3.52
-4.536e-02,-5.28,-3.52
-4.528e-02,-5.2,-3.52
-4.520e-02,-5.2,-3.52
-4.512e-02,-5.2,-3.52
-4.504e-02,-5.2,-3.6
-4.496e-02,-5.28,-3.52
-4.488e-02,-5.2,-3.52
-4.480e-02,-5.2,-3.52
-4.472e-02,-5.2,-3.52
-4.464e-02,-5.2,-3.52
-4.456e-02,-5.2,-3.52
-4.448e-02,-5.12,-3.52
-4.440e-02,-5.12,-3.52
-4.432e-02,-5.12,-3.52
-4.424e-02,-5.04,-3.44
-4.416e-02,-5.04,-3.44
-4.408e-02,-4.96,-3.44
-4.400e-02,-4.96,-3.44
-4.392e-02,-4.96,-3.36
-4.384e-02,-4.88,-3.36
-4.376e-02,-4.88,-3.36
-4.368e-02,-4.8,-3.28
-4.360e-02,-4.72,-3.28
-4.352e-02,-4.64,-3.2
-4.344e-02,-4.64,-3.2
-4.336e-02,-4.56,-3.12
-4.328e-02,-4.48,-3.12
-4.320e-02,-4.4,-3.04
-4.312e-02,-4.32,-3.04
-4.304e-02,-4.24,-2.96
-4.296e-02,-4.16,-2.88
-4.288e-02,-4.08,-2.88
-4.280e-02,-4,-2.8
-4.272e-02,-3.92,-2.72
-4.264e-02,-3.84,-2.64
-4.256e-02,-3.76,-2.64
-4.248e-02,-3.68,-2.56
-4.240e-02,-3.52,-2.56
-4.232e-02,-3.44,-2.4
-4.224e-02,-3.36,-2.32
-4.216e-02,-3.28,-2.32
-4.208e-02,-3.12,-2.24
-4.200e-02,-3.04,-2.16
-4.192e-02,-2.96,-2.08
-4.184e-02,-2.8,-2
-4.176e-02,-2.72,-1.92
-4.168e-02,-2.64,-1.84
-4.160e-02,-2.48,-1.76
-4.152e-02,-2.4,-1.68
-4.144e-02,-2.24,-1.6
-4.136e-02,-2.16,-1.52
-4.128e-02,-2,-1.44
-4.120e-02,-1.84,-1.36
-4.112e-02,-1.76,-1.28
-4.104e-02,-1.6,-1.2
-4.096e-02,-1.44,-1.12
-4.088e-02,-1.36,-1.04
-4.080e-02,-1.28,-0.96
-4.072e-02,-1.12,-0.88
-4.064e-02,-0.96,-0.8
-4.056e-02,-0.8,-0.72
-4.048e-02,-0.72,-0.56
-4.040e-02,-0.56,-0.48
-4.032e-02,-0.48,-0.4
-4.024e-02,-0.32,-0.32
-4.016e-02,-0.16,-0.24
-4.008e-02,-0.08,-0.16
-4.000e-02,0.08,-0.08
-3.992e-02,0.24,0
-3.984e-02,0.32,0.16
-3.976e-02,0.48,0.16
-3.968e-02,0.64,0.32
-3.960e-02,0.72,0.4
-3.952e-02,0.8,0.48
-3.944e-02,0.96,0.56
-3.936e-02,1.12,0.64
-3.928e-02,1.28,0.72
-3.920e-02,1.36,0.88
-3.912e-02,1.52,0.88
-3.904e-02,1.68,0.96
-3.896e-02,1.76,1.12
-3.888e-02,1.92,1.2
-3.880e-02,2.08,1.28
-3.872e-02,2.16,1.36
-3.864e-02,2.32,1.44
-3.856e-02,2.4,1.52
-3.848e-02,2.56,1.6
-3.840e-02,2.64,1.68
-3.832e-02,2.8,1.76
-3.824e-02,2.88,1.76
-3.816e-02,3.04,1.92
-3.808e-02,3.12,2
-3.800e-02,3.28,2.08
-3.792e-02,3.28,2.08
-3.784e-02,3.44,2.24
-3.776e-02,3.6,2.32
-3.768e-02,3.6,2.32
-3.760e-02,3.76,2.4
-3.752e-02,3.84,2.48
-3.744e-02,3.92,2.56
-3.736e-02,4,2.64
-3.728e-02,4.16,2.64
-3.720e-02,4.24,2.72
-3.712e-02,4.32,2.8
-3.704e-02,4.4,2.88
-3.696e-02,4.48,2.88
-3.688e-02,4.56,2.96
-3.680e-02,4.64,3.04
-3.672e-02,4.64,3.04
-3.664e-02,4.72,3.12
-3.656e-02,4.8,3.2
-3.648e-02,4.88,3.2
-3.640e-02,4.96,3.28
-3.632e-02,4.96,3.28
-3.624e-02,5.04,3.28
-3.616e-02,5.12,3.36
-3.608e-02,5.12,3.44
-3.600e-02,5.2,3.44
-3.592e-02,5.2,3.44
-3.584e-02,5.28,3.52
-3.576e-02,5.28,3.52
-3.568e-02,5.28,3.44
-3.560e-02,5.28,3.52
-3.552e-02,5.36,3.6
-3.544e-02,5.36,3.6
-3.536e-02,5.44,3.6
-3.528e-02,5.36,3.68
-3.520e-02,5.44,3.6
-3.512e-02,5.44,3.68
-3.504e-02,5.44,3.68
-3.496e-02,5.44,3.68
-3.488e-02,5.44,3.68
-3.480e-02,5.44,3.68
-3.472e-02,5.44,3.6
-3.464e-02,5.36,3.68
-3.456e-02,5.36,3.68
-3.448e-02,5.36,3.6
-3.440e-02,5.36,3.6
-3.432e-02,5.28,3.6
-3.424e-02,5.28,3.6
-3.416e-02,5.28,3.52
-3.408e-02,5.2,3.6
-3.400e-02,5.2,3.52
-3.392e-02,5.12,3.52
-3.384e-02,5.04,3.44
-3.376e-02,5.04,3.44
-3.368e-02,4.96,3.36
-3.360e-02,4.88,3.36
-3.352e-02,4.88,3.28
-3.344e-02,4.8,3.28
-3.336e-02,4.8,3.2
-3.328e-02,4.72,3.2
-3.320e-02,4.64,3.12
-3.312e-02,4.56,3.12
-3.304e-02,4.48,3.04
-3.296e-02,4.4,2.96
-3.288e-02,4.32,2.96
-3.280e-02,4.24,2.88
-3.272e-02,4.16,2.88
-3.264e-02,4,2.8
-3.256e-02,3.92,2.72
-3.248e-02,3.84,2.64
-3.240e-02,3.76,2.64
-3.232e-02,3.68,2.56
-3.224e-02,3.52,2.48
-3.216e-02,3.44,2.4
-3.208e-02,3.36,2.24
-3.200e-02,3.2,2.24
-3.192e-02,3.12,2.16
-3.184e-02,2.96,2.16
-3.176e-02,2.88,2
-3.168e-02,2.8,1.92
-3.160e-02,2.64,1.92
-3.152e-02,2.56,1.84
-3.144e-02,2.4,1.68
-3.136e-02,2.24,1.6
-3.128e-02,2.16,1.6
-3.120e-02,2,1.52
-3.112e-02,1.84,1.36
-3.104e-02,1.76,1.36
-3.096e-02,1.68,1.2
-3.088e-02,1.52,1.12
-3.080e-02,1.36,1.04
-3.072e-02,1.2,0.96
-3.064e-02,1.12,0.88
-3.056e-02,1.04,0.8
-3.048e-02,0.88,0.72
-3.040e-02,0.72,0.64
-3.032e-02,0.64,0.56
-3.024e-02,0.48,0.4
-3.016e-02,0.32,0.32
-3.008e-02,0.24,0.24
-3.000e-02,0.08,0.16
-2.992e-02,-0.08,0.08
-2.984e-02,-0.16,0
-2.976e-02,-0.32,-0.08
-2.968e-02,-0.48,-0.16
-2.960e-02,-0.64,-0.24
-2.952e-02,-0.72,-0.32
-2.944e-02,-0.88,-0.48
-2.936e-02,-1.04,-0.56
-2.928e-02,-1.12,-0.64
-2.920e-02,-1.2,-0.72
-2.912e-02,-1.36,-0.8
-2.904e-02,-1.52,-0.88
-2.896e-02,-1.6,-0.96
-2.888e-02,-1.76,-1.04
-2.880e-02,-1.92,-1.12
-2.872e-02,-2,-1.2
-2.864e-02,-2.16,-1.28
-2.856e-02,-2.32,-1.36
-2.848e-02,-2.4,-1.44
-2.840e-02,-2.48,-1.52
-2.832e-02,-2.64,-1.68
-2.824e-02,-2.72,-1.76
-2.816e-02,-2.8,-1.84
-2.808e-02,-2.96,-1.92
-2.800e-02,-3.04,-2
-2.792e-02,-3.12,-2
-2.784e-02,-3.28,-2.16
-2.776e-02,-3.36,-2.16
-2.768e-02,-3.44,-2.24
-2.760e-02,-3.52,-2.32
-2.752e-02,-3.68,-2.4
-2.744e-02,-3.76,-2.48
-2.736e-02,-3.84,-2.56
-2.728e-02,-3.92,-2.56
-2.720e-02,-4.08,-2.64
-2.712e-02,-4.16,-2.72
-2.704e-02,-4.16,-2.8
-2.696e-02,-4.32,-2.8
-2.688e-02,-4.32,-2.88
-2.680e-02,-4.4,-2.88
-2.672e-02,-4.48,-2.96
-2.664e-02,-4.56,-3.04
-2.656e-02,-4.64,-3.04
-2.648e-02,-4.72,-3.12
-2.640e-02,-4.72,-3.12
-2.632e-02,-4.8,-3.2
-2.624e-02,-4.88,-3.2
-2.616e-02,-4.88,-3.28
-2.608e-02,-4.88,-3.28
-2.600e-02,-4.96,-3.36
-2.592e-02,-5.04,-3.36
-2.584e-02,-5.04,-3.36
-2.576e-02,-5.04,-3.44
-2.568e-02,-5.12,-3.44
-2.560e-02,-5.12,-3.44
-2.552e-02,-5.12,-3.44
-2.544e-02,-5.2,-3.52
-2.536e-02,-5.28,-3.52
-2.528e-02,-5.2,-3.52
-2.520e-02,-5.28,-3.52
-2.512e-02,-5.28,-3.52
-2.504e-02,-5.28,-3.52
-2.496e-02,-5.2,-3.6
-2.488e-02,-5.2,-3.52
-2.480e-02,-5.2,-3.52
-2.472e-02,-5.2,-3.52
-2.464e-02,-5.2,-3.52
-2.456e-02,-5.2,-3.6
-2.448e-02,-5.12,-3.52
-2.440e-02,-5.12,-3.52
-2.432e-02,-5.12,-3.52
-2.424e-02,-5.12,-3.52
-2.416e-02,-5.04,-3.44
-2.408e-02,-5.04,-3.44
-2.400e-02,-4.96,-3.44
-2.392e-02,-4.96,-3.36
-2.384e-02,-4.88,-3.36
-2.376e-02,-4.8,-3.36
-2.368e-02,-4.8,-3.28
-2.360e-02,-4.72,-3.28
-2.352e-02,-4.64,-3.2
-2.344e-02,-4.64,-3.2
-2.336e-02,-4.56,-3.12
-2.328e-02,-4.48,-3.04
-2.320e-02,-4.4,-3.04
-2.312e-02,-4.32,-2.96
-2.304e-02,-4.24,-2.96
-2.296e-02,-4.16,-2.88
-2.288e-02,-4.08,-2.8
-2.280e-02,-4,-2.8
-2.272e-02,-3.92,-2.72
-2.264e-02,-3.84,-2.72
-2.256e-02,-3.76,-2.64
-2.248e-02,-3.68,-2.56
-2.240e-02,-3.6,-2.48
-2.232e-02,-3.44,-2.48
-2.224e-02,-3.36,-2.4
-2.216e-02,-3.2,-2.32
-2.208e-02,-3.12,-2.24
-2.200e-02,-3.04,-2.24
-2.192e-02,-2.96,-2.08
-2.184e-02,-2.8,-2
-2.176e-02,-2.72,-1.92
-2.168e-02,-2.64,-1.84
-2.160e-02,-2.48,-1.76
-2.152e-02,-2.4,-1.68
-2.144e-02,-2.24,-1.6
-2.136e-02,-2.08,-1.52
-2.128e-02,-2,-1.44
-2.120e-02,-1.84,-1.36
-2.112e-02,-1.76,-1.28
-2.104e-02,-1.6,-1.2
-2.096e-02,-1.52,-1.12
-2.088e-02,-1.36,-1.04
-2.080e-02,-1.28,-0.96
-2.072e-02,-1.12,-0.88
-2.064e-02,-1.04,-0.8
-2.056e-02,-0.8,-0.72
-2.048e-02,-0.72,-0.56
-2.040e-02,-0.56,-0.48
-2.032e-02,-0.48,-0.4
-2.024e-02,-0.32,-0.32
-2.016e-02,-0.16,-0.24
-2.008e-02,-0.08,-0.16
-2.000e-02,0.08,-0.08
-1.992e-02,0.16,0
-1.984e-02,0.32,0.08
-1.976e-02,0.4,0.24
-1.968e-02,0.64,0.24
-1.960e-02,0.72,0.4
-1.952e-02,0.88,0.48
-1.944e-02,1.04,0.56
-1.936e-02,1.12,0.64
-1.928e-02,1.28,0.72
-1.920e-02,1.36,0.72
-1.912e-02,1.52,0.88
-1.904e-02,1.68,1.04
-1.896e-02,1.84,1.12
-1.888e-02,1.92,1.2
-1.880e-02,2,1.28
-1.872e-02,2.16,1.36
-1.864e-02,2.32,1.44
-1.856e-02,2.4,1.52
-1.848e-02,2.56,1.6
-1.840e-02,2.64,1.68
-1.832e-02,2.8,1.76
-1.824e-02,2.88,1.84
-1.816e-02,3.04,1.92
-1.808e-02,3.12,2
-1.800e-02,3.2,2
-1.792e-02,3.36,2.16
-1.784e-02,3.44,2.24
-1.776e-02,3.52,2.24
-1.768e-02,3.68,2.32
-1.760e-02,3.76,2.4
-1.752e-02,3.84,2.48
-1.744e-02,3.92,2.56
-1.736e-02,4.08,2.64
-1.728e-02,4.16,2.72
-1.720e-02,4.24,2.72
-1.712e-02,4.32,2.8
-1.704e-02,4.4,2.88
-1.696e-02,4.48,2.96
-1.688e-02,4.56,2.96
-1.680e-02,4.64,3.04
-1.672e-02,4.64,3.04
-1.664e-02,4.72,3.12
-1.656e-02,4.8,3.12
-1.648e-02,4.88,3.2
-1.640e-02,4.96,3.28
-1.632e-02,4.96,3.28
-1.624e-02,4.96,3.36
-1.616e-02,5.12,3.36
-1.608e-02,5.12,3.44
-1.600e-02,5.2,3.44
-1.592e-02,5.2,3.44
-1.584e-02,5.28,3.52
-1.576e-02,5.28,3.52
-1.568e-02,5.28,3.6
-1.560e-02,5.28,3.6
-1.552e-02,5.28,3.52
-1.544e-02,5.36,3.6
-1.536e-02,5.44,3.6
-1.528e-02,5.44,3.6
-1.520e-02,5.44,3.6
-1.512e-02,5.44,3.68
-1.504e-02,5.44,3.68
-1.496e-02,5.44,3.68
-1.488e-02,5.44,3.68
-1.480e-02,5.44,3.68
-1.472e-02,5.44,3.6
-1.464e-02,5.44,3.6
-1.456e-02,5.36,3.68
-1.448e-02,5.36,3.6
-1.440e-02,5.36,3.6
-1.432e-02,5.28,3.6
-1.424e-02,5.28,3.6
-1.416e-02,5.28,3.52
-1.408e-02,5.2,3.52
-1.400e-02,5.2,3.52
-1.392e-02,5.12,3.52
-1.384e-02,5.12,3.44
-1.376e-02,5.04,3.44
-1.368e-02,5.04,3.36
-1.360e-02,4.96,3.36
-1.352e-02,4.88,3.28
-1.344e-02,4.8,3.28
-1.336e-02,4.72,3.2
-1.328e-02,4.72,3.2
-1.320e-02,4.64,3.12
-1.312e-02,4.56,3.12
-1.304e-02,4.48,3.04
-1.296e-02,4.4,2.96
-1.288e-02,4.32,2.96
-1.280e-02,4.24,2.96
-1.272e-02,4.16,2.8
-1.264e-02,4.08,2.8
-1.256e-02,4,2.72
-1.248e-02,3.84,2.64
-1.240e-02,3.68,2.64
-1.232e-02,3.68,2.48
-1.224e-02,3.52,2.48
-1.216e-02,3.44,2.4
-1.208e-02,3.28,2.32
-1.200e-02,3.2,2.24
-1.192e-02,3.12,2.16
-1.184e-02,2.96,2.08
-1.176e-02,2.88,2
-1.168e-02,2.8,2
-1.160e-02,2.64,1.84
-1.152e-02,2.56,1.76
-1.144e-02,2.4,1.68
-1.136e-02,2.32,1.6
-1.128e-02,2.16,1.52
-1.120e-02,2,1.44
-1.112e-02,1.92,1.36
-1.104e-02,1.76,1.2
-1.096e-02,1.68,1.2
-1.088e-02,1.52,1.12
-1.080e-02,1.44,0.96
-1.072e-02,1.28,0.96
-1.064e-02,1.12,0.88
-1.056e-02,1.04,0.8
-1.048e-02,0.88,0.72
-1.040e-02,0.72,0.64
-1.032e-02,0.64,0.48
-1.024e-02,0.48,0.4
-1.016e-02,0.4,0.32
-1.008e-02,0.24,0.24
-1.000e-02,0.08,0.16
-9.920e-03,-0.08,0.08
-9.840e-03,-0.24,0
-9.760e-03,-0.32,-0.08
-9.680e-03,-0.48,-0.16
-9.600e-03,-0.64,-0.24
-9.520e-03,-0.8,-0.4
-9.440e-03,-0.88,-0.48
-9.360e-03,-0.96,-0.56
-9.280e-03,-1.12,-0.72
-9.200e-03,-1.2,-0.72
-9.120e-03,-1.36,-0.8
-9.040e-03,-1.52,-0.88
-8.960e-03,-1.6,-1.04
-8.880e-03,-1.76,-1.04
-8.800e-03,-1.92,-1.12
-8.720e-03,-2,-1.28
-8.640e-03,-2.16,-1.28
-8.560e-03,-2.24,-1.36
-8.480e-03,-2.4,-1.44
-8.400e-03,-2.48,-1.6
-8.320e-03,-2.64,-1.68
-8.240e-03,-2.8,-1.76
-8.160e-03,-2.8,-1.76
-8.080e-03,-2.96,-1.92
-8.000e-03,-3.04,-1.92
-7.920e-03,-3.12,-2
-7.840e-03,-3.28,-2.08
-7.760e-03,-3.36,-2.24
-7.680e-03,-3.44,-2.24
-7.600e-03,-3.52,-2.32
-7.520e-03,-3.68,-2.4
-7.440e-03,-3.76,-2.48
-7.360e-03,-3.84,-2.56
-7.280e-03,-3.92,-2.56
-7.200e-03,-4,-2.64
-7.120e-03,-4.08,-2.72
-7.040e-03,-4.16,-2.8
-6.960e-03,-4.24,-2.8
-6.880e-03,-4.32,-2.88
-6.800e-03,-4.4,-2.96
-6.720e-03,-4.48,-2.96
-6.640e-03,-4.56,-3.04
-6.560e-03,-4.64,-3.04
-6.480e-03,-4.72,-3.12
