capacitor_data_0412/TEK00029.CSV

Model,TBS2074B
Firmware Version,v1.32.136

Point Format,Y,
Horizontal Units,S,
Horizontal Scale,4e-05,
Sample Interval,3.2e-07,
Filter Frequency,2e+08,
Record Length,2000,
Gating,0.0% to 100.0%,0.0% to 100.0%
Probe Attenuation,1,1
Vertical Units,V,V
Vertical Offset,0,0
Vertical Scale,2,2
Label,,
TIME,CH1,CH2
-3.200e-04,1.44,0.88
-3.197e-04,1.44,0.96
-3.194e-04,1.52,0.96
-3.190e-04,1.52,0.96
-3.187e-04,1.52,0.96
-3.184e-04,1.6,0.96
-3.181e-04,1.6,1.04
-3.178e-04,1.6,1.04
-3.174e-04,1.6,1.04
-3.171e-04,1.68,1.04
-3.168e-04,1.68,1.12
-3.165e-04,1.76,1.12
-3.162e-04,1.76,1.12
-3.158e-04,1.84,1.12
-3.155e-04,1.84,1.2
-3.152e-04,1.84,1.2
-3.149e-04,1.92,1.2
-3.146e-04,1.92,1.2
-3.142e-04,1.92,1.28
-3.139e-04,2,1.28
-3.136e-04,2,1.28
-3.133e-04,2,1.28
-3.130e-04,2.08,1.28
-3.126e-04,2.08,1.36
-3.123e-04,2.08,1.36
-3.120e-04,2.08,1.36
-3.117e-04,2.08,1.36
-3.114e-04,2.16,1.36
-3.110e-04,2.16,1.44
-3.107e-04,2.16,1.44
-3.104e-04,2.24,1.44
-3.101e-04,2.24,1.44
-3.098e-04,2.24,1.44
-3.094e-04,2.32,1.52
-3.091e-04,2.32,1.52
-3.088e-04,2.32,1.52
-3.085e-04,2.4,1.52
-3.082e-04,2.4,1.52
-3.078e-04,2.4,1.52
-3.075e-04,2.4,1.6
-3.072e-04,2.4,1.6
-3.069e-04,2.4,1.6
-3.066e-04,2.48,1.6
-3.062e-04,2.48,1.6
-3.059e-04,2.48,1.6
-3.056e-04,2.56,1.68
-3.053e-04,2.56,1.68
-3.050e-04,2.56,1.68
-3.046e-04,2.56,1.68
-3.043e-04,2.56,1.68
-3.040e-04,2.56,1.76
-3.037e-04,2.64,1.76
-3.034e-04,2.64,1.68
-3.030e-04,2.64,1.76
-3.027e-04,2.64,1.76
-3.024e-04,2.64,1.76
-3.021e-04,2.72,1.76
-3.018e-04,2.72,1.76
-3.014e-04,2.72,1.76
-3.011e-04,2.72,1.84
-3.008e-04,2.72,1.84
-3.005e-04,2.72,1.84
-3.002e-04,2.72,1.84
-2.998e-04,2.72,1.84
-2.995e-04,2.8,1.84
-2.992e-04,2.8,1.84
-2.989e-04,2.8,1.84
-2.986e-04,2.8,1.84
-2.982e-04,2.8,1.84
-2.979e-04,2.72,1.92
-2.976e-04,2.8,1.92
-2.973e-04,2.8,1.92
-2.970e-04,2.8,1.92
-2.966e-04,2.88,1.92
-2.963e-04,2.8,1.84
-2.960e-04,2.88,1.92
-2.957e-04,2.88,1.92
-2.954e-04,2.88,1.92
-2.950e-04,2.88,1.92
-2.947e-04,2.88,1.92
-2.944e-04,2.88,1.92
-2.941e-04,2.8,1.92
-2.938e-04,2.88,1.92
-2.934e-04,2.88,1.92
-2.931e-04,2.88,1.92
-2.928e-04,2.88,1.92
-2.925e-04,2.88,1.92
-2.922e-04,2.88,1.92
-2.918e-04,2.88,1.92
-2.915e-04,2.88,1.92
-2.912e-04,2.88,1.92
-2.909e-04,2.88,1.92
-2.906e-04,2.88,1.92
-2.902e-04,2.88,1.92
-2.899e-04,2.88,1.92
-2.896e-04,2.88,1.92
-2.893e-04,2.88,1.92
-2.890e-04,2.88,1.92
-2.886e-04,2.88,1.92
-2.883e-04,2.8,1.92
-2.880e-04,2.88,1.92
-2.877e-04,2.88,1.92
-2.874e-04,2.8,1.92
-2.870e-04,2.8,1.92
-2.867e-04,2.8,1.92
-2.864e-04,2.8,1.92
-2.861e-04,2.8,1.92
-2.858e-04,2.8,1.92
-2.854e-04,2.8,1.84
-2.851e-04,2.8,1.84
-2.848e-04,2.72,1.84
-2.845e-04,2.72,1.84
-2.842e-04,2.72,1.84
-2.838e-04,2.72,1.84
-2.835e-04,2.72,1.84
-2.832e-04,2.72,1.84
-2.829e-04,2.72,1.84
-2.826e-04,2.72,1.84
-2.822e-04,2.72,1.84
-2.819e-04,2.64,1.84
-2.816e-04,2.64,1.84
-2.813e-04,2.64,1.76
-2.810e-04,2.64,1.84
-2.806e-04,2.64,1.84
-2.803e-04,2.56,1.76
-2.800e-04,2.56,1.76
-2.797e-04,2.56,1.76
-2.794e-04,2.56,1.76
-2.790e-04,2.56,1.76
-2.787e-04,2.48,1.76
-2.784e-04,2.48,1.76
-2.781e-04,2.48,1.68
-2.778e-04,2.48,1.68
-2.774e-04,2.48,1.68
-2.771e-04,2.4,1.68
-2.768e-04,2.4,1.68
-2.765e-04,2.4,1.68
-2.762e-04,2.32,1.6
-2.758e-04,2.32,1.68
-2.755e-04,2.32,1.6
-2.752e-04,2.32,1.6
-2.749e-04,2.32,1.6
-2.746e-04,2.32,1.6
-2.742e-04,2.24,1.6
-2.739e-04,2.24,1.52
-2.736e-04,2.16,1.52
-2.733e-04,2.16,1.52
-2.730e-04,2.16,1.52
-2.726e-04,2.16,1.52
-2.723e-04,2.16,1.44
-2.720e-04,2.08,1.44
-2.717e-04,2,1.44
-2.714e-04,2.08,1.44
-2.710e-04,2,1.36
-2.707e-04,2,1.36
-2.704e-04,1.92,1.36
-2.701e-04,1.92,1.36
-2.698e-04,1.92,1.36
-2.694e-04,1.92,1.36
-2.691e-04,1.84,1.28
-2.688e-04,1.84,1.28
-2.685e-04,1.84,1.28
-2.682e-04,1.76,1.28
-2.678e-04,1.76,1.2
-2.675e-04,1.76,1.2
-2.672e-04,1.68,1.2
-2.669e-04,1.68,1.2
-2.666e-04,1.6,1.2
-2.662e-04,1.6,1.2
-2.659e-04,1.6,1.12
-2.656e-04,1.6,1.04
-2.653e-04,1.52,1.12
-2.650e-04,1.52,1.04
-2.646e-04,1.44,1.04
-2.643e-04,1.44,1.04
-2.640e-04,1.36,1.04
-2.637e-04,1.36,0.96
-2.634e-04,1.28,0.96
-2.630e-04,1.28,0.96
-2.627e-04,1.28,0.96
-2.624e-04,1.28,0.88
-2.621e-04,1.2,0.88
-2.618e-04,1.2,0.88
-2.614e-04,1.2,0.88
-2.611e-04,1.12,0.8
-2.608e-04,1.04,0.8
-2.605e-04,1.04,0.8
-2.602e-04,1.04,0.8
-2.598e-04,0.96,0.8
-2.595e-04,0.96,0.72
-2.592e-04,0.88,0.72
-2.589e-04,0.88,0.72
-2.586e-04,0.88,0.72
-2.582e-04,0.88,0.64
-2.579e-04,0.8,0.64
-2.576e-04,0.8,0.56
-2.573e-04,0.72,0.56
-2.570e-04,0.72,0.56
-2.566e-04,0.64,0.56
-2.563e-04,0.64,0.48
-2.560e-04,0.64,0.48
-2.557e-04,0.56,0.48
-2.554e-04,0.56,0.48
-2.550e-04,0.48,0.4
-2.547e-04,0.48,0.4
-2.544e-04,0.4,0.32
-2.541e-04,0.4,0.32
-2.538e-04,0.4,0.32
-2.534e-04,0.32,0.32
-2.531e-04,0.32,0.24
-2.528e-04,0.24,0.32
-2.525e-04,0.16,0.24
-2.522e-04,0.16,0.24
-2.518e-04,0.16,0.16
-2.515e-04,0.16,0.16
-2.512e-04,0,0.16
-2.509e-04,0,0.16
-2.506e-04,0,0.08
-2.502e-04,0,0.08
-2.499e-04,-0.08,0.08
-2.496e-04,-0.08,0
-2.493e-04,-0.16,0
-2.490e-04,-0.16,0
-2.486e-04,-0.16,-0.08
-2.483e-04,-0.24,-0.08
-2.480e-04,-0.24,-0.08
-2.477e-04,-0.32,-0.08
-2.474e-04,-0.32,-0.16
-2.470e-04,-0.4,-0.16
-2.467e-04,-0.4,-0.16
-2.464e-04,-0.4,-0.24
-2.461e-04,-0.48,-0.24
-2.458e-04,-0.48,-0.24
-2.454e-04,-0.48,-0.24
-2.451e-04,-0.56,-0.32
-2.448e-04,-0.56,-0.32
-2.445e-04,-0.64,-0.32
-2.442e-04,-0.64,-0.4
-2.438e-04,-0.64,-0.4
-2.435e-04,-0.72,-0.4
-2.432e-04,-0.72,-0.4
-2.429e-04,-0.8,-0.48
-2.426e-04,-0.8,-0.48
-2.422e-04,-0.8,-0.48
-2.419e-04,-0.88,-0.48
-2.416e-04,-0.88,-0.56
-2.413e-04,-0.96,-0.56
-2.410e-04,-0.96,-0.56
-2.406e-04,-1.04,-0.64
-2.403e-04,-1.04,-0.64
-2.400e-04,-1.04,-0.64
-2.397e-04,-1.12,-0.64
-2.394e-04,-1.12,-0.72
-2.390e-04,-1.12,-0.72
-2.387e-04,-1.2,-0.72
-2.384e-04,-1.2,-0.8
-2.381e-04,-1.28,-0.8
-2.378e-04,-1.28,-0.8
-2.374e-04,-1.28,-0.88
-2.371e-04,-1.36,-0.88
-2.368e-04,-1.36,-0.88
-2.365e-04,-1.36,-0.88
-2.362e-04,-1.44,-0.88
-2.358e-04,-1.44,-0.88
-2.355e-04,-1.52,-0.96
-2.352e-04,-1.52,-0.96
-2.349e-04,-1.52,-0.96
-2.346e-04,-1.6,-0.96
-2.342e-04,-1.6,-1.04
-2.339e-04,-1.68,-1.04
-2.336e-04,-1.68,-1.04
-2.333e-04,-1.68,-1.12
-2.330e-04,-1.68,-1.12
-2.326e-04,-1.68,-1.12
-2.323e-04,-1.76,-1.12
-2.320e-04,-1.76,-1.2
-2.317e-04,-1.84,-1.2
-2.314e-04,-1.84,-1.2
-2.310e-04,-1.84,-1.2
-2.307e-04,-1.92,-1.2
-2.304e-04,-1.92,-1.28
-2.301e-04,-1.92,-1.28
-2.298e-04,-2,-1.28
-2.294e-04,-2,-1.28
-2.291e-04,-2,-1.28
-2.288e-04,-2.08,-1.28
-2.285e-04,-2.08,-1.36
-2.282e-04,-2.08,-1.36
-2.278e-04,-2.08,-1.36
-2.275e-04,-2.16,-1.36
-2.272e-04,-2.16,-1.44
-2.269e-04,-2.16,-1.44
-2.266e-04,-2.24,-1.44
-2.262e-04,-2.24,-1.44
-2.259e-04,-2.24,-1.44
-2.256e-04,-2.32,-1.52
-2.253e-04,-2.24,-1.52
-2.250e-04,-2.32,-1.52
-2.246e-04,-2.32,-1.52
-2.243e-04,-2.4,-1.6
-2.240e-04,-2.4,-1.52
-2.237e-04,-2.4,-1.52
-2.234e-04,-2.4,-1.6
-2.230e-04,-2.4,-1.52
-2.227e-04,-2.4,-1.6
-2.224e-04,-2.48,-1.6
-2.221e-04,-2.48,-1.6
-2.218e-04,-2.48,-1.68
-2.214e-04,-2.48,-1.6
-2.211e-04,-2.48,-1.68
-2.208e-04,-2.56,-1.68
-2.205e-04,-2.56,-1.68
-2.202e-04,-2.56,-1.68
-2.198e-04,-2.56,-1.68
-2.195e-04,-2.56,-1.76
-2.192e-04,-2.64,-1.68
-2.189e-04,-2.64,-1.76
-2.186e-04,-2.64,-1.76
-2.182e-04,-2.64,-1.76
-2.179e-04,-2.64,-1.76
-2.176e-04,-2.64,-1.76
-2.173e-04,-2.72,-1.76
-2.170e-04,-2.72,-1.76
-2.166e-04,-2.72,-1.84
-2.163e-04,-2.72,-1.84
-2.160e-04,-2.72,-1.84
-2.157e-04,-2.72,-1.84
-2.154e-04,-2.8,-1.84
-2.150e-04,-2.72,-1.84
-2.147e-04,-2.72,-1.84
-2.144e-04,-2.72,-1.84
-2.141e-04,-2.8,-1.84
-2.138e-04,-2.8,-1.84
-2.134e-04,-2.8,-1.84
-2.131e-04,-2.8,-1.84
-2.128e-04,-2.8,-1.92
-2.125e-04,-2.8,-1.84
-2.122e-04,-2.8,-1.84
-2.118e-04,-2.8,-1.92
-2.115e-04,-2.8,-1.92
-2.112e-04,-2.8,-1.84
-2.109e-04,-2.88,-1.84
-2.106e-04,-2.8,-1.92
-2.102e-04,-2.8,-1.92
-2.099e-04,-2.8,-1.92
-2.096e-04,-2.8,-1.92
-2.093e-04,-2.8,-1.92
-2.090e-04,-2.8,-1.92
-2.086e-04,-2.88,-1.92
-2.083e-04,-2.8,-1.92
-2.080e-04,-2.8,-1.92
-2.077e-04,-2.8,-1.92
-2.074e-04,-2.8,-1.92
-2.070e-04,-2.8,-1.92
-2.067e-04,-2.8,-1.92
-2.064e-04,-2.8,-1.92
-2.061e-04,-2.8,-1.92
-2.058e-04,-2.88,-1.92
-2.054e-04,-2.8,-1.84
-2.051e-04,-2.8,-1.92
-2.048e-04,-2.8,-1.92
-2.045e-04,-2.8,-1.92
-2.042e-04,-2.8,-1.92
-2.038e-04,-2.8,-1.92
-2.035e-04,-2.8,-1.92
-2.032e-04,-2.72,-1.84
-2.029e-04,-2.72,-1.84
-2.026e-04,-2.72,-1.84
-2.022e-04,-2.72,-1.84
-2.019e-04,-2.72,-1.84
-2.016e-04,-2.72,-1.84
-2.013e-04,-2.72,-1.84
-2.010e-04,-2.8,-1.84
-2.006e-04,-2.72,-1.84
-2.003e-04,-2.64,-1.84
-2.000e-04,-2.72,-1.84
-1.997e-04,-2.64,-1.84
-1.994e-04,-2.64,-1.84
-1.990e-04,-2.64,-1.76
-1.987e-04,-2.64,-1.76
-1.984e-04,-2.64,-1.76
-1.981e-04,-2.56,-1.76
-1.978e-04,-2.56,-1.76
-1.974e-04,-2.56,-1.76
-1.971e-04,-2.56,-1.76
-1.968e-04,-2.56,-1.76
-1.965e-04,-2.48,-1.76
-1.962e-04,-2.48,-1.76
-1.958e-04,-2.48,-1.76
-1.955e-04,-2.48,-1.68
-1.952e-04,-2.48,-1.68
-1.949e-04,-2.48,-1.68
-1.946e-04,-2.48,-1.68
-1.942e-04,-2.4,-1.68
-1.939e-04,-2.4,-1.6
-1.936e-04,-2.4,-1.6
-1.933e-04,-2.4,-1.6
-1.930e-04,-2.32,-1.6
-1.926e-04,-2.32,-1.6
-1.923e-04,-2.32,-1.6
-1.920e-04,-2.32,-1.6
-1.917e-04,-2.24,-1.6
-1.914e-04,-2.24,-1.52
-1.910e-04,-2.16,-1.6
-1.907e-04,-2.16,-1.52
-1.904e-04,-2.16,-1.52
-1.901e-04,-2.16,-1.44
-1.898e-04,-2.16,-1.44
-1.894e-04,-2.08,-1.44
-1.891e-04,-2.08,-1.44
-1.888e-04,-2,-1.44
-1.885e-04,-2,-1.36
-1.882e-04,-2,-1.36
-1.878e-04,-2,-1.36
-1.875e-04,-1.92,-1.36
-1.872e-04,-1.92,-1.36
-1.869e-04,-1.92,-1.36
-1.866e-04,-1.84,-1.28
-1.862e-04,-1.84,-1.28
-1.859e-04,-1.84,-1.28
-1.856e-04,-1.76,-1.28
-1.853e-04,-1.76,-1.28
-1.850e-04,-1.68,-1.2
-1.846e-04,-1.68,-1.2
-1.843e-04,-1.68,-1.2
-1.840e-04,-1.68,-1.2
-1.837e-04,-1.6,-1.2
-1.834e-04,-1.6,-1.12
-1.830e-04,-1.6,-1.12
-1.827e-04,-1.52,-1.12
-1.824e-04,-1.52,-1.12
-1.821e-04,-1.44,-1.04
-1.818e-04,-1.44,-1.04
-1.814e-04,-1.44,-1.04
-1.811e-04,-1.36,-1.04
-1.808e-04,-1.36,-0.96
-1.805e-04,-1.36,-0.96
-1.802e-04,-1.28,-0.96
-1.798e-04,-1.28,-0.96
-1.795e-04,-1.28,-0.88
-1.792e-04,-1.2,-0.88
-1.789e-04,-1.2,-0.88
-1.786e-04,-1.12,-0.88
-1.782e-04,-1.12,-0.8
-1.779e-04,-1.04,-0.8
-1.776e-04,-1.04,-0.8
-1.773e-04,-1.04,-0.8
-1.770e-04,-0.96,-0.72
-1.766e-04,-0.96,-0.72
-1.763e-04,-0.88,-0.72
-1.760e-04,-0.88,-0.72
-1.757e-04,-0.88,-0.64
-1.754e-04,-0.8,-0.64
-1.750e-04,-0.8,-0.64
-1.747e-04,-0.72,-0.64
-1.744e-04,-0.72,-0.56
-1.741e-04,-0.64,-0.48
-1.738e-04,-0.64,-0.56
-1.734e-04,-0.64,-0.48
-1.731e-04,-0.64,-0.48
-1.728e-04,-0.56,-0.48
-1.725e-04,-0.56,-0.48
-1.722e-04,-0.48,-0.4
-1.718e-04,-0.48,-0.4
-1.715e-04,-0.48,-0.4
-1.712e-04,-0.4,-0.32
-1.709e-04,-0.4,-0.32
-1.706e-04,-0.32,-0.32
-1.702e-04,-0.4,-0.24
-1.699e-04,-0.24,-0.24
-1.696e-04,-0.24,-0.24
-1.693e-04,-0.24,-0.24
-1.690e-04,-0.16,-0.16
-1.686e-04,-0.16,-0.16
-1.683e-04,-0.08,-0.16
-1.680e-04,-0.16,-0.16
-1.677e-04,-0.08,-0.08
-1.674e-04,0,-0.08
-1.670e-04,0.08,-0.08
-1.667e-04,0.08,0
-1.664e-04,0.08,0
-1.661e-04,0.16,0
-1.658e-04,0.16,0.08
-1.654e-04,0.16,0.08
-1.651e-04,0.24,0.08
-1.648e-04,0.24,0.08
-1.645e-04,0.32,0.16
-1.642e-04,0.32,0.16
-1.638e-04,0.4,0.16
-1.635e-04,0.4,0.16
-1.632e-04,0.48,0.24
-1.629e-04,0.48,0.24
-1.626e-04,0.56,0.24
-1.622e-04,0.56,0.32
-1.619e-04,0.64,0.32
-1.616e-04,0.64,0.32
-1.613e-04,0.64,0.4
-1.610e-04,0.64,0.4
-1.606e-04,0.72,0.4
-1.603e-04,0.72,0.4
-1.600e-04,0.8,0.48
-1.597e-04,0.8,0.48
-1.594e-04,0.8,0.48
-1.590e-04,0.88,0.56
-1.587e-04,0.88,0.56
-1.584e-04,0.88,0.56
-1.581e-04,0.96,0.56
-1.578e-04,0.96,0.56
-1.574e-04,1.04,0.64
-1.571e-04,1.04,0.64
-1.568e-04,1.12,0.64
-1.565e-04,1.12,0.64
-1.562e-04,1.12,0.64
-1.558e-04,1.2,0.64
-1.555e-04,1.2,0.72
-1.552e-04,1.2,0.8
-1.549e-04,1.28,0.8
-1.546e-04,1.36,0.8
-1.542e-04,1.36,0.8
-1.539e-04,1.36,0.88
-1.536e-04,1.44,0.8
-1.533e-04,1.36,0.8
-1.530e-04,1.44,0.88
-1.526e-04,1.52,0.88
-1.523e-04,1.52,0.88
-1.520e-04,1.52,0.96
-1.517e-04,1.6,1.04
-1.514e-04,1.6,0.96
-1.510e-04,1.6,1.04
-1.507e-04,1.68,1.04
-1.504e-04,1.76,1.04
-1.501e-04,1.76,1.12
-1.498e-04,1.76,1.12
-1.494e-04,1.76,1.12
-1.491e-04,1.84,1.12
-1.488e-04,1.84,1.2
-1.485e-04,1.84,1.2
-1.482e-04,1.92,1.2
-1.478e-04,1.92,1.28
-1.475e-04,1.92,1.28
-1.472e-04,1.92,1.28
-1.469e-04,2,1.2
-1.466e-04,2,1.28
-1.462e-04,2,1.28
-1.459e-04,2.08,1.36
-1.456e-04,2,1.36
-1.453e-04,2.08,1.36
-1.450e-04,2.16,1.36
-1.446e-04,2.16,1.36
-1.443e-04,2.16,1.44
-1.440e-04,2.24,1.44
-1.437e-04,2.24,1.44
-1.434e-04,2.24,1.44
-1.430e-04,2.32,1.44
-1.427e-04,2.32,1.52
-1.424e-04,2.32,1.52
-1.421e-04,2.32,1.52
-1.418e-04,2.32,1.52
-1.414e-04,2.4,1.52
-1.411e-04,2.4,1.52
-1.408e-04,2.48,1.6
-1.405e-04,2.48,1.6
-1.402e-04,2.48,1.6
-1.398e-04,2.48,1.6
-1.395e-04,2.48,1.68
-1.392e-04,2.48,1.6
-1.389e-04,2.48,1.68
-1.386e-04,2.56,1.68
-1.382e-04,2.48,1.68
-1.379e-04,2.56,1.6
-1.376e-04,2.56,1.68
-1.373e-04,2.56,1.68
-1.370e-04,2.64,1.76
-1.366e-04,2.64,1.76
-1.363e-04,2.64,1.76
-1.360e-04,2.64,1.76
-1.357e-04,2.72,1.76
-1.354e-04,2.72,1.76
-1.350e-04,2.72,1.76
-1.347e-04,2.72,1.76
-1.344e-04,2.72,1.84
-1.341e-04,2.72,1.76
-1.338e-04,2.72,1.84
-1.334e-04,2.8,1.84
-1.331e-04,2.8,1.84
-1.328e-04,2.8,1.84
-1.325e-04,2.8,1.84
-1.322e-04,2.8,1.84
-1.318e-04,2.72,1.84
-1.315e-04,2.8,1.92
-1.312e-04,2.8,1.84
-1.309e-04,2.8,1.84
-1.306e-04,2.8,1.92
-1.302e-04,2.8,1.92
-1.299e-04,2.8,1.92
-1.296e-04,2.8,1.92
-1.293e-04,2.88,1.92
-1.290e-04,2.88,1.92
-1.286e-04,2.88,1.92
-1.283e-04,2.88,1.92
-1.280e-04,2.88,1.92
-1.277e-04,2.8,1.92
-1.274e-04,2.88,1.92
-1.270e-04,2.88,1.92
-1.267e-04,2.88,1.92
-1.264e-04,2.8,1.92
-1.261e-04,2.88,1.92
-1.258e-04,2.88,1.92
-1.254e-04,2.88,1.92
-1.251e-04,2.88,1.92
-1.248e-04,2.88,1.92
-1.245e-04,2.88,1.92
-1.242e-04,2.88,1.92
-1.238e-04,2.88,1.92
-1.235e-04,2.88,1.92
-1.232e-04,2.88,2
-1.229e-04,2.88,1.92
-1.226e-04,2.88,1.92
-1.222e-04,2.88,1.92
-1.219e-04,2.88,1.92
-1.216e-04,2.88,1.84
-1.213e-04,2.88,1.92
-1.210e-04,2.8,1.92
-1.206e-04,2.8,1.92
-1.203e-04,2.8,1.92
-1.200e-04,2.8,1.92
-1.197e-04,2.8,1.84
-1.194e-04,2.8,1.84
-1.190e-04,2.8,1.92
-1.187e-04,2.8,1.92
-1.184e-04,2.8,1.84
-1.181e-04,2.8,1.84
-1.178e-04,2.8,1.84
-1.174e-04,2.72,1.84
-1.171e-04,2.72,1.84
-1.168e-04,2.72,1.84
-1.165e-04,2.72,1.84
-1.162e-04,2.72,1.84
-1.158e-04,2.72,1.84
-1.155e-04,2.72,1.84
-1.152e-04,2.64,1.84
-1.149e-04,2.64,1.84
-1.146e-04,2.64,1.84
-1.142e-04,2.64,1.76
-1.139e-04,2.56,1.76
-1.136e-04,2.56,1.76
-1.133e-04,2.56,1.76
-1.130e-04,2.56,1.76
-1.126e-04,2.56,1.76
-1.123e-04,2.56,1.76
-1.120e-04,2.56,1.68
-1.117e-04,2.48,1.68
-1.114e-04,2.48,1.68
-1.110e-04,2.48,1.68
-1.107e-04,2.4,1.68
-1.104e-04,2.48,1.68
-1.101e-04,2.4,1.68
-1.098e-04,2.4,1.68
-1.094e-04,2.4,1.6
-1.091e-04,2.32,1.6
-1.088e-04,2.32,1.6
-1.085e-04,2.32,1.6
-1.082e-04,2.32,1.6
-1.078e-04,2.24,1.6
-1.075e-04,2.24,1.6
-1.072e-04,2.24,1.52
-1.069e-04,2.24,1.52
-1.066e-04,2.16,1.52
-1.062e-04,2.16,1.52
-1.059e-04,2.16,1.44
-1.056e-04,2.08,1.44
-1.053e-04,2.08,1.44
-1.050e-04,2.08,1.44
-1.046e-04,2,1.44
-1.043e-04,2,1.36
-1.040e-04,2,1.36
-1.037e-04,1.92,1.36
-1.034e-04,1.92,1.36
-1.030e-04,1.92,1.36
-1.027e-04,1.92,1.28
-1.024e-04,1.84,1.36
-1.021e-04,1.76,1.28
-1.018e-04,1.76,1.28
-1.014e-04,1.76,1.28
-1.011e-04,1.76,1.28
-1.008e-04,1.68,1.2
-1.005e-04,1.68,1.2
-1.002e-04,1.68,1.2
-9.984e-05,1.6,1.12
-9.952e-05,1.6,1.12
-9.920e-05,1.52,1.12
-9.888e-05,1.52,1.12
-9.856e-05,1.52,1.12
-9.824e-05,1.52,1.12
-9.792e-05,1.44,1.04
-9.760e-05,1.44,1.04
-9.728e-05,1.36,1.04
-9.696e-05,1.36,0.96
-9.664e-05,1.36,0.96
-9.632e-05,1.28,0.96
-9.600e-05,1.28,0.88
-9.568e-05,1.2,0.88
-9.536e-05,1.2,0.88
-9.504e-05,1.12,0.88
-9.472e-05,1.12,0.88
-9.440e-05,1.12,0.8
-9.408e-05,1.04,0.8
-9.376e-05,1.04,0.8
-9.344e-05,1.04,0.8
-9.312e-05,0.96,0.72
-9.280e-05,0.96,0.72
-9.248e-05,0.88,0.72
-9.216e-05,0.88,0.72
-9.184e-05,0.88,0.64
-9.152e-05,0.8,0.64
-9.120e-05,0.8,0.64
-9.088e-05,0.8,0.56
-9.056e-05,0.72,0.56
-9.024e-05,0.72,0.56
-8.992e-05,0.64,0.56
-8.960e-05,0.64,0.48
-8.928e-05,0.64,0.48
-8.896e-05,0.56,0.48
-8.864e-05,0.56,0.4
-8.832e-05,0.48,0.4
-8.800e-05,0.48,0.4
-8.768e-05,0.48,0.4
-8.736e-05,0.4,0.32
-8.704e-05,0.4,0.32
-8.672e-05,0.32,0.32
-8.640e-05,0.32,0.32
-8.608e-05,0.24,0.24
-8.576e-05,0.24,0.24
-8.544e-05,0.24,0.24
-8.512e-05,0.16,0.16
-8.480e-05,0.16,0.16
-8.448e-05,0.08,0.16
-8.416e-05,0,0.16
-8.384e-05,0,0.08
-8.352e-05,0,0.08
-8.320e-05,0,0.08
-8.288e-05,-0.08,0
-8.256e-05,-0.08,0
-8.224e-05,-0.16,0
-8.192e-05,-0.16,0
-8.160e-05,-0.24,-0.08
-8.128e-05,-0.24,-0.08
-8.096e-05,-0.24,-0.08
-8.064e-05,-0.32,-0.16
-8.032e-05,-0.32,-0.16
-8.000e-05,-0.4,-0.16
-7.968e-05,-0.4,-0.16
-7.936e-05,-0.48,-0.24
-7.904e-05,-0.48,-0.24
-7.872e-05,-0.48,-0.24
-7.840e-05,-0.56,-0.32
-7.808e-05,-0.56,-0.32
-7.776e-05,-0.64,-0.32
-7.744e-05,-0.64,-0.4
-7.712e-05,-0.72,-0.4
-7.680e-05,-0.72,-0.4
-7.648e-05,-0.72,-0.4
-7.616e-05,-0.8,-0.48
-7.584e-05,-0.8,-0.48
-7.552e-05,-0.8,-0.48
-7.520e-05,-0.88,-0.48
-7.488e-05,-0.88,-0.56
-7.456e-05,-0.88,-0.56
-7.424e-05,-0.96,-0.56
-7.392e-05,-0.96,-0.56
-7.360e-05,-1.04,-0.64
-7.328e-05,-1.04,-0.64
-7.296e-05,-1.12,-0.64
-7.264e-05,-1.12,-0.72
-7.232e-05,-1.2,-0.72
-7.200e-05,-1.2,-0.72
-7.168e-05,-1.2,-0.72
-7.136e-05,-1.28,-0.8
-7.104e-05,-1.28,-0.8
-7.072e-05,-1.28,-0.8
-7.040e-05,-1.36,-0.88
-7.008e-05,-1.36,-0.88
-6.976e-05,-1.36,-0.88
-6.944e-05,-1.36,-0.88
-6.912e-05,-1.44,-0.96
-6.880e-05,-1.44,-0.96
-6.848e-05,-1.52,-0.96
-6.816e-05,-1.52,-1.04
-6.784e-05,-1.6,-1.04
-6.752e-05,-1.6,-1.04
-6.720e-05,-1.6,-1.04
-6.688e-05,-1.68,-1.04
-6.656e-05,-1.68,-1.12
-6.624e-05,-1.68,-1.12
-6.592e-05,-1.76,-1.12
-6.560e-05,-1.76,-1.12
-6.528e-05,-1.76,-1.2
-6.496e-05,-1.84,-1.2
-6.464e-05,-1.84,-1.2
-6.432e-05,-1.84,-1.2
-6.400e-05,-1.92,-1.2
-6.368e-05,-1.92,-1.2
-6.336e-05,-1.92,-1.28
-6.304e-05,-2,-1.28
-6.272e-05,-2,-1.28
-6.240e-05,-2,-1.28
-6.208e-05,-2,-1.28
-6.176e-05,-2.08,-1.36
-6.144e-05,-2.08,-1.36
-6.112e-05,-2.16,-1.36
-6.080e-05,-2.16,-1.36
-6.048e-05,-2.16,-1.36
-6.016e-05,-2.16,-1.44
-5.984e-05,-2.16,-1.44
-5.952e-05,-2.24,-1.44
-5.920e-05,-2.24,-1.44
-5.888e-05,-2.32,-1.44
-5.856e-05,-2.32,-1.52
-5.824e-05,-2.32,-1.52
-5.792e-05,-2.32,-1.52
-5.760e-05,-2.4,-1.52
-5.728e-05,-2.4,-1.52
-5.696e-05,-2.4,-1.6
-5.664e-05,-2.4,-1.6
-5.632e-05,-2.4,-1.6
-5.600e-05,-2.48,-1.68
-5.568e-05,-2.48,-1.68
-5.536e-05,-2.48,-1.6
-5.504e-05,-2.48,-1.6
-5.472e-05,-2.48,-1.68
-5.440e-05,-2.48,-1.68
-5.408e-05,-2.56,-1.68
-5.376e-05,-2.56,-1.68
-5.344e-05,-2.56,-1.68
-5.312e-05,-2.56,-1.68
-5.280e-05,-2.64,-1.76
-5.248e-05,-2.64,-1.76
-5.216e-05,-2.56,-1.76
-5.184e-05,-2.64,-1.76
-5.152e-05,-2.64,-1.76
-5.120e-05,-2.64,-1.76
-5.088e-05,-2.64,-1.76
-5.056e-05,-2.64,-1.76
-5.024e-05,-2.72,-1.76
-4.992e-05,-2.72,-1.84
-4.960e-05,-2.72,-1.84
-4.928e-05,-2.72,-1.84
-4.896e-05,-2.72,-1.84
-4.864e-05,-2.72,-1.84
-4.832e-05,-2.72,-1.92
-4.800e-05,-2.8,-1.92
-4.768e-05,-2.72,-1.84
-4.736e-05,-2.8,-1.84
-4.704e-05,-2.8,-1.92
-4.672e-05,-2.8,-1.84
-4.640e-05,-2.8,-1.92
-4.608e-05,-2.8,-1.84
-4.576e-05,-2.8,-1.92
-4.544e-05,-2.8,-1.84
-4.512e-05,-2.88,-1.92
-4.480e-05,-2.8,-1.84
-4.448e-05,-2.8,-1.84
-4.416e-05,-2.8,-1.92
-4.384e-05,-2.8,-1.84
-4.352e-05,-2.8,-1.92
-4.320e-05,-2.8,-1.92
-4.288e-05,-2.8,-1.92
-4.256e-05,-2.8,-1.92
-4.224e-05,-2.8,-1.92
-4.192e-05,-2.8,-1.92
-4.160e-05,-2.88,-1.92
-4.128e-05,-2.8,-1.92
-4.096e-05,-2.8,-1.92
-4.064e-05,-2.8,-1.92
-4.032e-05,-2.8,-1.92
-4.000e-05,-2.8,-1.92
-3.968e-05,-2.8,-1.92
-3.936e-05,-2.8,-1.92
-3.904e-05,-2.8,-1.92
-3.872e-05,-2.8,-1.92
-3.840e-05,-2.88,-1.92
-3.808e-05,-2.8,-1.84
-3.776e-05,-2.8,-1.92
-3.744e-05,-2.8,-1.92
-3.712e-05,-2.8,-1.92
-3.680e-05,-2.8,-1.92
-3.648e-05,-2.8,-1.84
-3.616e-05,-2.72,-1.84
-3.584e-05,-2.72,-1.84
-3.552e-05,-2.72,-1.92
-3.520e-05,-2.72,-1.84
-3.488e-05,-2.72,-1.84
-3.456e-05,-2.72,-1.84
-3.424e-05,-2.72,-1.84
-3.392e-05,-2.72,-1.84
-3.360e-05,-2.64,-1.84
-3.328e-05,-2.72,-1.84
-3.296e-05,-2.64,-1.84
-3.264e-05,-2.64,-1.84
-3.232e-05,-2.64,-1.84
-3.200e-05,-2.64,-1.76
-3.168e-05,-2.56,-1.76
-3.136e-05,-2.64,-1.76
-3.104e-05,-2.56,-1.76
-3.072e-05,-2.56,-1.76
-3.040e-05,-2.56,-1.76
-3.008e-05,-2.56,-1.76
-2.976e-05,-2.48,-1.76
-2.944e-05,-2.48,-1.68
-2.912e-05,-2.48,-1.76
-2.880e-05,-2.48,-1.76
-2.848e-05,-2.4,-1.68
-2.816e-05,-2.4,-1.68
-2.784e-05,-2.4,-1.68
-2.752e-05,-2.4,-1.68
-2.720e-05,-2.48,-1.68
-2.688e-05,-2.32,-1.68
-2.656e-05,-2.32,-1.68
