capacitor_data_0412/TEK00035.CSV

Model,TBS2074B
Firmware Version,v1.32.136

Point Format,Y,
Horizontal Units,S,
Horizontal Scale,4e-05,
Sample Interval,3.2e-07,
Filter Frequency,2e+08,
Record Length,2000,
Gating,0.0% to 100.0%,0.0% to 100.0%
Probe Attenuation,1,1
Vertical Units,V,V
Vertical Offset,0,0
Vertical Scale,2,2
Label,,
TIME,CH1,CH2
-3.200e-04,2.8,2.12
-3.197e-04,2.64,2.04
-3.194e-04,2.56,1.96
-3.190e-04,2.4,1.88
-3.187e-04,2.32,1.8
-3.184e-04,2.16,1.64
-3.181e-04,2,1.64
-3.178e-04,1.92,1.56
-3.174e-04,1.84,1.48
-3.171e-04,1.68,1.4
-3.168e-04,1.6,1.32
-3.165e-04,1.44,1.24
-3.162e-04,1.28,1.16
-3.158e-04,1.2,1.08
-3.155e-04,1.12,1
-3.152e-04,0.96,0.92
-3.149e-04,0.88,0.84
-3.146e-04,0.72,0.76
-3.142e-04,0.64,0.68
-3.139e-04,0.48,0.6
-3.136e-04,0.4,0.52
-3.133e-04,0.24,0.44
-3.130e-04,0.16,0.36
-3.126e-04,-0.08,0.28
-3.123e-04,-0.08,0.2
-3.120e-04,-0.24,0.12
-3.117e-04,-0.32,0.04
-3.114e-04,-0.48,-0.12
-3.110e-04,-0.64,-0.12
-3.107e-04,-0.72,-0.2
-3.104e-04,-0.8,-0.28
-3.101e-04,-0.96,-0.36
-3.098e-04,-1.12,-0.44
-3.094e-04,-1.2,-0.52
-3.091e-04,-1.28,-0.6
-3.088e-04,-1.44,-0.76
-3.085e-04,-1.52,-0.76
-3.082e-04,-1.76,-0.92
-3.078e-04,-1.84,-0.92
-3.075e-04,-1.92,-1
-3.072e-04,-2,-1.08
-3.069e-04,-2.16,-1.16
-3.066e-04,-2.32,-1.24
-3.062e-04,-2.4,-1.32
-3.059e-04,-2.48,-1.4
-3.056e-04,-2.64,-1.48
-3.053e-04,-2.72,-1.64
-3.050e-04,-2.8,-1.64
-3.046e-04,-2.96,-1.72
-3.043e-04,-3.04,-1.8
-3.040e-04,-3.2,-1.88
-3.037e-04,-3.28,-1.96
-3.034e-04,-3.36,-2.04
-3.030e-04,-3.44,-2.12
-3.027e-04,-3.6,-2.2
-3.024e-04,-3.68,-2.28
-3.021e-04,-3.84,-2.28
-3.018e-04,-3.92,-2.36
-3.014e-04,-4.08,-2.44
-3.011e-04,-4.08,-2.52
-3.008e-04,-4.24,-2.6
-3.005e-04,-4.32,-2.76
-3.002e-04,-4.4,-2.76
-2.998e-04,-4.48,-2.84
-2.995e-04,-4.64,-2.92
-2.992e-04,-4.64,-2.92
-2.989e-04,-4.88,-3
-2.986e-04,-4.96,-3.08
-2.982e-04,-5.04,-3.16
-2.979e-04,-5.04,-3.24
-2.976e-04,-5.12,-3.32
-2.973e-04,-5.2,-3.32
-2.970e-04,-5.28,-3.4
-2.966e-04,-5.44,-3.48
-2.963e-04,-5.52,-3.48
-2.960e-04,-5.6,-3.56
-2.957e-04,-5.68,-3.64
-2.954e-04,-5.76,-3.72
-2.950e-04,-5.84,-3.72
-2.947e-04,-5.92,-3.88
-2.944e-04,-6,-3.88
-2.941e-04,-6,-3.88
-2.938e-04,-6.16,-3.96
-2.934e-04,-6.16,-4.04
-2.931e-04,-6.24,-4.04
-2.928e-04,-6.32,-4.12
-2.925e-04,-6.4,-4.2
-2.922e-04,-6.48,-4.2
-2.918e-04,-6.48,-4.28
-2.915e-04,-6.56,-4.28
-2.912e-04,-6.64,-4.36
-2.909e-04,-6.72,-4.36
-2.906e-04,-6.72,-4.44
-2.902e-04,-6.8,-4.44
-2.899e-04,-6.88,-4.52
-2.896e-04,-6.88,-4.52
-2.893e-04,-6.96,-4.52
-2.890e-04,-6.96,-4.6
-2.886e-04,-7.04,-4.6
-2.883e-04,-7.04,-4.68
-2.880e-04,-7.12,-4.68
-2.877e-04,-7.12,-4.76
-2.874e-04,-7.2,-4.76
-2.870e-04,-7.2,-4.76
-2.867e-04,-7.2,-4.84
-2.864e-04,-7.28,-4.84
-2.861e-04,-7.28,-4.84
-2.858e-04,-7.36,-4.92
-2.854e-04,-7.36,-4.92
-2.851e-04,-7.36,-4.92
-2.848e-04,-7.36,-5
-2.845e-04,-7.44,-5
-2.842e-04,-7.44,-5
-2.838e-04,-7.44,-5
-2.835e-04,-7.44,-5
-2.832e-04,-7.52,-5
-2.829e-04,-7.44,-5.08
-2.826e-04,-7.52,-5.08
-2.822e-04,-7.44,-5.08
-2.819e-04,-7.52,-5.08
-2.816e-04,-7.52,-5.08
-2.813e-04,-7.52,-5.16
-2.810e-04,-7.44,-5.08
-2.806e-04,-7.44,-5.08
-2.803e-04,-7.44,-5.08
-2.800e-04,-7.44,-5.08
-2.797e-04,-7.52,-5.08
-2.794e-04,-7.44,-5.08
-2.790e-04,-7.44,-5.08
-2.787e-04,-7.44,-5.08
-2.784e-04,-7.44,-5.16
-2.781e-04,-7.44,-5.08
-2.778e-04,-7.36,-5.08
-2.774e-04,-7.36,-5
-2.771e-04,-7.36,-5
-2.768e-04,-7.28,-5
-2.765e-04,-7.2,-5
-2.762e-04,-7.2,-5
-2.758e-04,-7.2,-4.92
-2.755e-04,-7.12,-4.92
-2.752e-04,-7.12,-4.92
-2.749e-04,-7.04,-4.84
-2.746e-04,-7.04,-4.84
-2.742e-04,-6.96,-4.84
-2.739e-04,-6.96,-4.84
-2.736e-04,-6.88,-4.76
-2.733e-04,-6.88,-4.76
-2.730e-04,-6.8,-4.76
-2.726e-04,-6.72,-4.68
-2.723e-04,-6.72,-4.68
-2.720e-04,-6.72,-4.6
-2.717e-04,-6.64,-4.6
-2.714e-04,-6.56,-4.52
-2.710e-04,-6.48,-4.52
-2.707e-04,-6.4,-4.44
-2.704e-04,-6.32,-4.44
-2.701e-04,-6.24,-4.36
-2.698e-04,-6.24,-4.36
-2.694e-04,-6.16,-4.28
-2.691e-04,-6.08,-4.28
-2.688e-04,-6,-4.28
-2.685e-04,-5.92,-4.2
-2.682e-04,-5.84,-4.12
-2.678e-04,-5.76,-4.12
-2.675e-04,-5.76,-4.04
-2.672e-04,-5.6,-3.96
-2.669e-04,-5.52,-3.96
-2.666e-04,-5.44,-3.88
-2.662e-04,-5.28,-3.8
-2.659e-04,-5.28,-3.72
-2.656e-04,-5.12,-3.72
-2.653e-04,-5.04,-3.64
-2.650e-04,-4.96,-3.56
-2.646e-04,-4.88,-3.56
-2.643e-04,-4.88,-3.48
-2.640e-04,-4.72,-3.4
-2.637e-04,-4.64,-3.4
-2.634e-04,-4.48,-3.32
-2.630e-04,-4.4,-3.24
-2.627e-04,-4.32,-3.16
-2.624e-04,-4.24,-3.08
-2.621e-04,-4.16,-3
-2.618e-04,-4,-3
-2.614e-04,-3.92,-2.92
-2.611e-04,-3.84,-2.84
-2.608e-04,-3.68,-2.76
-2.605e-04,-3.68,-2.76
-2.602e-04,-3.44,-2.68
-2.598e-04,-3.36,-2.52
-2.595e-04,-3.28,-2.52
-2.592e-04,-3.2,-2.44
-2.589e-04,-3.04,-2.36
-2.586e-04,-2.96,-2.28
-2.582e-04,-2.88,-2.2
-2.579e-04,-2.72,-2.12
-2.576e-04,-2.64,-2.12
-2.573e-04,-2.56,-1.96
-2.570e-04,-2.4,-1.88
-2.566e-04,-2.32,-1.8
-2.563e-04,-2.16,-1.72
-2.560e-04,-2.08,-1.64
-2.557e-04,-1.92,-1.64
-2.554e-04,-1.84,-1.56
-2.550e-04,-1.68,-1.48
-2.547e-04,-1.6,-1.4
-2.544e-04,-1.44,-1.32
-2.541e-04,-1.36,-1.16
-2.538e-04,-1.2,-1.16
-2.534e-04,-1.12,-1.08
-2.531e-04,-0.96,-1
-2.528e-04,-0.8,-0.92
-2.525e-04,-0.72,-0.76
-2.522e-04,-0.64,-0.76
-2.518e-04,-0.48,-0.68
-2.515e-04,-0.4,-0.6
-2.512e-04,-0.24,-0.52
-2.509e-04,-0.16,-0.44
-2.506e-04,0,-0.36
-2.502e-04,0.08,-0.28
-2.499e-04,0.24,-0.12
-2.496e-04,0.32,-0.12
-2.493e-04,0.48,-0.04
-2.490e-04,0.56,0.12
-2.486e-04,0.72,0.2
-2.483e-04,0.88,0.28
-2.480e-04,0.96,0.36
-2.477e-04,1.04,0.44
-2.474e-04,1.2,0.44
-2.470e-04,1.28,0.52
-2.467e-04,1.44,0.68
-2.464e-04,1.6,0.76
-2.461e-04,1.68,0.76
-2.458e-04,1.76,0.92
-2.454e-04,1.92,1
-2.451e-04,2,1.08
-2.448e-04,2.16,1.16
-2.445e-04,2.32,1.24
-2.442e-04,2.4,1.32
-2.438e-04,2.48,1.4
-2.435e-04,2.64,1.48
-2.432e-04,2.72,1.56
-2.429e-04,2.88,1.64
-2.426e-04,2.96,1.72
-2.422e-04,3.12,1.8
-2.419e-04,3.12,1.88
-2.416e-04,3.28,1.96
-2.413e-04,3.44,2.04
-2.410e-04,3.52,2.12
-2.406e-04,3.68,2.2
-2.403e-04,3.76,2.28
-2.400e-04,3.84,2.36
-2.397e-04,4,2.36
-2.394e-04,4.08,2.44
-2.390e-04,4.16,2.52
-2.387e-04,4.32,2.6
-2.384e-04,4.4,2.68
-2.381e-04,4.48,2.76
-2.378e-04,4.64,2.84
-2.374e-04,4.72,2.92
-2.371e-04,4.8,2.92
-2.368e-04,4.88,3.08
-2.365e-04,4.96,3.08
-2.362e-04,5.04,3.16
-2.358e-04,5.12,3.24
-2.355e-04,5.2,3.32
-2.352e-04,5.28,3.32
-2.349e-04,5.44,3.4
-2.346e-04,5.52,3.48
-2.342e-04,5.6,3.56
-2.339e-04,5.68,3.56
-2.336e-04,5.76,3.64
-2.333e-04,5.84,3.72
-2.330e-04,5.92,3.8
-2.326e-04,6,3.8
-2.323e-04,6.08,3.88
-2.320e-04,6.16,3.96
-2.317e-04,6.24,3.96
-2.314e-04,6.32,4.04
-2.310e-04,6.4,4.04
-2.307e-04,6.4,4.12
-2.304e-04,6.48,4.2
-2.301e-04,6.56,4.2
-2.298e-04,6.64,4.28
-2.294e-04,6.64,4.28
-2.291e-04,6.72,4.36
-2.288e-04,6.8,4.36
-2.285e-04,6.88,4.44
-2.282e-04,6.88,4.52
-2.278e-04,6.96,4.52
-2.275e-04,7.04,4.6
-2.272e-04,7.04,4.6
-2.269e-04,7.12,4.68
-2.266e-04,7.12,4.68
-2.262e-04,7.2,4.76
-2.259e-04,7.2,4.76
-2.256e-04,7.2,4.84
-2.253e-04,7.36,4.84
-2.250e-04,7.36,4.84
-2.246e-04,7.36,4.84
-2.243e-04,7.44,4.92
-2.240e-04,7.44,4.84
-2.237e-04,7.44,5
-2.234e-04,7.52,5
-2.230e-04,7.52,5
-2.227e-04,7.6,5
-2.224e-04,7.6,5.08
-2.221e-04,7.6,5
-2.218e-04,7.6,5.08
-2.214e-04,7.68,5
-2.211e-04,7.68,5.08
-2.208e-04,7.68,5.16
-2.205e-04,7.6,5.08
-2.202e-04,7.68,5.16
-2.198e-04,7.68,5.16
-2.195e-04,7.68,5.16
-2.192e-04,7.68,5.16
-2.189e-04,7.68,5.16
-2.186e-04,7.68,5.16
-2.182e-04,7.68,5.16
-2.179e-04,7.68,5.16
-2.176e-04,7.6,5.16
-2.173e-04,7.68,5.16
-2.170e-04,7.68,5.16
-2.166e-04,7.6,5.16
-2.163e-04,7.6,5.16
-2.160e-04,7.6,5.16
-2.157e-04,7.52,5.08
-2.154e-04,7.6,5.08
-2.150e-04,7.52,5.08
-2.147e-04,7.52,5.08
-2.144e-04,7.44,5.08
-2.141e-04,7.44,5.08
-2.138e-04,7.44,5.08
-2.134e-04,7.36,5.08
-2.131e-04,7.36,5
-2.128e-04,7.36,5
-2.125e-04,7.28,5
-2.122e-04,7.2,4.92
-2.118e-04,7.2,4.92
-2.115e-04,7.12,4.92
-2.112e-04,7.12,4.84
-2.109e-04,7.04,4.84
-2.106e-04,7.04,4.84
-2.102e-04,6.96,4.76
-2.099e-04,6.88,4.76
-2.096e-04,6.8,4.76
-2.093e-04,6.8,4.68
-2.090e-04,6.64,4.68
-2.086e-04,6.64,4.68
-2.083e-04,6.64,4.6
-2.080e-04,6.56,4.52
-2.077e-04,6.48,4.52
-2.074e-04,6.48,4.44
-2.070e-04,6.32,4.44
-2.067e-04,6.24,4.36
-2.064e-04,6.24,4.36
-2.061e-04,6.16,4.28
-2.058e-04,6.08,4.2
-2.054e-04,6,4.2
-2.051e-04,5.92,4.12
-2.048e-04,5.84,4.12
-2.045e-04,5.76,4.04
-2.042e-04,5.68,3.96
-2.038e-04,5.6,3.96
-2.035e-04,5.52,3.88
-2.032e-04,5.36,3.8
-2.029e-04,5.28,3.8
-2.026e-04,5.2,3.72
-2.022e-04,5.04,3.64
-2.019e-04,5.04,3.64
-2.016e-04,4.96,3.56
-2.013e-04,4.88,3.48
-2.010e-04,4.8,3.4
-2.006e-04,4.64,3.32
-2.003e-04,4.56,3.32
-2.000e-04,4.48,3.24
-1.997e-04,4.4,3.16
-1.994e-04,4.32,3.08
-1.990e-04,4.16,3
-1.987e-04,4.08,2.92
-1.984e-04,3.92,2.92
-1.981e-04,3.84,2.84
-1.978e-04,3.76,2.76
-1.974e-04,3.6,2.68
-1.971e-04,3.52,2.6
-1.968e-04,3.36,2.52
-1.965e-04,3.28,2.44
-1.962e-04,3.2,2.36
-1.958e-04,3.04,2.28
-1.955e-04,2.96,2.28
-1.952e-04,2.8,2.2
-1.949e-04,2.72,2.12
-1.946e-04,2.56,2.04
-1.942e-04,2.48,1.96
-1.939e-04,2.4,1.88
-1.936e-04,2.24,1.8
-1.933e-04,2.16,1.72
-1.930e-04,2,1.64
-1.926e-04,1.92,1.56
-1.923e-04,1.76,1.48
-1.920e-04,1.68,1.4
-1.917e-04,1.52,1.32
-1.914e-04,1.36,1.24
-1.910e-04,1.28,1.16
-1.907e-04,1.12,1.08
-1.904e-04,1.04,1
-1.901e-04,0.88,0.92
-1.898e-04,0.8,0.84
-1.894e-04,0.64,0.76
-1.891e-04,0.56,0.68
-1.888e-04,0.48,0.6
-1.885e-04,0.32,0.44
-1.882e-04,0.16,0.44
-1.878e-04,0.08,0.36
-1.875e-04,-0.08,0.28
-1.872e-04,-0.16,0.2
-1.869e-04,-0.32,0.12
-1.866e-04,-0.4,0.04
-1.862e-04,-0.48,-0.04
-1.859e-04,-0.72,-0.2
-1.856e-04,-0.72,-0.28
-1.853e-04,-0.88,-0.36
-1.850e-04,-1.04,-0.44
-1.846e-04,-1.12,-0.44
-1.843e-04,-1.2,-0.6
-1.840e-04,-1.36,-0.6
-1.837e-04,-1.44,-0.76
-1.834e-04,-1.6,-0.76
-1.830e-04,-1.68,-0.84
-1.827e-04,-1.84,-1
-1.824e-04,-1.92,-1.08
-1.821e-04,-2.08,-1.16
-1.818e-04,-2.16,-1.16
-1.814e-04,-2.32,-1.24
-1.811e-04,-2.4,-1.4
-1.808e-04,-2.56,-1.48
-1.805e-04,-2.64,-1.48
-1.802e-04,-2.72,-1.56
-1.798e-04,-2.88,-1.64
-1.795e-04,-3.04,-1.72
-1.792e-04,-3.12,-1.8
-1.789e-04,-3.2,-1.88
-1.786e-04,-3.28,-1.96
-1.782e-04,-3.44,-2.04
-1.779e-04,-3.52,-2.12
-1.776e-04,-3.6,-2.2
-1.773e-04,-3.76,-2.28
-1.770e-04,-3.84,-2.36
-1.766e-04,-3.92,-2.44
-1.763e-04,-4,-2.52
-1.760e-04,-4.16,-2.6
-1.757e-04,-4.24,-2.68
-1.754e-04,-4.32,-2.68
-1.750e-04,-4.4,-2.76
-1.747e-04,-4.56,-2.84
-1.744e-04,-4.64,-2.92
-1.741e-04,-4.72,-3
-1.738e-04,-4.8,-3
-1.734e-04,-4.88,-3.16
-1.731e-04,-4.96,-3.16
-1.728e-04,-5.12,-3.24
-1.725e-04,-5.2,-3.32
-1.722e-04,-5.2,-3.32
-1.718e-04,-5.36,-3.4
-1.715e-04,-5.44,-3.48
-1.712e-04,-5.52,-3.56
-1.709e-04,-5.6,-3.64
-1.706e-04,-5.68,-3.64
-1.702e-04,-5.76,-3.8
-1.699e-04,-5.84,-3.8
-1.696e-04,-5.92,-3.8
-1.693e-04,-6,-3.88
-1.690e-04,-6.08,-3.96
-1.686e-04,-6.16,-3.96
-1.683e-04,-6.24,-4.04
-1.680e-04,-6.32,-4.12
-1.677e-04,-6.32,-4.12
-1.674e-04,-6.4,-4.2
-1.670e-04,-6.48,-4.2
-1.667e-04,-6.56,-4.28
-1.664e-04,-6.56,-4.36
-1.661e-04,-6.64,-4.36
-1.658e-04,-6.72,-4.36
-1.654e-04,-6.72,-4.44
-1.651e-04,-6.8,-4.52
-1.648e-04,-6.88,-4.52
-1.645e-04,-6.96,-4.6
-1.642e-04,-6.96,-4.6
-1.638e-04,-7.04,-4.6
-1.635e-04,-7.04,-4.68
-1.632e-04,-7.04,-4.68
-1.629e-04,-7.12,-4.76
-1.626e-04,-7.12,-4.76
-1.622e-04,-7.2,-4.76
-1.619e-04,-7.2,-4.84
-1.616e-04,-7.2,-4.84
-1.613e-04,-7.28,-4.84
-1.610e-04,-7.28,-4.84
-1.606e-04,-7.36,-4.92
-1.603e-04,-7.36,-4.92
-1.600e-04,-7.36,-4.92
-1.597e-04,-7.36,-5
-1.594e-04,-7.44,-5
-1.590e-04,-7.44,-5
-1.587e-04,-7.44,-5
-1.584e-04,-7.44,-5
-1.581e-04,-7.44,-5.08
-1.578e-04,-7.44,-5
-1.574e-04,-7.44,-5
-1.571e-04,-7.52,-5.08
-1.568e-04,-7.52,-5.08
-1.565e-04,-7.52,-5.08
-1.562e-04,-7.52,-5.08
-1.558e-04,-7.52,-5.08
-1.555e-04,-7.52,-5.08
-1.552e-04,-7.52,-5.08
-1.549e-04,-7.52,-5.16
-1.546e-04,-7.44,-5.08
-1.542e-04,-7.44,-5.08
-1.539e-04,-7.44,-5.16
-1.536e-04,-7.36,-5.08
-1.533e-04,-7.36,-5
-1.530e-04,-7.36,-5.08
-1.526e-04,-7.36,-5
-1.523e-04,-7.36,-5
-1.520e-04,-7.28,-5
-1.517e-04,-7.28,-5.08
-1.514e-04,-7.2,-5
-1.510e-04,-7.2,-4.92
-1.507e-04,-7.2,-4.92
-1.504e-04,-7.2,-4.92
-1.501e-04,-7.04,-4.84
-1.498e-04,-7.04,-4.84
-1.494e-04,-7.04,-4.84
-1.491e-04,-6.96,-4.84
-1.488e-04,-6.96,-4.76
-1.485e-04,-6.88,-4.76
-1.482e-04,-6.8,-4.76
-1.478e-04,-6.8,-4.68
-1.475e-04,-6.72,-4.68
-1.472e-04,-6.64,-4.68
-1.469e-04,-6.56,-4.6
-1.466e-04,-6.56,-4.6
-1.462e-04,-6.48,-4.52
-1.459e-04,-6.4,-4.52
-1.456e-04,-6.4,-4.44
-1.453e-04,-6.32,-4.44
-1.450e-04,-6.24,-4.36
-1.446e-04,-6.16,-4.36
-1.443e-04,-6.08,-4.28
-1.440e-04,-6,-4.28
-1.437e-04,-5.92,-4.28
-1.434e-04,-5.84,-4.2
-1.430e-04,-5.84,-4.12
-1.427e-04,-5.76,-4.12
-1.424e-04,-5.6,-4.04
-1.421e-04,-5.52,-3.96
-1.418e-04,-5.52,-3.96
-1.414e-04,-5.36,-3.88
-1.411e-04,-5.28,-3.8
-1.408e-04,-5.2,-3.72
-1.405e-04,-5.12,-3.72
-1.402e-04,-5.04,-3.64
-1.398e-04,-4.96,-3.56
-1.395e-04,-4.88,-3.56
-1.392e-04,-4.72,-3.48
-1.389e-04,-4.64,-3.4
-1.386e-04,-4.56,-3.32
-1.382e-04,-4.48,-3.32
-1.379e-04,-4.4,-3.24
-1.376e-04,-4.24,-3.16
-1.373e-04,-4.24,-3.08
-1.370e-04,-4.08,-3
-1.366e-04,-4,-2.92
-1.363e-04,-3.84,-2.92
-1.360e-04,-3.76,-2.84
-1.357e-04,-3.68,-2.84
-1.354e-04,-3.6,-2.68
-1.350e-04,-3.44,-2.68
-1.347e-04,-3.36,-2.52
-1.344e-04,-3.2,-2.44
-1.341e-04,-3.12,-2.44
-1.338e-04,-3.04,-2.28
-1.334e-04,-2.88,-2.28
-1.331e-04,-2.88,-2.2
-1.328e-04,-2.64,-2.12
-1.325e-04,-2.56,-2.04
-1.322e-04,-2.48,-1.96
-1.318e-04,-2.4,-1.88
-1.315e-04,-2.24,-1.8
-1.312e-04,-2.08,-1.72
-1.309e-04,-2,-1.64
-1.306e-04,-1.84,-1.56
-1.302e-04,-1.76,-1.48
-1.299e-04,-1.6,-1.4
-1.296e-04,-1.52,-1.32
-1.293e-04,-1.36,-1.24
-1.290e-04,-1.28,-1.16
-1.286e-04,-1.2,-1.16
-1.283e-04,-1.12,-1
-1.280e-04,-0.88,-0.92
-1.277e-04,-0.88,-0.84
-1.274e-04,-0.64,-0.76
-1.270e-04,-0.64,-0.68
-1.267e-04,-0.4,-0.6
-1.264e-04,-0.32,-0.6
-1.261e-04,-0.24,-0.44
-1.258e-04,-0.08,-0.44
-1.254e-04,0,-0.36
-1.251e-04,0.16,-0.2
-1.248e-04,0.24,-0.12
-1.245e-04,0.4,-0.04
-1.242e-04,0.56,0.04
-1.238e-04,0.64,0.12
-1.235e-04,0.72,0.2
-1.232e-04,0.88,0.28
-1.229e-04,0.96,0.36
-1.226e-04,1.12,0.44
-1.222e-04,1.2,0.52
-1.219e-04,1.36,0.6
-1.216e-04,1.52,0.68
-1.213e-04,1.6,0.68
-1.210e-04,1.76,0.84
-1.206e-04,1.84,0.92
-1.203e-04,2,1
-1.200e-04,2.08,1.08
-1.197e-04,2.24,1.16
-1.194e-04,2.32,1.24
-1.190e-04,2.48,1.24
-1.187e-04,2.56,1.32
-1.184e-04,2.64,1.4
-1.181e-04,2.8,1.56
-1.178e-04,2.88,1.64
-1.174e-04,3.04,1.72
-1.171e-04,3.12,1.8
-1.168e-04,3.2,1.88
-1.165e-04,3.28,1.96
-1.162e-04,3.44,2.04
-1.158e-04,3.6,2.12
-1.155e-04,3.6,2.2
-1.152e-04,3.84,2.28
-1.149e-04,3.92,2.36
-1.146e-04,4,2.36
-1.142e-04,4.16,2.52
-1.139e-04,4.24,2.6
-1.136e-04,4.24,2.6
-1.133e-04,4.48,2.68
-1.130e-04,4.56,2.76
-1.126e-04,4.64,2.84
-1.123e-04,4.72,2.92
-1.120e-04,4.8,3
-1.117e-04,4.88,3.08
-1.114e-04,5.04,3.08
-1.110e-04,5.04,3.16
-1.107e-04,5.2,3.24
-1.104e-04,5.28,3.32
-1.101e-04,5.36,3.4
-1.098e-04,5.44,3.4
-1.094e-04,5.52,3.48
-1.091e-04,5.6,3.48
-1.088e-04,5.68,3.64
-1.085e-04,5.68,3.72
-1.082e-04,5.84,3.72
-1.078e-04,5.92,3.72
-1.075e-04,6,3.8
-1.072e-04,6.08,3.88
-1.069e-04,6.16,3.96
-1.066e-04,6.24,4.04
-1.062e-04,6.32,4.04
-1.059e-04,6.4,4.12
-1.056e-04,6.48,4.12
-1.053e-04,6.48,4.2
-1.050e-04,6.56,4.28
-1.046e-04,6.56,4.28
-1.043e-04,6.64,4.36
-1.040e-04,6.72,4.36
-1.037e-04,6.8,4.44
-1.034e-04,6.88,4.52
-1.030e-04,6.88,4.52
-1.027e-04,6.96,4.52
-1.024e-04,7.04,4.6
-1.021e-04,7.04,4.6
-1.018e-04,7.12,4.68
-1.014e-04,7.12,4.68
-1.011e-04,7.2,4.76
-1.008e-04,7.2,4.76
-1.005e-04,7.28,4.84
-1.002e-04,7.36,4.84
-9.984e-05,7.36,4.84
-9.952e-05,7.36,4.92
-9.920e-05,7.44,4.92
-9.888e-05,7.44,4.92
-9.856e-05,7.52,4.92
-9.824e-05,7.52,5
-9.792e-05,7.52,5
-9.760e-05,7.6,5
-9.728e-05,7.6,5.08
-9.696e-05,7.6,5.08
-9.664e-05,7.6,5.08
-9.632e-05,7.68,5.08
-9.600e-05,7.68,5.08
-9.568e-05,7.68,5.08
-9.536e-05,7.68,5.16
-9.504e-05,7.68,5.16
-9.472e-05,7.68,5.16
-9.440e-05,7.68,5.16
-9.408e-05,7.68,5.16
-9.376e-05,7.68,5.16
-9.344e-05,7.68,5.16
-9.312e-05,7.68,5.16
-9.280e-05,7.68,5.16
-9.248e-05,7.68,5.16
-9.216e-05,7.68,5.16
-9.184e-05,7.6,5.16
-9.152e-05,7.6,5.16
-9.120e-05,7.6,5.16
-9.088e-05,7.6,5.16
-9.056e-05,7.52,5.16
-9.024e-05,7.52,5.08
-8.992e-05,7.52,5.08
-8.960e-05,7.52,5.16
-8.928e-05,7.44,5.08
-8.896e-05,7.44,5.08
-8.864e-05,7.36,5
-8.832e-05,7.36,5.08
-8.800e-05,7.36,5
-8.768e-05,7.28,5
-8.736e-05,7.28,5
-8.704e-05,7.2,4.92
-8.672e-05,7.12,4.92
-8.640e-05,7.12,4.92
-8.608e-05,7.04,4.84
-8.576e-05,7.04,4.84
-8.544e-05,6.96,4.76
-8.512e-05,6.88,4.76
-8.480e-05,6.88,4.76
-8.448e-05,6.8,4.68
-8.416e-05,6.8,4.68
-8.384e-05,6.72,4.68
-8.352e-05,6.64,4.6
-8.320e-05,6.56,4.6
-8.288e-05,6.56,4.52
-8.256e-05,6.48,4.44
-8.224e-05,6.4,4.44
-8.192e-05,6.32,4.44
-8.160e-05,6.24,4.36
-8.128e-05,6.24,4.36
-8.096e-05,6.08,4.28
-8.064e-05,6.08,4.2
-8.032e-05,6,4.12
-8.000e-05,5.84,4.12
-7.968e-05,5.84,4.04
-7.936e-05,5.68,4.04
-7.904e-05,5.6,3.96
-7.872e-05,5.6,3.88
-7.840e-05,5.44,3.88
-7.808e-05,5.36,3.8
-7.776e-05,5.2,3.72
-7.744e-05,5.2,3.72
-7.712e-05,5.12,3.64
-7.680e-05,4.96,3.56
-7.648e-05,4.88,3.48
-7.616e-05,4.8,3.48
-7.584e-05,4.72,3.4
-7.552e-05,4.64,3.32
-7.520e-05,4.56,3.24
-7.488e-05,4.4,3.16
-7.456e-05,4.32,3.08
-7.424e-05,4.24,3.08
-7.392e-05,4.16,3
-7.360e-05,4,2.92
-7.328e-05,3.92,2.84
-7.296e-05,3.84,2.76
-7.264e-05,3.68,2.76
-7.232e-05,3.52,2.6
-7.200e-05,3.44,2.6
-7.168e-05,3.36,2.44
-7.136e-05,3.28,2.44
-7.104e-05,3.12,2.36
-7.072e-05,3.04,2.28
-7.040e-05,2.88,2.2
-7.008e-05,2.8,2.12
-6.976e-05,2.72,2.04
-6.944e-05,2.56,1.96
-6.912e-05,2.48,1.88
-6.880e-05,2.32,1.8
-6.848e-05,2.16,1.72
-6.816e-05,2.08,1.64
-6.784e-05,2,1.56
-6.752e-05,1.84,1.56
-6.720e-05,1.76,1.4
-6.688e-05,1.6,1.32
-6.656e-05,1.52,1.32
-6.624e-05,1.36,1.16
-6.592e-05,1.28,1.16
-6.560e-05,1.12,1.08
-6.528e-05,0.96,1
-6.496e-05,0.88,0.84
-6.464e-05,0.8,0.76
-6.432e-05,0.64,0.68
-6.400e-05,0.56,0.6
-6.368e-05,0.4,0.52
-6.336e-05,0.24,0.52
-6.304e-05,0.16,0.36
-6.272e-05,0,0.28
-6.240e-05,-0.08,0.2
-6.208e-05,-0.24,0.12
-6.176e-05,-0.32,0.04
-6.144e-05,-0.48,-0.04
-6.112e-05,-0.56,-0.12
-6.080e-05,-0.72,-0.2
-6.048e-05,-0.8,-0.28
-6.016e-05,-0.96,-0.36
-5.984e-05,-1.04,-0.44
-5.952e-05,-1.12,-0.6
-5.920e-05,-1.28,-0.6
-5.888e-05,-1.36,-0.68
-5.856e-05,-1.52,-0.84
-5.824e-05,-1.6,-0.92
-5.792e-05,-1.76,-0.92
-5.760e-05,-1.92,-1.08
-5.728e-05,-2,-1.08
-5.696e-05,-2.16,-1.16
-5.664e-05,-2.24,-1.24
-5.632e-05,-2.32,-1.32
-5.600e-05,-2.48,-1.4
-5.568e-05,-2.56,-1.48
-5.536e-05,-2.72,-1.48
-5.504e-05,-2.8,-1.64
-5.472e-05,-2.96,-1.72
-5.440e-05,-3.04,-1.88
-5.408e-05,-3.2,-1.8
-5.376e-05,-3.2,-1.96
-5.344e-05,-3.36,-1.96
-5.312e-05,-3.44,-2.04
-5.280e-05,-3.52,-2.12
-5.248e-05,-3.68,-2.2
-5.216e-05,-3.76,-2.28
-5.184e-05,-3.84,-2.36
-5.152e-05,-4,-2.44
-5.120e-05,-4.08,-2.52
-5.088e-05,-4.16,-2.6
-5.056e-05,-4.24,-2.68
-5.024e-05,-4.4,-2.76
-4.992e-05,-4.48,-2.84
-4.960e-05,-4.56,-2.84
-4.928e-05,-4.64,-2.92
-4.896e-05,-4.8,-3
-4.864e-05,-4.88,-3.08
-4.832e-05,-4.88,-3.16
-4.800e-05,-5.04,-3.24
-4.768e-05,-5.12,-3.24
-4.736e-05,-5.2,-3.32
-4.704e-05,-5.28,-3.4
-4.672e-05,-5.36,-3.4
-4.640e-05,-5.52,-3.48
-4.608e-05,-5.52,-3.56
-4.576e-05,-5.6,-3.56
-4.544e-05,-5.76,-3.64
-4.512e-05,-5.76,-3.72
-4.480e-05,-5.92,-3.72
-4.448e-05,-5.92,-3.8
-4.416e-05,-6,-3.88
-4.384e-05,-6.16,-3.96
-4.352e-05,-6.16,-3.96
-4.320e-05,-6.24,-4.04
-4.288e-05,-6.32,-4.12
-4.256e-05,-6.4,-4.12
-4.224e-05,-6.48,-4.2
-4.192e-05,-6.48,-4.2
-4.160e-05,-6.56,-4.28
-4.128e-05,-6.64,-4.36
-4.096e-05,-6.64,-4.36
-4.064e-05,-6.72,-4.36
-4.032e-05,-6.8,-4.44
-4.000e-05,-6.88,-4.52
-3.968e-05,-6.96,-4.52
-3.936e-05,-6.96,-4.52
-3.904e-05,-6.96,-4.6
-3.872e-05,-7.04,-4.6
-3.840e-05,-7.04,-4.68
-3.808e-05,-7.12,-4.68
-3.776e-05,-7.12,-4.68
-3.744e-05,-7.2,-4.76
-3.712e-05,-7.2,-4.76
-3.680e-05,-7.2,-4.84
-3.648e-05,-7.28,-4.84
-3.616e-05,-7.28,-4.92
-3.584e-05,-7.36,-4.84
-3.552e-05,-7.36,-4.92
-3.520e-05,-7.36,-4.92
-3.488e-05,-7.36,-4.92
-3.456e-05,-7.44,-5
-3.424e-05,-7.44,-5
-3.392e-05,-7.44,-5
-3.360e-05,-7.44,-5
-3.328e-05,-7.44,-5
-3.296e-05,-7.52,-5
-3.264e-05,-7.52,-5.08
-3.232e-05,-7.44,-5.08
-3.200e-05,-7.52,-5.08
-3.168e-05,-7.52,-5.08
-3.136e-05,-7.52,-5.08
-3.104e-05,-7.52,-5.08
-3.072e-05,-7.52,-5.16
-3.040e-05,-7.52,-5.08
-3.008e-05,-7.52,-5.16
-2.976e-05,-7.44,-5.08
-2.944e-05,-7.44,-5.08
-2.912e-05,-7.44,-5.08
-2.880e-05,-7.44,-5.08
-2.848e-05,-7.44,-5.08
-2.816e-05,-7.36,-5.08
-2.784e-05,-7.36,-5
-2.752e-05,-7.36,-5
-2.720e-05,-7.36,-5
