capacitor_data_0412/TEK00036.CSV

Model,TBS2074B
Firmware Version,v1.32.136

Point Format,Y,
Horizontal Units,S,
Horizontal Scale,4e-05,
Sample Interval,3.2e-07,
Filter Frequency,2e+08,
Record Length,2000,
Gating,0.0% to 100.0%,0.0% to 100.0%
Probe Attenuation,1,1
Vertical Units,V,V
Vertical Offset,0,0
Vertical Scale,0.5,0.2
Label,,
TIME,CH1,CH2
-3.200e-04,-0.44,-0.296
-3.197e-04,-0.42,-0.304
-3.194e-04,-0.42,-0.296
-3.190e-04,-0.4,-0.296
-3.187e-04,-0.42,-0.296
-3.184e-04,-0.4,-0.288
-3.181e-04,-0.4,-0.288
-3.178e-04,-0.4,-0.288
-3.174e-04,-0.4,-0.288
-3.171e-04,-0.38,-0.28
-3.168e-04,-0.38,-0.28
-3.165e-04,-0.38,-0.272
-3.162e-04,-0.38,-0.272
-3.158e-04,-0.36,-0.272
-3.155e-04,-0.36,-0.264
-3.152e-04,-0.36,-0.264
-3.149e-04,-0.36,-0.256
-3.146e-04,-0.34,-0.256
-3.142e-04,-0.34,-0.256
-3.139e-04,-0.32,-0.248
-3.136e-04,-0.34,-0.24
-3.133e-04,-0.32,-0.24
-3.130e-04,-0.3,-0.232
-3.126e-04,-0.3,-0.232
-3.123e-04,-0.3,-0.224
-3.120e-04,-0.28,-0.216
-3.117e-04,-0.28,-0.216
-3.114e-04,-0.28,-0.208
-3.110e-04,-0.26,-0.208
-3.107e-04,-0.26,-0.2
-3.104e-04,-0.26,-0.2
-3.101e-04,-0.24,-0.192
-3.098e-04,-0.24,-0.184
-3.094e-04,-0.22,-0.176
-3.091e-04,-0.22,-0.176
-3.088e-04,-0.22,-0.168
-3.085e-04,-0.2,-0.168
-3.082e-04,-0.2,-0.16
-3.078e-04,-0.18,-0.152
-3.075e-04,-0.18,-0.144
-3.072e-04,-0.18,-0.144
-3.069e-04,-0.16,-0.136
-3.066e-04,-0.14,-0.128
-3.062e-04,-0.16,-0.12
-3.059e-04,-0.14,-0.12
-3.056e-04,-0.12,-0.112
-3.053e-04,-0.12,-0.104
-3.050e-04,-0.12,-0.096
-3.046e-04,-0.1,-0.096
-3.043e-04,-0.1,-0.088
-3.040e-04,-0.08,-0.08
-3.037e-04,-0.08,-0.072
-3.034e-04,-0.06,-0.064
-3.030e-04,-0.06,-0.064
-3.027e-04,-0.04,-0.056
-3.024e-04,-0.04,-0.048
-3.021e-04,-0.02,-0.04
-3.018e-04,-0.02,-0.04
-3.014e-04,0,-0.032
-3.011e-04,0,-0.024
-3.008e-04,0.02,-0.016
-3.005e-04,0.02,-0.008
-3.002e-04,0.02,-0.008
-2.998e-04,0.04,0
-2.995e-04,0.04,0
-2.992e-04,0.06,0.016
-2.989e-04,0.06,0.024
-2.986e-04,0.08,0.024
-2.982e-04,0.1,0.032
-2.979e-04,0.1,0.04
-2.976e-04,0.1,0.048
-2.973e-04,0.12,0.056
-2.970e-04,0.14,0.056
-2.966e-04,0.14,0.056
-2.963e-04,0.14,0.072
-2.960e-04,0.16,0.08
-2.957e-04,0.16,0.088
-2.954e-04,0.18,0.088
-2.950e-04,0.16,0.096
-2.947e-04,0.18,0.104
-2.944e-04,0.2,0.112
-2.941e-04,0.22,0.12
-2.938e-04,0.2,0.12
-2.934e-04,0.22,0.128
-2.931e-04,0.24,0.136
-2.928e-04,0.24,0.136
-2.925e-04,0.24,0.144
-2.922e-04,0.26,0.152
-2.918e-04,0.26,0.16
-2.915e-04,0.28,0.16
-2.912e-04,0.28,0.168
-2.909e-04,0.28,0.176
-2.906e-04,0.3,0.184
-2.902e-04,0.3,0.184
-2.899e-04,0.32,0.192
-2.896e-04,0.32,0.2
-2.893e-04,0.32,0.2
-2.890e-04,0.34,0.208
-2.886e-04,0.34,0.208
-2.883e-04,0.34,0.216
-2.880e-04,0.36,0.224
-2.877e-04,0.36,0.224
-2.874e-04,0.36,0.232
-2.870e-04,0.38,0.24
-2.867e-04,0.38,0.24
-2.864e-04,0.4,0.248
-2.861e-04,0.4,0.256
-2.858e-04,0.4,0.256
-2.854e-04,0.4,0.256
-2.851e-04,0.4,0.264
-2.848e-04,0.4,0.272
-2.845e-04,0.42,0.272
-2.842e-04,0.42,0.272
-2.838e-04,0.44,0.28
-2.835e-04,0.44,0.272
-2.832e-04,0.44,0.28
-2.829e-04,0.44,0.288
-2.826e-04,0.46,0.288
-2.822e-04,0.46,0.296
-2.819e-04,0.46,0.304
-2.816e-04,0.46,0.296
-2.813e-04,0.46,0.304
-2.810e-04,0.48,0.312
-2.806e-04,0.48,0.312
-2.803e-04,0.48,0.304
-2.800e-04,0.48,0.312
-2.797e-04,0.48,0.32
-2.794e-04,0.48,0.32
-2.790e-04,0.48,0.32
-2.787e-04,0.48,0.32
-2.784e-04,0.5,0.32
-2.781e-04,0.48,0.328
-2.778e-04,0.5,0.32
-2.774e-04,0.5,0.328
-2.771e-04,0.5,0.32
-2.768e-04,0.5,0.328
-2.765e-04,0.5,0.328
-2.762e-04,0.5,0.328
-2.758e-04,0.5,0.336
-2.755e-04,0.5,0.328
-2.752e-04,0.5,0.336
-2.749e-04,0.5,0.328
-2.746e-04,0.5,0.336
-2.742e-04,0.5,0.336
-2.739e-04,0.5,0.336
-2.736e-04,0.5,0.328
-2.733e-04,0.5,0.328
-2.730e-04,0.48,0.336
-2.726e-04,0.5,0.328
-2.723e-04,0.48,0.328
-2.720e-04,0.48,0.328
-2.717e-04,0.48,0.328
-2.714e-04,0.48,0.328
-2.710e-04,0.48,0.328
-2.707e-04,0.48,0.32
-2.704e-04,0.48,0.32
-2.701e-04,0.46,0.32
-2.698e-04,0.46,0.32
-2.694e-04,0.46,0.32
-2.691e-04,0.46,0.312
-2.688e-04,0.46,0.312
-2.685e-04,0.46,0.312
-2.682e-04,0.44,0.312
-2.678e-04,0.44,0.304
-2.675e-04,0.44,0.304
-2.672e-04,0.42,0.304
-2.669e-04,0.44,0.296
-2.666e-04,0.42,0.296
-2.662e-04,0.42,0.288
-2.659e-04,0.42,0.288
-2.656e-04,0.4,0.288
-2.653e-04,0.4,0.272
-2.650e-04,0.4,0.28
-2.646e-04,0.4,0.272
-2.643e-04,0.4,0.272
-2.640e-04,0.38,0.264
-2.637e-04,0.36,0.264
-2.634e-04,0.36,0.256
-2.630e-04,0.36,0.256
-2.627e-04,0.34,0.248
-2.624e-04,0.34,0.24
-2.621e-04,0.34,0.24
-2.618e-04,0.32,0.232
-2.614e-04,0.32,0.232
-2.611e-04,0.32,0.224
-2.608e-04,0.3,0.216
-2.605e-04,0.3,0.216
-2.602e-04,0.28,0.208
-2.598e-04,0.28,0.208
-2.595e-04,0.28,0.2
-2.592e-04,0.26,0.192
-2.589e-04,0.24,0.192
-2.586e-04,0.24,0.184
-2.582e-04,0.22,0.176
-2.579e-04,0.24,0.168
-2.576e-04,0.22,0.168
-2.573e-04,0.22,0.16
-2.570e-04,0.2,0.152
-2.566e-04,0.2,0.152
-2.563e-04,0.18,0.144
-2.560e-04,0.18,0.136
-2.557e-04,0.18,0.136
-2.554e-04,0.16,0.128
-2.550e-04,0.16,0.12
-2.547e-04,0.16,0.112
-2.544e-04,0.14,0.104
-2.541e-04,0.12,0.096
-2.538e-04,0.12,0.096
-2.534e-04,0.12,0.088
-2.531e-04,0.1,0.08
-2.528e-04,0.1,0.08
-2.525e-04,0.08,0.072
-2.522e-04,0.06,0.064
-2.518e-04,0.06,0.056
-2.515e-04,0.06,0.048
-2.512e-04,0.04,0.04
-2.509e-04,0.04,0.032
-2.506e-04,0.02,0.024
-2.502e-04,0.02,0.024
-2.499e-04,0,0.024
-2.496e-04,0,0.008
-2.493e-04,-0.02,0
-2.490e-04,-0.02,0
-2.486e-04,-0.04,-0.008
-2.483e-04,-0.04,-0.016
-2.480e-04,-0.06,-0.024
-2.477e-04,-0.06,-0.032
-2.474e-04,-0.08,-0.032
-2.470e-04,-0.08,-0.04
-2.467e-04,-0.1,-0.048
-2.464e-04,-0.1,-0.056
-2.461e-04,-0.1,-0.056
-2.458e-04,-0.12,-0.064
-2.454e-04,-0.12,-0.072
-2.451e-04,-0.16,-0.08
-2.448e-04,-0.14,-0.088
-2.445e-04,-0.16,-0.088
-2.442e-04,-0.16,-0.096
-2.438e-04,-0.18,-0.104
-2.435e-04,-0.18,-0.112
-2.432e-04,-0.18,-0.112
-2.429e-04,-0.2,-0.12
-2.426e-04,-0.2,-0.128
-2.422e-04,-0.22,-0.128
-2.419e-04,-0.22,-0.136
-2.416e-04,-0.22,-0.144
-2.413e-04,-0.24,-0.152
-2.410e-04,-0.24,-0.152
-2.406e-04,-0.26,-0.16
-2.403e-04,-0.26,-0.168
-2.400e-04,-0.28,-0.168
-2.397e-04,-0.28,-0.176
-2.394e-04,-0.3,-0.184
-2.390e-04,-0.3,-0.192
-2.387e-04,-0.3,-0.192
-2.384e-04,-0.3,-0.2
-2.381e-04,-0.3,-0.208
-2.378e-04,-0.32,-0.216
-2.374e-04,-0.32,-0.208
-2.371e-04,-0.34,-0.216
-2.368e-04,-0.34,-0.216
-2.365e-04,-0.34,-0.224
-2.362e-04,-0.34,-0.232
-2.358e-04,-0.34,-0.232
-2.355e-04,-0.36,-0.24
-2.352e-04,-0.36,-0.248
-2.349e-04,-0.36,-0.248
-2.346e-04,-0.38,-0.248
-2.342e-04,-0.38,-0.256
-2.339e-04,-0.38,-0.264
-2.336e-04,-0.4,-0.264
-2.333e-04,-0.4,-0.272
-2.330e-04,-0.4,-0.272
-2.326e-04,-0.4,-0.272
-2.323e-04,-0.4,-0.28
-2.320e-04,-0.42,-0.28
-2.317e-04,-0.42,-0.28
-2.314e-04,-0.42,-0.288
-2.310e-04,-0.42,-0.288
-2.307e-04,-0.42,-0.288
-2.304e-04,-0.42,-0.288
-2.301e-04,-0.42,-0.296
-2.298e-04,-0.44,-0.296
-2.294e-04,-0.44,-0.296
-2.291e-04,-0.44,-0.304
-2.288e-04,-0.44,-0.304
-2.285e-04,-0.44,-0.304
-2.282e-04,-0.44,-0.304
-2.278e-04,-0.46,-0.304
-2.275e-04,-0.44,-0.304
-2.272e-04,-0.44,-0.312
-2.269e-04,-0.46,-0.312
-2.266e-04,-0.44,-0.312
-2.262e-04,-0.46,-0.312
-2.259e-04,-0.46,-0.312
-2.256e-04,-0.46,-0.312
-2.253e-04,-0.46,-0.312
-2.250e-04,-0.46,-0.312
-2.246e-04,-0.46,-0.312
-2.243e-04,-0.44,-0.312
-2.240e-04,-0.44,-0.312
-2.237e-04,-0.44,-0.312
-2.234e-04,-0.44,-0.312
-2.230e-04,-0.44,-0.312
-2.227e-04,-0.44,-0.312
-2.224e-04,-0.44,-0.312
-2.221e-04,-0.44,-0.312
-2.218e-04,-0.42,-0.312
-2.214e-04,-0.44,-0.304
-2.211e-04,-0.44,-0.312
-2.208e-04,-0.42,-0.304
-2.205e-04,-0.42,-0.304
-2.202e-04,-0.42,-0.304
-2.198e-04,-0.42,-0.304
-2.195e-04,-0.42,-0.304
-2.192e-04,-0.42,-0.296
-2.189e-04,-0.42,-0.296
-2.186e-04,-0.4,-0.296
-2.182e-04,-0.4,-0.296
-2.179e-04,-0.4,-0.288
-2.176e-04,-0.38,-0.288
-2.173e-04,-0.4,-0.28
-2.170e-04,-0.38,-0.28
-2.166e-04,-0.38,-0.28
-2.163e-04,-0.38,-0.272
-2.160e-04,-0.36,-0.272
-2.157e-04,-0.38,-0.264
-2.154e-04,-0.36,-0.264
-2.150e-04,-0.34,-0.256
-2.147e-04,-0.36,-0.256
-2.144e-04,-0.34,-0.248
-2.141e-04,-0.34,-0.248
-2.138e-04,-0.34,-0.24
-2.134e-04,-0.32,-0.24
-2.131e-04,-0.32,-0.24
-2.128e-04,-0.32,-0.232
-2.125e-04,-0.3,-0.232
-2.122e-04,-0.3,-0.224
-2.118e-04,-0.28,-0.224
-2.115e-04,-0.28,-0.216
-2.112e-04,-0.28,-0.216
-2.109e-04,-0.26,-0.2
-2.106e-04,-0.26,-0.2
-2.102e-04,-0.24,-0.2
-2.099e-04,-0.24,-0.192
-2.096e-04,-0.24,-0.184
-2.093e-04,-0.22,-0.184
-2.090e-04,-0.22,-0.176
-2.086e-04,-0.22,-0.168
-2.083e-04,-0.2,-0.16
-2.080e-04,-0.2,-0.16
-2.077e-04,-0.18,-0.152
-2.074e-04,-0.18,-0.144
-2.070e-04,-0.16,-0.136
-2.067e-04,-0.16,-0.128
-2.064e-04,-0.16,-0.128
-2.061e-04,-0.14,-0.12
-2.058e-04,-0.14,-0.112
-2.054e-04,-0.12,-0.112
-2.051e-04,-0.12,-0.104
-2.048e-04,-0.1,-0.096
-2.045e-04,-0.1,-0.096
-2.042e-04,-0.1,-0.08
-2.038e-04,-0.08,-0.08
-2.035e-04,-0.08,-0.072
-2.032e-04,-0.06,-0.064
-2.029e-04,-0.04,-0.056
-2.026e-04,-0.04,-0.056
-2.022e-04,-0.04,-0.048
-2.019e-04,-0.02,-0.04
-2.016e-04,-0.02,-0.04
-2.013e-04,-0.02,-0.024
-2.010e-04,0.02,-0.024
-2.006e-04,0.02,-0.016
-2.003e-04,0.02,-0.008
-2.000e-04,0.02,0
-1.997e-04,0.06,0.008
-1.994e-04,0.04,0.008
-1.990e-04,0.06,0.016
-1.987e-04,0.08,0.024
-1.984e-04,0.08,0.024
-1.981e-04,0.1,0.032
-1.978e-04,0.1,0.04
-1.974e-04,0.12,0.048
-1.971e-04,0.12,0.056
-1.968e-04,0.14,0.064
-1.965e-04,0.14,0.072
-1.962e-04,0.16,0.08
-1.958e-04,0.16,0.08
-1.955e-04,0.16,0.088
-1.952e-04,0.18,0.088
-1.949e-04,0.18,0.104
-1.946e-04,0.2,0.104
-1.942e-04,0.2,0.112
-1.939e-04,0.22,0.12
-1.936e-04,0.22,0.128
-1.933e-04,0.24,0.128
-1.930e-04,0.24,0.136
-1.926e-04,0.24,0.144
-1.923e-04,0.26,0.152
-1.920e-04,0.26,0.152
-1.917e-04,0.26,0.16
-1.914e-04,0.28,0.168
-1.910e-04,0.28,0.176
-1.907e-04,0.28,0.176
-1.904e-04,0.3,0.184
-1.901e-04,0.3,0.184
-1.898e-04,0.32,0.192
-1.894e-04,0.32,0.2
-1.891e-04,0.32,0.2
-1.888e-04,0.34,0.208
-1.885e-04,0.34,0.216
-1.882e-04,0.34,0.216
-1.878e-04,0.36,0.224
-1.875e-04,0.36,0.224
-1.872e-04,0.36,0.232
-1.869e-04,0.38,0.24
-1.866e-04,0.4,0.24
-1.862e-04,0.38,0.248
-1.859e-04,0.4,0.256
-1.856e-04,0.42,0.256
-1.853e-04,0.42,0.264
-1.850e-04,0.42,0.264
-1.846e-04,0.42,0.272
-1.843e-04,0.42,0.272
-1.840e-04,0.42,0.28
-1.837e-04,0.44,0.28
-1.834e-04,0.44,0.28
-1.830e-04,0.42,0.28
-1.827e-04,0.46,0.288
-1.824e-04,0.44,0.296
-1.821e-04,0.46,0.296
-1.818e-04,0.44,0.296
-1.814e-04,0.44,0.304
-1.811e-04,0.46,0.304
-1.808e-04,0.48,0.312
-1.805e-04,0.48,0.312
-1.802e-04,0.46,0.312
-1.798e-04,0.48,0.312
-1.795e-04,0.48,0.32
-1.792e-04,0.5,0.32
-1.789e-04,0.48,0.32
-1.786e-04,0.48,0.32
-1.782e-04,0.5,0.328
-1.779e-04,0.48,0.32
-1.776e-04,0.5,0.32
-1.773e-04,0.5,0.328
-1.770e-04,0.5,0.328
-1.766e-04,0.5,0.328
-1.763e-04,0.5,0.328
-1.760e-04,0.5,0.328
-1.757e-04,0.5,0.328
-1.754e-04,0.5,0.328
-1.750e-04,0.5,0.328
-1.747e-04,0.5,0.336
-1.744e-04,0.5,0.328
-1.741e-04,0.5,0.328
-1.738e-04,0.5,0.328
-1.734e-04,0.5,0.336
-1.731e-04,0.48,0.328
-1.728e-04,0.48,0.328
-1.725e-04,0.5,0.328
-1.722e-04,0.48,0.328
-1.718e-04,0.48,0.328
-1.715e-04,0.48,0.328
-1.712e-04,0.48,0.328
-1.709e-04,0.48,0.328
-1.706e-04,0.48,0.32
-1.702e-04,0.46,0.32
-1.699e-04,0.46,0.32
-1.696e-04,0.46,0.32
-1.693e-04,0.46,0.312
-1.690e-04,0.46,0.312
-1.686e-04,0.46,0.312
-1.683e-04,0.44,0.312
-1.680e-04,0.44,0.304
-1.677e-04,0.42,0.296
-1.674e-04,0.44,0.296
-1.670e-04,0.42,0.296
-1.667e-04,0.42,0.296
-1.664e-04,0.42,0.296
-1.661e-04,0.42,0.288
-1.658e-04,0.42,0.288
-1.654e-04,0.4,0.28
-1.651e-04,0.4,0.28
-1.648e-04,0.4,0.272
-1.645e-04,0.38,0.272
-1.642e-04,0.38,0.264
-1.638e-04,0.38,0.264
-1.635e-04,0.38,0.256
-1.632e-04,0.38,0.256
-1.629e-04,0.36,0.248
-1.626e-04,0.34,0.248
-1.622e-04,0.34,0.248
-1.619e-04,0.32,0.24
-1.616e-04,0.32,0.232
-1.613e-04,0.32,0.224
-1.610e-04,0.3,0.216
-1.606e-04,0.3,0.216
-1.603e-04,0.28,0.216
-1.600e-04,0.28,0.208
-1.597e-04,0.28,0.2
-1.594e-04,0.28,0.2
-1.590e-04,0.26,0.192
-1.587e-04,0.26,0.184
-1.584e-04,0.24,0.184
-1.581e-04,0.24,0.176
-1.578e-04,0.22,0.168
-1.574e-04,0.22,0.168
-1.571e-04,0.22,0.16
-1.568e-04,0.2,0.152
-1.565e-04,0.2,0.144
-1.562e-04,0.18,0.144
-1.558e-04,0.18,0.136
-1.555e-04,0.16,0.128
-1.552e-04,0.16,0.12
-1.549e-04,0.14,0.12
-1.546e-04,0.14,0.112
-1.542e-04,0.14,0.104
-1.539e-04,0.12,0.096
-1.536e-04,0.14,0.088
-1.533e-04,0.1,0.088
-1.530e-04,0.08,0.08
-1.526e-04,0.08,0.072
-1.523e-04,0.08,0.064
-1.520e-04,0.06,0.064
-1.517e-04,0.06,0.056
-1.514e-04,0.04,0.048
-1.510e-04,0.02,0.032
-1.507e-04,0.02,0.032
-1.504e-04,0.02,0.024
-1.501e-04,0,0.024
-1.498e-04,0,0.016
-1.494e-04,-0.02,0
-1.491e-04,-0.02,0
-1.488e-04,-0.04,-0.008
-1.485e-04,-0.04,-0.016
-1.482e-04,-0.06,-0.016
-1.478e-04,-0.08,-0.024
-1.475e-04,-0.06,-0.032
-1.472e-04,-0.08,-0.04
-1.469e-04,-0.1,-0.04
-1.466e-04,-0.12,-0.048
-1.462e-04,-0.1,-0.056
-1.459e-04,-0.12,-0.064
-1.456e-04,-0.12,-0.072
-1.453e-04,-0.12,-0.072
-1.450e-04,-0.14,-0.08
-1.446e-04,-0.16,-0.088
-1.443e-04,-0.16,-0.096
-1.440e-04,-0.16,-0.104
-1.437e-04,-0.18,-0.104
-1.434e-04,-0.18,-0.112
-1.430e-04,-0.2,-0.12
-1.427e-04,-0.22,-0.12
-1.424e-04,-0.22,-0.128
-1.421e-04,-0.22,-0.136
-1.418e-04,-0.24,-0.144
-1.414e-04,-0.24,-0.144
-1.411e-04,-0.24,-0.152
-1.408e-04,-0.26,-0.16
-1.405e-04,-0.26,-0.16
-1.402e-04,-0.28,-0.168
-1.398e-04,-0.28,-0.176
-1.395e-04,-0.28,-0.184
-1.392e-04,-0.28,-0.184
-1.389e-04,-0.3,-0.192
-1.386e-04,-0.3,-0.192
-1.382e-04,-0.32,-0.2
-1.379e-04,-0.32,-0.208
-1.376e-04,-0.32,-0.208
-1.373e-04,-0.32,-0.216
-1.370e-04,-0.34,-0.216
-1.366e-04,-0.36,-0.224
-1.363e-04,-0.34,-0.232
-1.360e-04,-0.36,-0.232
-1.357e-04,-0.36,-0.232
-1.354e-04,-0.36,-0.24
-1.350e-04,-0.38,-0.248
-1.347e-04,-0.38,-0.248
-1.344e-04,-0.38,-0.256
-1.341e-04,-0.38,-0.256
-1.338e-04,-0.38,-0.264
-1.334e-04,-0.4,-0.264
-1.331e-04,-0.4,-0.272
-1.328e-04,-0.4,-0.272
-1.325e-04,-0.4,-0.272
-1.322e-04,-0.42,-0.28
-1.318e-04,-0.42,-0.28
-1.315e-04,-0.42,-0.28
-1.312e-04,-0.42,-0.288
-1.309e-04,-0.42,-0.288
-1.306e-04,-0.42,-0.288
-1.302e-04,-0.42,-0.296
-1.299e-04,-0.44,-0.296
-1.296e-04,-0.44,-0.296
-1.293e-04,-0.44,-0.304
-1.290e-04,-0.44,-0.304
-1.286e-04,-0.44,-0.304
-1.283e-04,-0.44,-0.304
-1.280e-04,-0.44,-0.304
-1.277e-04,-0.44,-0.304
-1.274e-04,-0.44,-0.312
-1.270e-04,-0.44,-0.312
-1.267e-04,-0.46,-0.312
-1.264e-04,-0.46,-0.312
-1.261e-04,-0.46,-0.32
-1.258e-04,-0.46,-0.312
-1.254e-04,-0.46,-0.312
-1.251e-04,-0.44,-0.312
-1.248e-04,-0.46,-0.312
-1.245e-04,-0.46,-0.312
-1.242e-04,-0.46,-0.312
-1.238e-04,-0.46,-0.312
-1.235e-04,-0.44,-0.312
-1.232e-04,-0.44,-0.312
-1.229e-04,-0.46,-0.312
-1.226e-04,-0.46,-0.312
-1.222e-04,-0.44,-0.32
-1.219e-04,-0.44,-0.312
-1.216e-04,-0.44,-0.304
-1.213e-04,-0.44,-0.312
-1.210e-04,-0.44,-0.304
-1.206e-04,-0.42,-0.304
-1.203e-04,-0.42,-0.304
-1.200e-04,-0.42,-0.304
-1.197e-04,-0.42,-0.304
-1.194e-04,-0.42,-0.296
-1.190e-04,-0.4,-0.296
-1.187e-04,-0.42,-0.296
-1.184e-04,-0.4,-0.288
-1.181e-04,-0.4,-0.288
-1.178e-04,-0.38,-0.288
-1.174e-04,-0.4,-0.28
-1.171e-04,-0.38,-0.288
-1.168e-04,-0.38,-0.28
-1.165e-04,-0.38,-0.272
-1.162e-04,-0.38,-0.272
-1.158e-04,-0.36,-0.272
-1.155e-04,-0.38,-0.264
-1.152e-04,-0.36,-0.264
-1.149e-04,-0.34,-0.256
-1.146e-04,-0.34,-0.256
-1.142e-04,-0.34,-0.248
-1.139e-04,-0.34,-0.248
-1.136e-04,-0.32,-0.24
-1.133e-04,-0.32,-0.24
-1.130e-04,-0.32,-0.232
-1.126e-04,-0.3,-0.232
-1.123e-04,-0.3,-0.224
-1.120e-04,-0.3,-0.216
-1.117e-04,-0.28,-0.216
-1.114e-04,-0.28,-0.208
-1.110e-04,-0.26,-0.208
-1.107e-04,-0.26,-0.2
-1.104e-04,-0.26,-0.2
-1.101e-04,-0.24,-0.192
-1.098e-04,-0.24,-0.184
-1.094e-04,-0.22,-0.176
-1.091e-04,-0.22,-0.176
-1.088e-04,-0.2,-0.168
-1.085e-04,-0.2,-0.168
-1.082e-04,-0.2,-0.16
-1.078e-04,-0.18,-0.152
-1.075e-04,-0.18,-0.144
-1.072e-04,-0.18,-0.144
-1.069e-04,-0.16,-0.144
-1.066e-04,-0.14,-0.128
-1.062e-04,-0.14,-0.12
-1.059e-04,-0.14,-0.12
-1.056e-04,-0.12,-0.12
-1.053e-04,-0.12,-0.104
-1.050e-04,-0.12,-0.096
-1.046e-04,-0.1,-0.096
-1.043e-04,-0.1,-0.088
-1.040e-04,-0.08,-0.08
-1.037e-04,-0.06,-0.072
-1.034e-04,-0.06,-0.064
-1.030e-04,-0.06,-0.064
-1.027e-04,-0.04,-0.056
-1.024e-04,-0.04,-0.048
-1.021e-04,-0.02,-0.04
-1.018e-04,-0.02,-0.04
-1.014e-04,0,-0.032
-1.011e-04,0,-0.024
-1.008e-04,0.02,-0.016
-1.005e-04,0.02,-0.008
-1.002e-04,0.04,-0.008
-9.984e-05,0.04,0
-9.952e-05,0.06,0.008
-9.920e-05,0.06,0.016
-9.888e-05,0.08,0.024
-9.856e-05,0.08,0.024
-9.824e-05,0.1,0.032
-9.792e-05,0.1,0.04
-9.760e-05,0.1,0.048
-9.728e-05,0.12,0.048
-9.696e-05,0.14,0.064
-9.664e-05,0.14,0.064
-9.632e-05,0.14,0.072
-9.600e-05,0.16,0.08
-9.568e-05,0.16,0.08
-9.536e-05,0.18,0.088
-9.504e-05,0.18,0.096
-9.472e-05,0.18,0.104
-9.440e-05,0.2,0.112
-9.408e-05,0.2,0.112
-9.376e-05,0.22,0.12
-9.344e-05,0.22,0.128
-9.312e-05,0.22,0.136
-9.280e-05,0.22,0.144
-9.248e-05,0.26,0.152
-9.216e-05,0.26,0.152
-9.184e-05,0.26,0.16
-9.152e-05,0.28,0.168
-9.120e-05,0.28,0.168
-9.088e-05,0.28,0.176
-9.056e-05,0.28,0.184
-9.024e-05,0.3,0.184
-8.992e-05,0.3,0.192
-8.960e-05,0.32,0.2
-8.928e-05,0.32,0.2
-8.896e-05,0.34,0.208
-8.864e-05,0.34,0.208
-8.832e-05,0.36,0.216
-8.800e-05,0.36,0.216
-8.768e-05,0.36,0.224
-8.736e-05,0.38,0.232
-8.704e-05,0.38,0.24
-8.672e-05,0.38,0.24
-8.640e-05,0.4,0.248
-8.608e-05,0.4,0.248
-8.576e-05,0.4,0.256
-8.544e-05,0.4,0.256
-8.512e-05,0.42,0.264
-8.480e-05,0.42,0.264
-8.448e-05,0.42,0.272
-8.416e-05,0.44,0.272
-8.384e-05,0.44,0.28
-8.352e-05,0.44,0.28
-8.320e-05,0.44,0.28
-8.288e-05,0.44,0.288
-8.256e-05,0.46,0.288
-8.224e-05,0.46,0.296
-8.192e-05,0.46,0.296
-8.160e-05,0.46,0.296
-8.128e-05,0.46,0.304
-8.096e-05,0.48,0.304
-8.064e-05,0.48,0.304
-8.032e-05,0.48,0.312
-8.000e-05,0.48,0.312
-7.968e-05,0.48,0.32
-7.936e-05,0.48,0.32
-7.904e-05,0.48,0.32
-7.872e-05,0.48,0.32
-7.840e-05,0.5,0.32
-7.808e-05,0.5,0.32
-7.776e-05,0.5,0.32
-7.744e-05,0.5,0.328
-7.712e-05,0.5,0.328
-7.680e-05,0.5,0.328
-7.648e-05,0.48,0.328
-7.616e-05,0.5,0.328
-7.584e-05,0.5,0.328
-7.552e-05,0.5,0.328
-7.520e-05,0.5,0.328
-7.488e-05,0.5,0.328
-7.456e-05,0.5,0.328
-7.424e-05,0.48,0.328
-7.392e-05,0.5,0.328
-7.360e-05,0.5,0.328
-7.328e-05,0.5,0.328
-7.296e-05,0.5,0.32
-7.264e-05,0.5,0.328
-7.232e-05,0.48,0.328
-7.200e-05,0.48,0.328
-7.168e-05,0.48,0.328
-7.136e-05,0.48,0.328
-7.104e-05,0.48,0.32
-7.072e-05,0.48,0.328
-7.040e-05,0.48,0.32
-7.008e-05,0.48,0.32
-6.976e-05,0.46,0.32
-6.944e-05,0.46,0.312
-6.912e-05,0.46,0.32
-6.880e-05,0.46,0.304
-6.848e-05,0.44,0.312
-6.816e-05,0.44,0.312
-6.784e-05,0.44,0.304
-6.752e-05,0.44,0.296
-6.720e-05,0.44,0.296
-6.688e-05,0.44,0.296
-6.656e-05,0.42,0.296
-6.624e-05,0.42,0.288
-6.592e-05,0.42,0.288
-6.560e-05,0.4,0.288
-6.528e-05,0.4,0.28
-6.496e-05,0.4,0.28
-6.464e-05,0.4,0.272
-6.432e-05,0.38,0.264
-6.400e-05,0.38,0.264
-6.368e-05,0.38,0.264
-6.336e-05,0.36,0.264
-6.304e-05,0.36,0.256
-6.272e-05,0.34,0.248
-6.240e-05,0.34,0.24
-6.208e-05,0.34,0.24
-6.176e-05,0.32,0.232
-6.144e-05,0.32,0.232
-6.112e-05,0.32,0.224
-6.080e-05,0.3,0.216
-6.048e-05,0.3,0.216
-6.016e-05,0.28,0.208
-5.984e-05,0.28,0.208
-5.952e-05,0.28,0.2
-5.920e-05,0.26,0.2
-5.888e-05,0.26,0.192
-5.856e-05,0.24,0.184
-5.824e-05,0.24,0.176
-5.792e-05,0.22,0.176
-5.760e-05,0.22,0.168
-5.728e-05,0.22,0.16
-5.696e-05,0.2,0.152
-5.664e-05,0.2,0.152
-5.632e-05,0.2,0.144
-5.600e-05,0.18,0.136
-5.568e-05,0.18,0.136
-5.536e-05,0.16,0.128
-5.504e-05,0.16,0.12
-5.472e-05,0.14,0.112
-5.440e-05,0.14,0.112
-5.408e-05,0.12,0.104
-5.376e-05,0.12,0.096
-5.344e-05,0.1,0.088
-5.312e-05,0.1,0.08
-5.280e-05,0.08,0.08
-5.248e-05,0.08,0.072
-5.216e-05,0.06,0.056
-5.184e-05,0.06,0.056
-5.152e-05,0.06,0.048
-5.120e-05,0.04,0.048
-5.088e-05,0.04,0.032
-5.056e-05,0.02,0.032
-5.024e-05,0,0.024
-4.992e-05,0,0.016
-4.960e-05,0,0.008
-4.928e-05,-0.04,0
-4.896e-05,-0.02,0
-4.864e-05,-0.04,-0.008
-4.832e-05,-0.04,-0.016
-4.800e-05,-0.06,-0.024
-4.768e-05,-0.06,-0.024
-4.736e-05,-0.06,-0.032
-4.704e-05,-0.08,-0.04
-4.672e-05,-0.1,-0.048
-4.640e-05,-0.1,-0.048
-4.608e-05,-0.1,-0.056
-4.576e-05,-0.14,-0.064
-4.544e-05,-0.14,-0.072
-4.512e-05,-0.14,-0.08
-4.480e-05,-0.16,-0.088
-4.448e-05,-0.16,-0.088
-4.416e-05,-0.16,-0.096
-4.384e-05,-0.18,-0.104
-4.352e-05,-0.18,-0.104
-4.320e-05,-0.2,-0.112
-4.288e-05,-0.2,-0.12
-4.256e-05,-0.2,-0.128
-4.224e-05,-0.22,-0.128
-4.192e-05,-0.22,-0.136
-4.160e-05,-0.24,-0.144
-4.128e-05,-0.24,-0.152
-4.096e-05,-0.24,-0.152
-4.064e-05,-0.24,-0.16
-4.032e-05,-0.26,-0.16
-4.000e-05,-0.28,-0.168
-3.968e-05,-0.28,-0.176
-3.936e-05,-0.28,-0.184
