capacitor_data_0412/TEK00106.CSV

Model,TBS2074B
Firmware Version,v1.32.136

Point Format,Y,
Horizontal Units,S,
Horizontal Scale,0.1,
Sample Interval,0.0008,
Filter Frequency,2e+08,
Record Length,2000,
Gating,0.0% to 100.0%,0.0% to 100.0%
Probe Attenuation,1,1
Vertical Units,V,V
Vertical Offset,0,0
Vertical Scale,2,2
Label,,
TIME,CH1,CH2
-8.000e-01,-1.12,-0.76
-7.992e-01,-1.04,-0.76
-7.984e-01,-0.88,-0.6
-7.976e-01,-0.72,-0.52
-7.968e-01,-0.64,-0.44
-7.960e-01,-0.48,-0.28
-7.952e-01,-0.32,-0.2
-7.944e-01,-0.16,-0.12
-7.936e-01,0,-0.04
-7.928e-01,0.16,0.04
-7.920e-01,0.24,0.2
-7.912e-01,0.32,0.28
-7.904e-01,0.56,0.36
-7.896e-01,0.72,0.44
-7.888e-01,0.8,0.52
-7.880e-01,0.96,0.68
-7.872e-01,1.04,0.76
-7.864e-01,1.2,0.84
-7.856e-01,1.36,0.92
-7.848e-01,1.52,1
-7.840e-01,1.6,1
-7.832e-01,1.76,1.16
-7.824e-01,1.84,1.16
-7.816e-01,1.92,1.32
-7.808e-01,2.08,1.4
-7.800e-01,2.16,1.48
-7.792e-01,2.24,1.56
-7.784e-01,2.32,1.64
-7.776e-01,2.48,1.64
-7.768e-01,2.56,1.72
-7.760e-01,2.64,1.72
-7.752e-01,2.64,1.8
-7.744e-01,2.72,1.8
-7.736e-01,2.72,1.88
-7.728e-01,2.8,1.88
-7.720e-01,2.88,1.88
-7.712e-01,2.88,1.96
-7.704e-01,2.88,1.96
-7.696e-01,2.96,1.96
-7.688e-01,2.96,1.96
-7.680e-01,2.88,1.96
-7.672e-01,2.96,1.96
-7.664e-01,2.88,1.96
-7.656e-01,2.88,1.96
-7.648e-01,2.88,1.88
-7.640e-01,2.8,1.88
-7.632e-01,2.8,1.88
-7.624e-01,2.72,1.88
-7.616e-01,2.64,1.8
-7.608e-01,2.64,1.8
-7.600e-01,2.56,1.72
-7.592e-01,2.48,1.72
-7.584e-01,2.4,1.64
-7.576e-01,2.32,1.56
-7.568e-01,2.16,1.48
-7.560e-01,2.08,1.48
-7.552e-01,2,1.4
-7.544e-01,1.84,1.24
-7.536e-01,1.76,1.24
-7.528e-01,1.6,1.08
-7.520e-01,1.52,1.08
-7.512e-01,1.36,0.92
-7.504e-01,1.28,0.92
-7.496e-01,1.12,0.76
-7.488e-01,1.04,0.68
-7.480e-01,0.88,0.6
-7.472e-01,0.72,0.52
-7.464e-01,0.56,0.44
-7.456e-01,0.48,0.28
-7.448e-01,0.32,0.2
-7.440e-01,0.08,0.12
-7.432e-01,-0.08,0.04
-7.424e-01,-0.16,-0.12
-7.416e-01,-0.32,-0.2
-7.408e-01,-0.4,-0.28
-7.400e-01,-0.56,-0.36
-7.392e-01,-0.72,-0.44
-7.384e-01,-0.88,-0.52
-7.376e-01,-0.96,-0.68
-7.368e-01,-1.2,-0.76
-7.360e-01,-1.28,-0.92
-7.352e-01,-1.36,-0.92
-7.344e-01,-1.44,-1
-7.336e-01,-1.6,-1.08
-7.328e-01,-1.76,-1.16
-7.320e-01,-1.84,-1.24
-7.312e-01,-2,-1.32
-7.304e-01,-2.08,-1.4
-7.296e-01,-2.16,-1.48
-7.288e-01,-2.32,-1.48
-7.280e-01,-2.4,-1.56
-7.272e-01,-2.48,-1.64
-7.264e-01,-2.56,-1.72
-7.256e-01,-2.56,-1.72
-7.248e-01,-2.64,-1.8
-7.240e-01,-2.64,-1.8
-7.232e-01,-2.72,-1.88
-7.224e-01,-2.8,-1.88
-7.216e-01,-2.8,-1.88
-7.208e-01,-2.8,-1.88
-7.200e-01,-2.88,-1.96
-7.192e-01,-2.88,-1.96
-7.184e-01,-2.88,-1.96
-7.176e-01,-2.88,-1.96
-7.168e-01,-2.8,-1.96
-7.160e-01,-2.8,-1.88
-7.152e-01,-2.8,-1.96
-7.144e-01,-2.8,-1.88
-7.136e-01,-2.72,-1.88
-7.128e-01,-2.72,-1.88
-7.120e-01,-2.64,-1.88
-7.112e-01,-2.64,-1.72
-7.104e-01,-2.56,-1.72
-7.096e-01,-2.48,-1.64
-7.088e-01,-2.4,-1.64
-7.080e-01,-2.24,-1.48
-7.072e-01,-2.16,-1.48
-7.064e-01,-2.08,-1.4
-7.056e-01,-2,-1.4
-7.048e-01,-1.84,-1.24
-7.040e-01,-1.76,-1.24
-7.032e-01,-1.68,-1.16
-7.024e-01,-1.52,-1.08
-7.016e-01,-1.44,-1
-7.008e-01,-1.28,-0.84
-7.000e-01,-1.12,-0.76
-6.992e-01,-1.04,-0.68
-6.984e-01,-0.88,-0.6
-6.976e-01,-0.72,-0.52
-6.968e-01,-0.56,-0.44
-6.960e-01,-0.48,-0.28
-6.952e-01,-0.32,-0.28
-6.944e-01,-0.16,-0.12
-6.936e-01,-0.08,-0.04
-6.928e-01,0.08,0.04
-6.920e-01,0.24,0.2
-6.912e-01,0.4,0.28
-6.904e-01,0.56,0.36
-6.896e-01,0.72,0.44
-6.888e-01,0.8,0.52
-6.880e-01,0.96,0.68
-6.872e-01,1.04,0.76
-6.864e-01,1.2,0.84
-6.856e-01,1.36,0.92
-6.848e-01,1.52,1
-6.840e-01,1.6,1
-6.832e-01,1.76,1.16
-6.824e-01,1.84,1.24
-6.816e-01,2,1.24
-6.808e-01,2,1.4
-6.800e-01,2.16,1.48
-6.792e-01,2.24,1.48
-6.784e-01,2.32,1.56
-6.776e-01,2.48,1.64
-6.768e-01,2.56,1.72
-6.760e-01,2.56,1.72
-6.752e-01,2.64,1.8
-6.744e-01,2.72,1.8
-6.736e-01,2.8,1.88
-6.728e-01,2.8,1.8
-6.720e-01,2.8,1.88
-6.712e-01,2.88,1.96
-6.704e-01,2.88,1.96
-6.696e-01,2.96,1.96
-6.688e-01,2.96,1.96
-6.680e-01,2.96,1.96
-6.672e-01,2.88,1.88
-6.664e-01,2.88,1.96
-6.656e-01,2.88,1.96
-6.648e-01,2.88,1.96
-6.640e-01,2.88,1.88
-6.632e-01,2.8,1.88
-6.624e-01,2.72,1.88
-6.616e-01,2.72,1.8
-6.608e-01,2.64,1.8
-6.600e-01,2.56,1.72
-6.592e-01,2.48,1.64
-6.584e-01,2.4,1.64
-6.576e-01,2.32,1.56
-6.568e-01,2.16,1.48
-6.560e-01,2.08,1.4
-6.552e-01,2,1.32
-6.544e-01,1.92,1.32
-6.536e-01,1.76,1.24
-6.528e-01,1.68,1.16
-6.520e-01,1.52,1
-6.512e-01,1.36,0.92
-6.504e-01,1.28,0.84
-6.496e-01,1.12,0.76
-6.488e-01,0.96,0.68
-6.480e-01,0.88,0.6
-6.472e-01,0.72,0.52
-6.464e-01,0.64,0.44
-6.456e-01,0.4,0.36
-6.448e-01,0.32,0.12
-6.440e-01,0.16,0.12
-6.432e-01,0,0.04
-6.424e-01,-0.16,-0.04
-6.416e-01,-0.24,-0.2
-6.408e-01,-0.4,-0.28
-6.400e-01,-0.56,-0.36
-6.392e-01,-0.72,-0.44
-6.384e-01,-0.8,-0.6
-6.376e-01,-0.96,-0.68
-6.368e-01,-1.12,-0.76
-6.360e-01,-1.2,-0.84
-6.352e-01,-1.36,-0.92
-6.344e-01,-1.52,-1
-6.336e-01,-1.6,-1.08
-6.328e-01,-1.76,-1.16
-6.320e-01,-1.84,-1.24
-6.312e-01,-1.92,-1.32
-6.304e-01,-2.08,-1.4
-6.296e-01,-2.16,-1.48
-6.288e-01,-2.24,-1.48
-6.280e-01,-2.32,-1.56
-6.272e-01,-2.4,-1.64
-6.264e-01,-2.48,-1.64
-6.256e-01,-2.56,-1.72
-6.248e-01,-2.64,-1.8
-6.240e-01,-2.72,-1.8
-6.232e-01,-2.72,-1.88
-6.224e-01,-2.8,-1.96
-6.216e-01,-2.8,-1.88
-6.208e-01,-2.8,-1.96
-6.200e-01,-2.88,-1.96
-6.192e-01,-2.8,-1.96
-6.184e-01,-2.8,-1.96
-6.176e-01,-2.88,-1.96
-6.168e-01,-2.8,-1.96
-6.160e-01,-2.8,-1.96
-6.152e-01,-2.8,-1.96
-6.144e-01,-2.8,-1.88
-6.136e-01,-2.72,-1.88
-6.128e-01,-2.72,-1.8
-6.120e-01,-2.64,-1.88
-6.112e-01,-2.56,-1.72
-6.104e-01,-2.48,-1.72
-6.096e-01,-2.48,-1.64
-6.088e-01,-2.4,-1.64
-6.080e-01,-2.24,-1.56
-6.072e-01,-2.16,-1.48
-6.064e-01,-2.08,-1.4
-6.056e-01,-2,-1.32
-6.048e-01,-1.84,-1.32
-6.040e-01,-1.84,-1.24
-6.032e-01,-1.68,-1.16
-6.024e-01,-1.52,-1.08
-6.016e-01,-1.36,-1
-6.008e-01,-1.28,-0.92
-6.000e-01,-1.12,-0.84
-5.992e-01,-1.04,-0.76
-5.984e-01,-0.88,-0.6
-5.976e-01,-0.72,-0.52
-5.968e-01,-0.64,-0.44
-5.960e-01,-0.48,-0.36
-5.952e-01,-0.32,-0.28
-5.944e-01,-0.16,-0.2
-5.936e-01,0,-0.04
-5.928e-01,0.08,0.04
-5.920e-01,0.24,0.2
-5.912e-01,0.4,0.28
-5.904e-01,0.56,0.28
-5.896e-01,0.72,0.44
-5.888e-01,0.88,0.52
-5.880e-01,0.96,0.6
-5.872e-01,1.12,0.76
-5.864e-01,1.28,0.84
-5.856e-01,1.36,0.92
-5.848e-01,1.52,1
-5.840e-01,1.6,1.08
-5.832e-01,1.76,1.16
-5.824e-01,1.84,1.24
-5.816e-01,2,1.32
-5.808e-01,2.08,1.4
-5.800e-01,2.16,1.48
-5.792e-01,2.24,1.56
-5.784e-01,2.4,1.56
-5.776e-01,2.48,1.64
-5.768e-01,2.56,1.72
-5.760e-01,2.56,1.72
-5.752e-01,2.64,1.8
-5.744e-01,2.72,1.8
-5.736e-01,2.8,1.88
-5.728e-01,2.8,1.88
-5.720e-01,2.88,1.96
-5.712e-01,2.88,1.96
-5.704e-01,2.88,1.96
-5.696e-01,2.88,1.96
-5.688e-01,2.96,1.96
-5.680e-01,2.96,1.96
-5.672e-01,2.96,1.96
-5.664e-01,2.88,1.96
-5.656e-01,2.88,1.96
-5.648e-01,2.8,1.96
-5.640e-01,2.72,1.88
-5.632e-01,2.72,1.88
-5.624e-01,2.72,1.8
-5.616e-01,2.64,1.8
-5.608e-01,2.64,1.8
-5.600e-01,2.56,1.72
-5.592e-01,2.48,1.72
-5.584e-01,2.32,1.64
-5.576e-01,2.24,1.56
-5.568e-01,2.16,1.48
-5.560e-01,2.08,1.4
-5.552e-01,2,1.32
-5.544e-01,1.84,1.32
-5.536e-01,1.76,1.24
-5.528e-01,1.6,1.16
-5.520e-01,1.52,1
-5.512e-01,1.36,1
-5.504e-01,1.28,0.84
-5.496e-01,1.12,0.76
-5.488e-01,0.96,0.68
-5.480e-01,0.88,0.6
-5.472e-01,0.72,0.44
-5.464e-01,0.56,0.44
-5.456e-01,0.48,0.36
-5.448e-01,0.32,0.28
-5.440e-01,0.16,0.12
-5.432e-01,0,0.04
-5.424e-01,-0.16,-0.12
-5.416e-01,-0.32,-0.12
-5.408e-01,-0.4,-0.28
-5.400e-01,-0.56,-0.36
-5.392e-01,-0.72,-0.44
-5.384e-01,-0.8,-0.6
-5.376e-01,-0.96,-0.6
-5.368e-01,-1.12,-0.76
-5.360e-01,-1.28,-0.84
-5.352e-01,-1.36,-0.92
-5.344e-01,-1.44,-1
-5.336e-01,-1.6,-1.08
-5.328e-01,-1.76,-1.16
-5.320e-01,-1.84,-1.24
-5.312e-01,-1.92,-1.32
-5.304e-01,-2.08,-1.4
-5.296e-01,-2.16,-1.48
-5.288e-01,-2.24,-1.48
-5.280e-01,-2.4,-1.56
-5.272e-01,-2.4,-1.64
-5.264e-01,-2.48,-1.64
-5.256e-01,-2.56,-1.72
-5.248e-01,-2.64,-1.8
-5.240e-01,-2.72,-1.8
-5.232e-01,-2.72,-1.88
-5.224e-01,-2.8,-1.88
-5.216e-01,-2.8,-1.88
-5.208e-01,-2.88,-1.88
-5.200e-01,-2.8,-1.96
-5.192e-01,-2.88,-1.96
-5.184e-01,-2.88,-1.96
-5.176e-01,-2.8,-1.96
-5.168e-01,-2.88,-1.96
-5.160e-01,-2.8,-1.88
-5.152e-01,-2.8,-1.88
-5.144e-01,-2.8,-1.88
-5.136e-01,-2.72,-1.88
-5.128e-01,-2.72,-1.8
-5.120e-01,-2.64,-1.8
-5.112e-01,-2.56,-1.72
-5.104e-01,-2.56,-1.72
-5.096e-01,-2.4,-1.64
-5.088e-01,-2.4,-1.56
-5.080e-01,-2.32,-1.56
-5.072e-01,-2.16,-1.48
-5.064e-01,-2.08,-1.4
-5.056e-01,-2,-1.32
-5.048e-01,-1.84,-1.32
-5.040e-01,-1.76,-1.24
-5.032e-01,-1.6,-1.16
-5.024e-01,-1.52,-1.08
-5.016e-01,-1.36,-0.92
-5.008e-01,-1.28,-0.92
-5.000e-01,-1.12,-0.76
-4.992e-01,-1.04,-0.68
-4.984e-01,-0.88,-0.6
-4.976e-01,-0.72,-0.52
-4.968e-01,-0.56,-0.44
-4.960e-01,-0.48,-0.36
-4.952e-01,-0.32,-0.28
-4.944e-01,-0.16,-0.12
-4.936e-01,0,-0.04
-4.928e-01,0.08,0.04
-4.920e-01,0.24,0.12
-4.912e-01,0.4,0.28
-4.904e-01,0.56,0.28
-4.896e-01,0.72,0.44
-4.888e-01,0.88,0.52
-4.880e-01,0.96,0.68
-4.872e-01,1.12,0.76
-4.864e-01,1.2,0.84
-4.856e-01,1.36,0.92
-4.848e-01,1.52,1
-4.840e-01,1.6,1.08
-4.832e-01,1.76,1.16
-4.824e-01,1.84,1.24
-4.816e-01,2,1.32
-4.808e-01,2.08,1.4
-4.800e-01,2.16,1.48
-4.792e-01,2.24,1.56
-4.784e-01,2.4,1.64
-4.776e-01,2.48,1.64
-4.768e-01,2.48,1.72
-4.760e-01,2.56,1.72
-4.752e-01,2.64,1.8
-4.744e-01,2.72,1.8
-4.736e-01,2.8,1.88
-4.728e-01,2.8,1.96
-4.720e-01,2.88,1.96
-4.712e-01,2.88,1.96
-4.704e-01,2.96,1.96
-4.696e-01,2.88,1.96
-4.688e-01,2.96,1.96
-4.680e-01,2.96,1.96
-4.672e-01,2.88,1.96
-4.664e-01,2.88,1.96
-4.656e-01,2.88,1.96
-4.648e-01,2.88,1.96
-4.640e-01,2.8,1.88
-4.632e-01,2.72,1.88
-4.624e-01,2.72,1.88
-4.616e-01,2.72,1.8
-4.608e-01,2.56,1.8
-4.600e-01,2.56,1.72
-4.592e-01,2.48,1.72
-4.584e-01,2.4,1.64
-4.576e-01,2.32,1.56
-4.568e-01,2.24,1.48
-4.560e-01,2.08,1.4
-4.552e-01,2,1.32
-4.544e-01,1.84,1.24
-4.536e-01,1.68,1.16
-4.528e-01,1.68,1.16
-4.520e-01,1.52,1
-4.512e-01,1.36,0.92
-4.504e-01,1.2,0.92
-4.496e-01,1.12,0.76
-4.488e-01,0.96,0.68
-4.480e-01,0.8,0.6
-4.472e-01,0.72,0.52
-4.464e-01,0.56,0.36
-4.456e-01,0.48,0.36
-4.448e-01,0.32,0.2
-4.440e-01,0.16,0.04
-4.432e-01,0,0.04
-4.424e-01,-0.16,-0.04
-4.416e-01,-0.32,-0.2
-4.408e-01,-0.48,-0.28
-4.400e-01,-0.56,-0.36
-4.392e-01,-0.72,-0.44
-4.384e-01,-0.8,-0.6
-4.376e-01,-0.96,-0.68
-4.368e-01,-1.2,-0.76
-4.360e-01,-1.2,-0.84
-4.352e-01,-1.36,-0.92
-4.344e-01,-1.52,-1
-4.336e-01,-1.6,-1.08
-4.328e-01,-1.76,-1.16
-4.320e-01,-1.84,-1.24
-4.312e-01,-1.92,-1.4
-4.304e-01,-2.08,-1.4
-4.296e-01,-2.16,-1.48
-4.288e-01,-2.32,-1.56
-4.280e-01,-2.32,-1.56
-4.272e-01,-2.48,-1.64
-4.264e-01,-2.48,-1.64
-4.256e-01,-2.56,-1.72
-4.248e-01,-2.64,-1.72
-4.240e-01,-2.72,-1.8
-4.232e-01,-2.72,-1.8
-4.224e-01,-2.72,-1.88
-4.216e-01,-2.8,-1.88
-4.208e-01,-2.8,-1.88
-4.200e-01,-2.8,-1.96
-4.192e-01,-2.88,-1.96
-4.184e-01,-2.96,-1.96
-4.176e-01,-2.8,-1.96
-4.168e-01,-2.8,-1.96
-4.160e-01,-2.8,-1.96
-4.152e-01,-2.8,-1.88
-4.144e-01,-2.8,-1.88
-4.136e-01,-2.72,-1.88
-4.128e-01,-2.72,-1.8
-4.120e-01,-2.64,-1.8
-4.112e-01,-2.56,-1.72
-4.104e-01,-2.48,-1.72
-4.096e-01,-2.48,-1.64
-4.088e-01,-2.4,-1.64
-4.080e-01,-2.32,-1.56
-4.072e-01,-2.16,-1.48
-4.064e-01,-2.08,-1.4
-4.056e-01,-2,-1.4
-4.048e-01,-1.84,-1.32
-4.040e-01,-1.76,-1.24
-4.032e-01,-1.68,-1.16
-4.024e-01,-1.52,-1
-4.016e-01,-1.44,-1
-4.008e-01,-1.28,-0.92
-4.000e-01,-1.12,-0.76
-3.992e-01,-1.04,-0.68
-3.984e-01,-0.88,-0.6
-3.976e-01,-0.72,-0.52
-3.968e-01,-0.56,-0.44
-3.960e-01,-0.56,-0.28
-3.952e-01,-0.32,-0.28
-3.944e-01,-0.16,-0.12
-3.936e-01,0,-0.04
-3.928e-01,0.16,0.04
-3.920e-01,0.24,0.2
-3.912e-01,0.4,0.28
-3.904e-01,0.48,0.36
-3.896e-01,0.72,0.52
-3.888e-01,0.8,0.52
-3.880e-01,0.96,0.68
-3.872e-01,1.12,0.76
-3.864e-01,1.28,0.84
-3.856e-01,1.36,0.92
-3.848e-01,1.52,1
-3.840e-01,1.6,1.08
-3.832e-01,1.76,1.16
-3.824e-01,1.84,1.24
-3.816e-01,2,1.32
-3.808e-01,2.08,1.4
-3.800e-01,2.16,1.4
-3.792e-01,2.32,1.56
-3.784e-01,2.32,1.56
-3.776e-01,2.48,1.64
-3.768e-01,2.56,1.72
-3.760e-01,2.64,1.72
-3.752e-01,2.72,1.8
-3.744e-01,2.72,1.8
-3.736e-01,2.8,1.8
-3.728e-01,2.8,1.88
-3.720e-01,2.88,1.88
-3.712e-01,2.88,1.96
-3.704e-01,2.88,1.96
-3.696e-01,2.96,1.96
-3.688e-01,2.96,1.96
-3.680e-01,2.96,1.96
-3.672e-01,2.96,1.96
-3.664e-01,2.96,1.96
-3.656e-01,2.88,1.96
-3.648e-01,2.88,1.96
-3.640e-01,2.88,1.88
-3.632e-01,2.72,1.88
-3.624e-01,2.72,1.88
-3.616e-01,2.64,1.8
-3.608e-01,2.64,1.8
-3.600e-01,2.48,1.64
-3.592e-01,2.48,1.64
-3.584e-01,2.4,1.64
-3.576e-01,2.24,1.56
-3.568e-01,2.16,1.48
-3.560e-01,2.08,1.4
-3.552e-01,2,1.32
-3.544e-01,1.84,1.24
-3.536e-01,1.76,1.24
-3.528e-01,1.6,1.16
-3.520e-01,1.52,1
-3.512e-01,1.36,0.92
-3.504e-01,1.28,0.84
-3.496e-01,1.12,0.84
-3.488e-01,0.96,0.68
-3.480e-01,0.88,0.6
-3.472e-01,0.72,0.52
-3.464e-01,0.56,0.44
-3.456e-01,0.4,0.28
-3.448e-01,0.24,0.2
-3.440e-01,0.16,0.04
-3.432e-01,0,0.04
-3.424e-01,-0.16,-0.12
-3.416e-01,-0.24,-0.2
-3.408e-01,-0.48,-0.28
-3.400e-01,-0.56,-0.36
-3.392e-01,-0.72,-0.44
-3.384e-01,-0.88,-0.52
-3.376e-01,-0.96,-0.68
-3.368e-01,-1.12,-0.76
-3.360e-01,-1.2,-0.84
-3.352e-01,-1.36,-0.92
-3.344e-01,-1.44,-1.08
-3.336e-01,-1.6,-1.08
-3.328e-01,-1.76,-1.16
-3.320e-01,-1.84,-1.24
-3.312e-01,-1.92,-1.32
-3.304e-01,-2.08,-1.4
-3.296e-01,-2.16,-1.48
-3.288e-01,-2.24,-1.48
-3.280e-01,-2.32,-1.56
-3.272e-01,-2.48,-1.64
-3.264e-01,-2.48,-1.72
-3.256e-01,-2.56,-1.8
-3.248e-01,-2.64,-1.8
-3.240e-01,-2.64,-1.8
-3.232e-01,-2.72,-1.88
-3.224e-01,-2.8,-1.88
-3.216e-01,-2.8,-1.88
-3.208e-01,-2.8,-1.96
-3.200e-01,-2.8,-1.96
-3.192e-01,-2.88,-1.96
-3.184e-01,-2.88,-1.96
-3.176e-01,-2.88,-1.96
-3.168e-01,-2.8,-1.96
-3.160e-01,-2.8,-1.96
-3.152e-01,-2.8,-1.88
-3.144e-01,-2.8,-1.88
-3.136e-01,-2.72,-1.88
-3.128e-01,-2.72,-1.8
-3.120e-01,-2.64,-1.8
-3.112e-01,-2.56,-1.72
-3.104e-01,-2.56,-1.64
-3.096e-01,-2.48,-1.64
-3.088e-01,-2.32,-1.64
-3.080e-01,-2.24,-1.56
-3.072e-01,-2.16,-1.48
-3.064e-01,-2.08,-1.4
-3.056e-01,-2,-1.32
-3.048e-01,-1.92,-1.24
-3.040e-01,-1.76,-1.24
-3.032e-01,-1.6,-1.16
-3.024e-01,-1.52,-1.08
-3.016e-01,-1.36,-0.92
-3.008e-01,-1.28,-0.92
-3.000e-01,-1.12,-0.84
-2.992e-01,-1.04,-0.76
-2.984e-01,-0.88,-0.68
-2.976e-01,-0.8,-0.52
-2.968e-01,-0.64,-0.44
-2.960e-01,-0.48,-0.36
-2.952e-01,-0.32,-0.28
-2.944e-01,-0.16,-0.12
-2.936e-01,-0.08,-0.04
-2.928e-01,0.08,0.04
-2.920e-01,0.24,0.2
-2.912e-01,0.4,0.28
-2.904e-01,0.56,0.36
-2.896e-01,0.72,0.44
-2.888e-01,0.8,0.6
-2.880e-01,0.96,0.68
-2.872e-01,1.04,0.68
-2.864e-01,1.2,0.84
-2.856e-01,1.36,0.92
-2.848e-01,1.52,0.92
-2.840e-01,1.6,1.08
-2.832e-01,1.76,1.16
-2.824e-01,1.84,1.24
-2.816e-01,1.92,1.32
-2.808e-01,2,1.4
-2.800e-01,2.16,1.48
-2.792e-01,2.24,1.56
-2.784e-01,2.4,1.56
-2.776e-01,2.48,1.64
-2.768e-01,2.56,1.72
-2.760e-01,2.64,1.72
-2.752e-01,2.64,1.8
-2.744e-01,2.72,1.8
-2.736e-01,2.72,1.88
-2.728e-01,2.8,1.88
-2.720e-01,2.88,1.88
-2.712e-01,2.88,1.96
-2.704e-01,2.88,1.96
-2.696e-01,2.88,1.96
-2.688e-01,2.96,1.96
-2.680e-01,2.96,1.96
-2.672e-01,2.96,1.96
-2.664e-01,2.88,1.96
-2.656e-01,2.88,1.96
-2.648e-01,2.88,1.88
-2.640e-01,2.88,1.96
-2.632e-01,2.8,1.88
-2.624e-01,2.72,1.8
-2.616e-01,2.72,1.8
-2.608e-01,2.64,1.8
-2.600e-01,2.56,1.72
-2.592e-01,2.48,1.64
-2.584e-01,2.4,1.64
-2.576e-01,2.32,1.56
-2.568e-01,2.16,1.48
-2.560e-01,2.08,1.4
-2.552e-01,2,1.32
-2.544e-01,1.84,1.24
-2.536e-01,1.76,1.16
-2.528e-01,1.6,1.16
-2.520e-01,1.52,1.08
-2.512e-01,1.36,1
-2.504e-01,1.28,0.92
-2.496e-01,1.12,0.76
-2.488e-01,0.96,0.68
-2.480e-01,0.88,0.6
-2.472e-01,0.72,0.52
-2.464e-01,0.56,0.44
-2.456e-01,0.4,0.28
-2.448e-01,0.24,0.2
-2.440e-01,0.16,0.12
-2.432e-01,-0.08,0.04
-2.424e-01,-0.16,-0.04
-2.416e-01,-0.32,-0.2
-2.408e-01,-0.48,-0.28
-2.400e-01,-0.56,-0.36
-2.392e-01,-0.72,-0.44
-2.384e-01,-0.88,-0.52
-2.376e-01,-0.96,-0.68
-2.368e-01,-1.12,-0.76
-2.360e-01,-1.28,-0.84
-2.352e-01,-1.36,-0.92
-2.344e-01,-1.52,-1
-2.336e-01,-1.68,-1.08
-2.328e-01,-1.76,-1.16
-2.320e-01,-1.84,-1.24
-2.312e-01,-2,-1.32
-2.304e-01,-2.08,-1.4
-2.296e-01,-2.16,-1.48
-2.288e-01,-2.24,-1.56
-2.280e-01,-2.4,-1.56
-2.272e-01,-2.48,-1.64
-2.264e-01,-2.48,-1.64
-2.256e-01,-2.56,-1.72
-2.248e-01,-2.64,-1.8
-2.240e-01,-2.64,-1.8
-2.232e-01,-2.72,-1.88
-2.224e-01,-2.8,-1.88
-2.216e-01,-2.8,-1.88
-2.208e-01,-2.88,-1.88
-2.200e-01,-2.88,-1.96
-2.192e-01,-2.88,-1.96
-2.184e-01,-2.88,-1.96
-2.176e-01,-2.88,-1.96
-2.168e-01,-2.88,-1.88
-2.160e-01,-2.8,-1.96
-2.152e-01,-2.8,-1.88
-2.144e-01,-2.8,-1.88
-2.136e-01,-2.8,-1.88
-2.128e-01,-2.72,-1.8
-2.120e-01,-2.64,-1.8
-2.112e-01,-2.64,-1.72
-2.104e-01,-2.56,-1.72
-2.096e-01,-2.48,-1.64
-2.088e-01,-2.4,-1.64
-2.080e-01,-2.32,-1.56
-2.072e-01,-2.24,-1.48
-2.064e-01,-2.08,-1.4
-2.056e-01,-2,-1.32
-2.048e-01,-1.84,-1.32
-2.040e-01,-1.76,-1.24
-2.032e-01,-1.6,-1.16
-2.024e-01,-1.52,-1.08
-2.016e-01,-1.44,-1
-2.008e-01,-1.28,-0.84
-2.000e-01,-1.2,-0.76
-1.992e-01,-1.04,-0.68
-1.984e-01,-0.88,-0.6
-1.976e-01,-0.72,-0.52
-1.968e-01,-0.64,-0.44
-1.960e-01,-0.48,-0.36
-1.952e-01,-0.32,-0.28
-1.944e-01,-0.16,-0.12
-1.936e-01,-0.08,-0.04
-1.928e-01,0.08,0.04
-1.920e-01,0.24,0.12
-1.912e-01,0.4,0.28
-1.904e-01,0.56,0.36
-1.896e-01,0.64,0.44
-1.888e-01,0.8,0.52
-1.880e-01,0.96,0.68
-1.872e-01,1.04,0.76
-1.864e-01,1.2,0.84
-1.856e-01,1.36,0.92
-1.848e-01,1.44,1
-1.840e-01,1.6,1.08
-1.832e-01,1.76,1.16
-1.824e-01,1.84,1.24
-1.816e-01,2,1.32
-1.808e-01,2,1.4
-1.800e-01,2.16,1.48
-1.792e-01,2.24,1.56
-1.784e-01,2.4,1.56
-1.776e-01,2.48,1.64
-1.768e-01,2.48,1.72
-1.760e-01,2.64,1.72
-1.752e-01,2.64,1.8
-1.744e-01,2.72,1.8
-1.736e-01,2.8,1.88
-1.728e-01,2.8,1.88
-1.720e-01,2.8,1.96
-1.712e-01,2.88,1.96
-1.704e-01,2.88,1.96
-1.696e-01,2.96,1.96
-1.688e-01,2.88,1.96
-1.680e-01,2.96,1.96
-1.672e-01,2.88,1.96
-1.664e-01,2.96,1.96
-1.656e-01,2.88,1.96
-1.648e-01,2.88,1.88
-1.640e-01,2.8,1.88
-1.632e-01,2.72,1.88
-1.624e-01,2.72,1.88
-1.616e-01,2.72,1.8
-1.608e-01,2.56,1.8
-1.600e-01,2.56,1.72
-1.592e-01,2.48,1.64
-1.584e-01,2.4,1.64
-1.576e-01,2.32,1.56
-1.568e-01,2.24,1.56
-1.560e-01,2.08,1.48
-1.552e-01,2,1.32
-1.544e-01,1.92,1.32
-1.536e-01,1.76,1.16
-1.528e-01,1.6,1.16
-1.520e-01,1.52,1
-1.512e-01,1.36,1
-1.504e-01,1.28,0.84
-1.496e-01,1.12,0.76
-1.488e-01,0.96,0.68
-1.480e-01,0.88,0.6
-1.472e-01,0.72,0.52
-1.464e-01,0.56,0.44
-1.456e-01,0.48,0.28
-1.448e-01,0.32,0.2
-1.440e-01,0.16,0.04
-1.432e-01,0,0.04
-1.424e-01,-0.16,-0.04
-1.416e-01,-0.32,-0.2
-1.408e-01,-0.4,-0.28
-1.400e-01,-0.56,-0.36
-1.392e-01,-0.72,-0.44
-1.384e-01,-0.8,-0.52
-1.376e-01,-0.96,-0.68
-1.368e-01,-1.12,-0.76
-1.360e-01,-1.2,-0.84
-1.352e-01,-1.36,-0.92
-1.344e-01,-1.52,-1
-1.336e-01,-1.6,-1.08
-1.328e-01,-1.68,-1.16
-1.320e-01,-1.84,-1.24
-1.312e-01,-1.92,-1.32
-1.304e-01,-2.08,-1.4
-1.296e-01,-2.16,-1.4
-1.288e-01,-2.32,-1.48
-1.280e-01,-2.4,-1.56
-1.272e-01,-2.4,-1.64
-1.264e-01,-2.56,-1.64
-1.256e-01,-2.56,-1.72
-1.248e-01,-2.64,-1.8
-1.240e-01,-2.72,-1.8
-1.232e-01,-2.72,-1.8
-1.224e-01,-2.8,-1.88
-1.216e-01,-2.88,-1.88
-1.208e-01,-2.8,-1.88
-1.200e-01,-2.88,-1.88
-1.192e-01,-2.8,-1.96
-1.184e-01,-2.8,-1.96
-1.176e-01,-2.88,-1.96
-1.168e-01,-2.88,-1.96
-1.160e-01,-2.8,-1.88
-1.152e-01,-2.8,-1.88
-1.144e-01,-2.8,-1.88
-1.136e-01,-2.72,-1.88
-1.128e-01,-2.72,-1.8
-1.120e-01,-2.64,-1.8
-1.112e-01,-2.64,-1.72
-1.104e-01,-2.48,-1.72
-1.096e-01,-2.48,-1.64
-1.088e-01,-2.4,-1.56
-1.080e-01,-2.32,-1.56
-1.072e-01,-2.16,-1.48
-1.064e-01,-2.08,-1.4
-1.056e-01,-2,-1.32
-1.048e-01,-1.84,-1.32
-1.040e-01,-1.76,-1.16
-1.032e-01,-1.68,-1.16
-1.024e-01,-1.52,-1.08
-1.016e-01,-1.36,-1
-1.008e-01,-1.28,-0.84
-1.000e-01,-1.12,-0.76
-9.920e-02,-0.96,-0.68
-9.840e-02,-0.88,-0.6
-9.760e-02,-0.72,-0.52
-9.680e-02,-0.56,-0.44
-9.600e-02,-0.48,-0.28
-9.520e-02,-0.32,-0.28
-9.440e-02,-0.16,-0.12
-9.360e-02,-0.08,-0.04
-9.280e-02,0.08,0.04
-9.200e-02,0.24,0.2
-9.120e-02,0.4,0.28
-9.040e-02,0.56,0.28
-8.960e-02,0.72,0.44
-8.880e-02,0.8,0.6
-8.800e-02,0.96,0.6
-8.720e-02,1.04,0.76
-8.640e-02,1.2,0.84
-8.560e-02,1.36,0.92
-8.480e-02,1.52,1
-8.400e-02,1.6,1.08
-8.320e-02,1.76,1.16
-8.240e-02,1.84,1.24
-8.160e-02,2,1.32
-8.080e-02,2.08,1.4
-8.000e-02,2.16,1.48
-7.920e-02,2.24,1.56
-7.840e-02,2.32,1.56
-7.760e-02,2.48,1.64
-7.680e-02,2.48,1.72
-7.600e-02,2.64,1.72
-7.520e-02,2.72,1.8
-7.440e-02,2.72,1.8
-7.360e-02,2.8,1.88
-7.280e-02,2.8,1.88
-7.200e-02,2.88,1.88
-7.120e-02,2.88,1.96
-7.040e-02,2.88,1.96
-6.960e-02,2.88,1.96
-6.880e-02,2.96,1.96
-6.800e-02,2.96,1.96
-6.720e-02,2.96,1.96
-6.640e-02,2.96,1.96
