capacitor_data_0412/TEK00049.CSV

Model,TBS2074B
Firmware Version,v1.32.136

Point Format,Y,
Horizontal Units,S,
Horizontal Scale,2e-05,
Sample Interval,1.6e-07,
Filter Frequency,2e+08,
Record Length,2000,
Gating,0.0% to 100.0%,0.0% to 100.0%
Probe Attenuation,1,1
Vertical Units,V,V
Vertical Offset,0,0
Vertical Scale,2,2
Label,,
TIME,CH1,CH2
-1.600e-04,-2.56,-1.76
-1.598e-04,-2.56,-1.76
-1.597e-04,-2.56,-1.76
-1.595e-04,-2.56,-1.76
-1.594e-04,-2.48,-1.76
-1.592e-04,-2.48,-1.68
-1.590e-04,-2.48,-1.76
-1.589e-04,-2.4,-1.68
-1.587e-04,-2.4,-1.68
-1.586e-04,-2.4,-1.68
-1.584e-04,-2.32,-1.68
-1.582e-04,-2.32,-1.6
-1.581e-04,-2.32,-1.6
-1.579e-04,-2.32,-1.6
-1.578e-04,-2.24,-1.6
-1.576e-04,-2.24,-1.6
-1.574e-04,-2.16,-1.52
-1.573e-04,-2.16,-1.6
-1.571e-04,-2.08,-1.52
-1.570e-04,-2.08,-1.52
-1.568e-04,-2,-1.52
-1.566e-04,-2,-1.44
-1.565e-04,-1.92,-1.44
-1.563e-04,-1.92,-1.44
-1.562e-04,-1.84,-1.36
-1.560e-04,-1.76,-1.36
-1.558e-04,-1.76,-1.36
-1.557e-04,-1.68,-1.28
-1.555e-04,-1.68,-1.36
-1.554e-04,-1.6,-1.28
-1.552e-04,-1.6,-1.2
-1.550e-04,-1.52,-1.2
-1.549e-04,-1.44,-1.2
-1.547e-04,-1.44,-1.12
-1.546e-04,-1.36,-1.12
-1.544e-04,-1.36,-1.12
-1.542e-04,-1.28,-1.12
-1.541e-04,-1.2,-1.04
-1.539e-04,-1.28,-1.04
-1.538e-04,-1.12,-0.96
-1.536e-04,-1.12,-0.96
-1.534e-04,-1.04,-0.88
-1.533e-04,-1.04,-0.88
-1.531e-04,-0.96,-0.88
-1.530e-04,-0.88,-0.8
-1.528e-04,-0.88,-0.8
-1.526e-04,-0.8,-0.8
-1.525e-04,-0.72,-0.72
-1.523e-04,-0.72,-0.72
-1.522e-04,-0.64,-0.64
-1.520e-04,-0.56,-0.64
-1.518e-04,-0.48,-0.64
-1.517e-04,-0.48,-0.56
-1.515e-04,-0.4,-0.56
-1.514e-04,-0.32,-0.48
-1.512e-04,-0.32,-0.48
-1.510e-04,-0.24,-0.4
-1.509e-04,-0.16,-0.4
-1.507e-04,-0.16,-0.4
-1.506e-04,-0.16,-0.32
-1.504e-04,0,-0.24
-1.502e-04,0.08,-0.24
-1.501e-04,0.08,-0.24
-1.499e-04,0.16,-0.24
-1.498e-04,0.16,-0.08
-1.496e-04,0.24,-0.08
-1.494e-04,0.32,0
-1.493e-04,0.4,0
-1.491e-04,0.4,0
-1.490e-04,0.48,0.08
-1.488e-04,0.56,0.08
-1.486e-04,0.56,0.16
-1.485e-04,0.64,0.16
-1.483e-04,0.72,0.24
-1.482e-04,0.72,0.24
-1.480e-04,0.8,0.24
-1.478e-04,0.88,0.32
-1.477e-04,0.88,0.4
-1.475e-04,0.96,0.4
-1.474e-04,1.04,0.4
-1.472e-04,1.12,0.48
-1.470e-04,1.12,0.48
-1.469e-04,1.2,0.56
-1.467e-04,1.28,0.56
-1.466e-04,1.28,0.64
-1.464e-04,1.36,0.64
-1.462e-04,1.36,0.72
-1.461e-04,1.44,0.72
-1.459e-04,1.52,0.72
-1.458e-04,1.52,0.8
-1.456e-04,1.6,0.8
-1.454e-04,1.6,0.88
-1.453e-04,1.68,0.88
-1.451e-04,1.68,0.88
-1.450e-04,1.76,0.96
-1.448e-04,1.84,0.96
-1.446e-04,1.84,0.96
-1.445e-04,1.92,0.96
-1.443e-04,1.92,1.12
-1.442e-04,2,1.12
-1.440e-04,2,1.12
-1.438e-04,2.08,1.12
-1.437e-04,2.08,1.2
-1.435e-04,2.16,1.2
-1.434e-04,2.16,1.28
-1.432e-04,2.24,1.28
-1.430e-04,2.24,1.2
-1.429e-04,2.32,1.28
-1.427e-04,2.32,1.36
-1.426e-04,2.32,1.36
-1.424e-04,2.4,1.36
-1.422e-04,2.4,1.44
-1.421e-04,2.48,1.44
-1.419e-04,2.48,1.44
-1.418e-04,2.48,1.44
-1.416e-04,2.56,1.52
-1.414e-04,2.56,1.52
-1.413e-04,2.56,1.52
-1.411e-04,2.64,1.52
-1.410e-04,2.64,1.6
-1.408e-04,2.64,1.6
-1.406e-04,2.72,1.6
-1.405e-04,2.72,1.6
-1.403e-04,2.72,1.68
-1.402e-04,2.72,1.68
-1.400e-04,2.72,1.68
-1.398e-04,2.72,1.76
-1.397e-04,2.72,1.68
-1.395e-04,2.8,1.76
-1.394e-04,2.72,1.76
-1.392e-04,2.8,1.76
-1.390e-04,2.8,1.76
-1.389e-04,2.8,1.76
-1.387e-04,2.8,1.76
-1.386e-04,2.8,1.84
-1.384e-04,2.8,1.84
-1.382e-04,2.8,1.84
-1.381e-04,2.8,1.84
-1.379e-04,2.88,1.84
-1.378e-04,2.8,1.76
-1.376e-04,2.88,1.76
-1.374e-04,2.8,1.84
-1.373e-04,2.88,1.84
-1.371e-04,2.8,1.84
-1.370e-04,2.8,1.84
-1.368e-04,2.8,1.84
-1.366e-04,2.8,1.84
-1.365e-04,2.8,1.84
-1.363e-04,2.8,1.84
-1.362e-04,2.8,1.84
-1.360e-04,2.8,1.84
-1.358e-04,2.8,1.84
-1.357e-04,2.72,1.84
-1.355e-04,2.72,1.84
-1.354e-04,2.72,1.84
-1.352e-04,2.72,1.84
-1.350e-04,2.64,1.84
-1.349e-04,2.64,1.76
-1.347e-04,2.64,1.84
-1.346e-04,2.64,1.76
-1.344e-04,2.64,1.76
-1.342e-04,2.56,1.76
-1.341e-04,2.56,1.76
-1.339e-04,2.56,1.76
-1.338e-04,2.48,1.76
-1.336e-04,2.48,1.76
-1.334e-04,2.4,1.68
-1.333e-04,2.4,1.68
-1.331e-04,2.4,1.68
-1.330e-04,2.32,1.68
-1.328e-04,2.32,1.68
-1.326e-04,2.24,1.6
-1.325e-04,2.24,1.6
-1.323e-04,2.24,1.6
-1.322e-04,2.16,1.6
-1.320e-04,2.16,1.6
-1.318e-04,2.08,1.52
-1.317e-04,2.08,1.52
-1.315e-04,1.92,1.52
-1.314e-04,2,1.52
-1.312e-04,1.92,1.36
-1.310e-04,1.92,1.44
-1.309e-04,1.84,1.36
-1.307e-04,1.76,1.36
-1.306e-04,1.76,1.36
-1.304e-04,1.68,1.36
-1.302e-04,1.68,1.28
-1.301e-04,1.6,1.28
-1.299e-04,1.6,1.2
-1.298e-04,1.52,1.2
-1.296e-04,1.44,1.2
-1.294e-04,1.36,1.12
-1.293e-04,1.36,1.12
-1.291e-04,1.28,1.12
-1.290e-04,1.28,1.04
-1.288e-04,1.2,1.04
-1.286e-04,1.12,1.04
-1.285e-04,1.12,0.96
-1.283e-04,1.04,0.96
-1.282e-04,0.96,0.88
-1.280e-04,0.96,0.88
-1.278e-04,0.8,0.8
-1.277e-04,0.8,0.8
-1.275e-04,0.8,0.8
-1.274e-04,0.72,0.72
-1.272e-04,0.64,0.72
-1.270e-04,0.64,0.72
-1.269e-04,0.56,0.64
-1.267e-04,0.56,0.56
-1.266e-04,0.48,0.56
-1.264e-04,0.4,0.56
-1.262e-04,0.32,0.48
-1.261e-04,0.32,0.48
-1.259e-04,0.24,0.4
-1.258e-04,0.16,0.4
-1.256e-04,0.16,0.4
-1.254e-04,0.08,0.32
-1.253e-04,0,0.24
-1.251e-04,0,0.24
-1.250e-04,-0.08,0.16
-1.248e-04,-0.16,0.16
-1.246e-04,-0.24,0.16
-1.245e-04,-0.24,0.08
-1.243e-04,-0.32,0.08
-1.242e-04,-0.4,0
-1.240e-04,-0.4,0
-1.238e-04,-0.48,-0.16
-1.237e-04,-0.56,-0.08
-1.235e-04,-0.56,-0.16
-1.234e-04,-0.64,-0.16
-1.232e-04,-0.72,-0.16
-1.230e-04,-0.72,-0.24
-1.229e-04,-0.8,-0.32
-1.227e-04,-0.88,-0.32
-1.226e-04,-0.88,-0.32
-1.224e-04,-0.96,-0.4
-1.222e-04,-1.04,-0.4
-1.221e-04,-1.04,-0.4
-1.219e-04,-1.12,-0.48
-1.218e-04,-1.2,-0.56
-1.216e-04,-1.2,-0.56
-1.214e-04,-1.2,-0.56
-1.213e-04,-1.28,-0.64
-1.211e-04,-1.44,-0.64
-1.210e-04,-1.44,-0.72
-1.208e-04,-1.44,-0.72
-1.206e-04,-1.52,-0.8
-1.205e-04,-1.6,-0.8
-1.203e-04,-1.6,-0.8
-1.202e-04,-1.68,-0.88
-1.200e-04,-1.68,-0.88
-1.198e-04,-1.68,-0.88
-1.197e-04,-1.76,-0.96
-1.195e-04,-1.84,-0.96
-1.194e-04,-1.84,-1.04
-1.192e-04,-1.92,-1.04
-1.190e-04,-1.92,-1.12
-1.189e-04,-2,-1.12
-1.187e-04,-2,-1.12
-1.186e-04,-2.08,-1.2
-1.184e-04,-2.16,-1.2
-1.182e-04,-2.16,-1.2
-1.181e-04,-2.16,-1.28
-1.179e-04,-2.24,-1.36
-1.178e-04,-2.24,-1.28
-1.176e-04,-2.32,-1.28
-1.174e-04,-2.32,-1.36
-1.173e-04,-2.4,-1.36
-1.171e-04,-2.4,-1.44
-1.170e-04,-2.4,-1.44
-1.168e-04,-2.48,-1.44
-1.166e-04,-2.48,-1.44
-1.165e-04,-2.48,-1.52
-1.163e-04,-2.48,-1.52
-1.162e-04,-2.56,-1.52
-1.160e-04,-2.56,-1.6
-1.158e-04,-2.56,-1.6
-1.157e-04,-2.64,-1.68
-1.155e-04,-2.64,-1.6
-1.154e-04,-2.64,-1.6
-1.152e-04,-2.64,-1.68
-1.150e-04,-2.64,-1.68
-1.149e-04,-2.64,-1.68
-1.147e-04,-2.72,-1.68
-1.146e-04,-2.72,-1.68
-1.144e-04,-2.72,-1.68
-1.142e-04,-2.72,-1.76
-1.141e-04,-2.72,-1.76
-1.139e-04,-2.72,-1.76
-1.138e-04,-2.8,-1.76
-1.136e-04,-2.72,-1.76
-1.134e-04,-2.8,-1.76
-1.133e-04,-2.8,-1.76
-1.131e-04,-2.8,-1.76
-1.130e-04,-2.8,-1.84
-1.128e-04,-2.8,-1.84
-1.126e-04,-2.8,-1.76
-1.125e-04,-2.72,-1.84
-1.123e-04,-2.8,-1.84
-1.122e-04,-2.8,-1.84
-1.120e-04,-2.8,-1.84
-1.118e-04,-2.8,-1.84
-1.117e-04,-2.72,-1.84
-1.115e-04,-2.72,-1.84
-1.114e-04,-2.72,-1.84
-1.112e-04,-2.72,-1.84
-1.110e-04,-2.72,-1.84
-1.109e-04,-2.72,-1.84
-1.107e-04,-2.64,-1.84
-1.106e-04,-2.72,-1.84
-1.104e-04,-2.64,-1.76
-1.102e-04,-2.64,-1.76
-1.101e-04,-2.64,-1.76
-1.099e-04,-2.56,-1.76
-1.098e-04,-2.56,-1.76
-1.096e-04,-2.56,-1.76
-1.094e-04,-2.56,-1.76
-1.093e-04,-2.56,-1.76
-1.091e-04,-2.48,-1.76
-1.090e-04,-2.48,-1.68
-1.088e-04,-2.48,-1.76
-1.086e-04,-2.4,-1.68
-1.085e-04,-2.4,-1.68
-1.083e-04,-2.32,-1.68
-1.082e-04,-2.32,-1.68
-1.080e-04,-2.32,-1.6
-1.078e-04,-2.24,-1.6
-1.077e-04,-2.24,-1.6
-1.075e-04,-2.16,-1.6
-1.074e-04,-2.16,-1.52
-1.072e-04,-2.08,-1.52
-1.070e-04,-2.08,-1.52
-1.069e-04,-2,-1.44
-1.067e-04,-2,-1.52
-1.066e-04,-1.92,-1.44
-1.064e-04,-1.92,-1.44
-1.062e-04,-1.84,-1.36
-1.061e-04,-1.84,-1.36
-1.059e-04,-1.84,-1.36
-1.058e-04,-1.76,-1.36
-1.056e-04,-1.68,-1.28
-1.054e-04,-1.68,-1.28
-1.053e-04,-1.6,-1.28
-1.051e-04,-1.52,-1.2
-1.050e-04,-1.52,-1.2
-1.048e-04,-1.44,-1.2
-1.046e-04,-1.44,-1.2
-1.045e-04,-1.36,-1.12
-1.043e-04,-1.36,-1.04
-1.042e-04,-1.28,-1.04
-1.040e-04,-1.2,-1.04
-1.038e-04,-1.2,-0.96
-1.037e-04,-1.12,-0.96
-1.035e-04,-1.04,-0.96
-1.034e-04,-1.04,-0.88
-1.032e-04,-0.96,-0.88
-1.030e-04,-0.96,-0.88
-1.029e-04,-0.88,-0.8
-1.027e-04,-0.88,-0.8
-1.026e-04,-0.72,-0.72
-1.024e-04,-0.72,-0.72
-1.022e-04,-0.64,-0.64
-1.021e-04,-0.56,-0.64
-1.019e-04,-0.48,-0.64
-1.018e-04,-0.48,-0.56
-1.016e-04,-0.4,-0.48
-1.014e-04,-0.4,-0.48
-1.013e-04,-0.32,-0.48
-1.011e-04,-0.32,-0.4
-1.010e-04,-0.24,-0.4
-1.008e-04,-0.16,-0.4
-1.006e-04,-0.08,-0.32
-1.005e-04,-0.08,-0.24
-1.003e-04,0,-0.24
-1.002e-04,0.08,-0.24
-1.000e-04,0.16,-0.16
-9.984e-05,0.16,-0.16
-9.968e-05,0.24,-0.08
-9.952e-05,0.32,-0.08
-9.936e-05,0.32,-0.08
-9.920e-05,0.4,0
-9.904e-05,0.48,0
-9.888e-05,0.56,0.08
-9.872e-05,0.56,0.16
-9.856e-05,0.64,0.16
-9.840e-05,0.64,0.16
-9.824e-05,0.72,0.24
-9.808e-05,0.8,0.24
-9.792e-05,0.88,0.32
-9.776e-05,0.88,0.32
-9.760e-05,0.96,0.4
-9.744e-05,0.96,0.4
-9.728e-05,1.04,0.48
-9.712e-05,1.12,0.48
-9.696e-05,1.2,0.56
-9.680e-05,1.2,0.56
-9.664e-05,1.28,0.56
-9.648e-05,1.28,0.64
-9.632e-05,1.36,0.64
-9.616e-05,1.36,0.72
-9.600e-05,1.44,0.72
-9.584e-05,1.52,0.8
-9.568e-05,1.6,0.8
-9.552e-05,1.6,0.88
-9.536e-05,1.68,0.88
-9.520e-05,1.68,0.88
-9.504e-05,1.76,0.88
-9.488e-05,1.76,0.96
-9.472e-05,1.84,0.96
-9.456e-05,1.84,1.04
-9.440e-05,1.92,1.04
-9.424e-05,1.92,1.12
-9.408e-05,2,1.12
-9.392e-05,2,1.12
-9.376e-05,2.08,1.2
-9.360e-05,2.08,1.2
-9.344e-05,2.16,1.2
-9.328e-05,2.24,1.28
-9.312e-05,2.24,1.28
-9.296e-05,2.24,1.28
-9.280e-05,2.32,1.36
-9.264e-05,2.4,1.36
-9.248e-05,2.4,1.36
-9.232e-05,2.4,1.44
-9.216e-05,2.4,1.44
-9.200e-05,2.48,1.52
-9.184e-05,2.48,1.52
-9.168e-05,2.48,1.52
-9.152e-05,2.56,1.52
-9.136e-05,2.56,1.52
-9.120e-05,2.56,1.6
-9.104e-05,2.64,1.6
-9.088e-05,2.64,1.52
-9.072e-05,2.64,1.6
-9.056e-05,2.72,1.68
-9.040e-05,2.72,1.68
-9.024e-05,2.72,1.68
-9.008e-05,2.72,1.68
-8.992e-05,2.72,1.68
-8.976e-05,2.8,1.76
-8.960e-05,2.8,1.76
-8.944e-05,2.8,1.76
-8.928e-05,2.72,1.76
-8.912e-05,2.8,1.68
-8.896e-05,2.8,1.76
-8.880e-05,2.8,1.84
-8.864e-05,2.88,1.84
-8.848e-05,2.88,1.84
-8.832e-05,2.88,1.84
-8.816e-05,2.8,1.84
-8.800e-05,2.8,1.84
-8.784e-05,2.88,1.76
-8.768e-05,2.8,1.84
-8.752e-05,2.8,1.84
-8.736e-05,2.8,1.84
-8.720e-05,2.8,1.84
-8.704e-05,2.8,1.76
-8.688e-05,2.8,1.84
-8.672e-05,2.8,1.84
-8.656e-05,2.8,1.84
-8.640e-05,2.8,1.84
-8.624e-05,2.8,1.84
-8.608e-05,2.8,1.84
-8.592e-05,2.8,1.84
-8.576e-05,2.8,1.84
-8.560e-05,2.72,1.84
-8.544e-05,2.72,1.84
-8.528e-05,2.72,1.84
-8.512e-05,2.72,1.84
-8.496e-05,2.72,1.84
-8.480e-05,2.64,1.76
-8.464e-05,2.64,1.76
-8.448e-05,2.64,1.84
-8.432e-05,2.56,1.84
-8.416e-05,2.56,1.76
-8.400e-05,2.56,1.76
-8.384e-05,2.48,1.76
-8.368e-05,2.48,1.76
-8.352e-05,2.48,1.76
-8.336e-05,2.4,1.68
-8.320e-05,2.4,1.6
-8.304e-05,2.32,1.68
-8.288e-05,2.32,1.68
-8.272e-05,2.32,1.68
-8.256e-05,2.24,1.6
-8.240e-05,2.24,1.6
-8.224e-05,2.16,1.6
-8.208e-05,2.16,1.6
-8.192e-05,2.08,1.6
-8.176e-05,2.08,1.52
-8.160e-05,2,1.52
-8.144e-05,2,1.52
-8.128e-05,1.92,1.44
-8.112e-05,1.92,1.44
-8.096e-05,1.84,1.44
-8.080e-05,1.84,1.36
-8.064e-05,1.76,1.36
-8.048e-05,1.68,1.36
-8.032e-05,1.68,1.28
-8.016e-05,1.6,1.28
-8.000e-05,1.52,1.28
-7.984e-05,1.52,1.2
-7.968e-05,1.52,1.2
-7.952e-05,1.44,1.2
-7.936e-05,1.36,1.12
-7.920e-05,1.36,1.12
-7.904e-05,1.28,1.12
-7.888e-05,1.2,0.96
-7.872e-05,1.2,1.04
-7.856e-05,1.12,0.96
-7.840e-05,1.12,0.96
-7.824e-05,1.04,0.88
-7.808e-05,0.96,0.88
-7.792e-05,0.88,0.88
-7.776e-05,0.88,0.8
-7.760e-05,0.8,0.8
-7.744e-05,0.8,0.72
-7.728e-05,0.72,0.64
-7.712e-05,0.72,0.64
-7.696e-05,0.64,0.64
-7.680e-05,0.56,0.64
-7.664e-05,0.48,0.56
-7.648e-05,0.48,0.56
-7.632e-05,0.4,0.48
-7.616e-05,0.32,0.48
-7.600e-05,0.24,0.48
-7.584e-05,0.16,0.4
-7.568e-05,0.16,0.4
-7.552e-05,0.08,0.32
-7.536e-05,0,0.32
-7.520e-05,0,0.24
-7.504e-05,-0.08,0.24
-7.488e-05,-0.16,0.16
-7.472e-05,-0.16,0.16
-7.456e-05,-0.24,0.16
-7.440e-05,-0.32,0.08
-7.424e-05,-0.32,0
-7.408e-05,-0.4,0
-7.392e-05,-0.48,0
-7.376e-05,-0.48,-0.08
-7.360e-05,-0.56,-0.16
-7.344e-05,-0.64,-0.16
-7.328e-05,-0.72,-0.16
-7.312e-05,-0.72,-0.24
-7.296e-05,-0.8,-0.24
-7.280e-05,-0.8,-0.32
-7.264e-05,-0.88,-0.32
-7.248e-05,-0.96,-0.4
-7.232e-05,-0.96,-0.4
-7.216e-05,-1.04,-0.4
-7.200e-05,-1.12,-0.48
-7.184e-05,-1.12,-0.48
-7.168e-05,-1.2,-0.56
-7.152e-05,-1.2,-0.56
-7.136e-05,-1.28,-0.64
-7.120e-05,-1.36,-0.64
-7.104e-05,-1.36,-0.8
-7.088e-05,-1.52,-0.8
-7.072e-05,-1.44,-0.72
-7.056e-05,-1.6,-0.8
-7.040e-05,-1.6,-0.8
-7.024e-05,-1.6,-0.88
-7.008e-05,-1.68,-0.88
-6.992e-05,-1.68,-0.88
-6.976e-05,-1.76,-0.96
-6.960e-05,-1.84,-0.96
-6.944e-05,-1.84,-0.96
-6.928e-05,-1.84,-1.04
-6.912e-05,-1.92,-1.04
-6.896e-05,-2,-1.12
-6.880e-05,-2,-1.12
-6.864e-05,-2.08,-1.12
-6.848e-05,-2.08,-1.2
-6.832e-05,-2.16,-1.2
-6.816e-05,-2.16,-1.2
-6.800e-05,-2.24,-1.28
-6.784e-05,-2.24,-1.28
-6.768e-05,-2.24,-1.28
-6.752e-05,-2.32,-1.36
-6.736e-05,-2.32,-1.36
-6.720e-05,-2.32,-1.44
-6.704e-05,-2.4,-1.36
-6.688e-05,-2.4,-1.44
-6.672e-05,-2.48,-1.44
-6.656e-05,-2.48,-1.44
-6.640e-05,-2.48,-1.52
-6.624e-05,-2.48,-1.52
-6.608e-05,-2.56,-1.52
-6.592e-05,-2.56,-1.52
-6.576e-05,-2.56,-1.6
-6.560e-05,-2.56,-1.68
-6.544e-05,-2.64,-1.6
-6.528e-05,-2.64,-1.6
-6.512e-05,-2.64,-1.68
-6.496e-05,-2.72,-1.68
-6.480e-05,-2.72,-1.68
-6.464e-05,-2.72,-1.68
-6.448e-05,-2.72,-1.68
-6.432e-05,-2.72,-1.76
-6.416e-05,-2.72,-1.68
-6.400e-05,-2.72,-1.76
-6.384e-05,-2.72,-1.76
-6.368e-05,-2.72,-1.76
-6.352e-05,-2.72,-1.76
-6.336e-05,-2.8,-1.76
-6.320e-05,-2.8,-1.76
-6.304e-05,-2.8,-1.84
-6.288e-05,-2.8,-1.76
-6.272e-05,-2.72,-1.84
-6.256e-05,-2.8,-1.84
-6.240e-05,-2.8,-1.84
-6.224e-05,-2.72,-1.84
-6.208e-05,-2.72,-1.84
-6.192e-05,-2.72,-1.84
-6.176e-05,-2.72,-1.84
-6.160e-05,-2.72,-1.84
-6.144e-05,-2.72,-1.84
-6.128e-05,-2.72,-1.84
-6.112e-05,-2.72,-1.84
-6.096e-05,-2.72,-1.84
-6.080e-05,-2.72,-1.84
-6.064e-05,-2.64,-1.84
-6.048e-05,-2.64,-1.76
-6.032e-05,-2.64,-1.84
-6.016e-05,-2.64,-1.76
-6.000e-05,-2.56,-1.84
-5.984e-05,-2.56,-1.76
-5.968e-05,-2.56,-1.76
-5.952e-05,-2.56,-1.76
-5.936e-05,-2.56,-1.76
-5.920e-05,-2.48,-1.76
-5.904e-05,-2.48,-1.68
-5.888e-05,-2.48,-1.68
-5.872e-05,-2.4,-1.68
-5.856e-05,-2.4,-1.68
-5.840e-05,-2.32,-1.68
-5.824e-05,-2.32,-1.68
-5.808e-05,-2.32,-1.6
-5.792e-05,-2.32,-1.6
-5.776e-05,-2.24,-1.6
-5.760e-05,-2.16,-1.68
-5.744e-05,-2.16,-1.6
-5.728e-05,-2.16,-1.52
-5.712e-05,-2.08,-1.52
-5.696e-05,-2.08,-1.52
-5.680e-05,-2,-1.44
-5.664e-05,-2,-1.52
-5.648e-05,-1.92,-1.44
-5.632e-05,-1.84,-1.44
-5.616e-05,-1.84,-1.36
-5.600e-05,-1.76,-1.36
-5.584e-05,-1.76,-1.36
-5.568e-05,-1.68,-1.28
-5.552e-05,-1.68,-1.28
-5.536e-05,-1.6,-1.28
-5.520e-05,-1.52,-1.28
-5.504e-05,-1.52,-1.2
-5.488e-05,-1.44,-1.2
-5.472e-05,-1.44,-1.12
-5.456e-05,-1.36,-1.12
-5.440e-05,-1.36,-1.12
-5.424e-05,-1.28,-1.04
-5.408e-05,-1.28,-1.04
-5.392e-05,-1.2,-1.04
-5.376e-05,-1.12,-0.96
-5.360e-05,-1.12,-0.96
-5.344e-05,-1.04,-0.88
-5.328e-05,-0.96,-0.88
-5.312e-05,-0.96,-0.88
-5.296e-05,-0.88,-0.8
-5.280e-05,-0.8,-0.8
-5.264e-05,-0.8,-0.8
-5.248e-05,-0.72,-0.72
-5.232e-05,-0.72,-0.64
-5.216e-05,-0.64,-0.64
-5.200e-05,-0.64,-0.64
-5.184e-05,-0.48,-0.56
-5.168e-05,-0.48,-0.56
-5.152e-05,-0.4,-0.48
-5.136e-05,-0.4,-0.48
-5.120e-05,-0.24,-0.48
-5.104e-05,-0.24,-0.4
-5.088e-05,-0.16,-0.4
-5.072e-05,-0.16,-0.32
-5.056e-05,-0.08,-0.32
-5.040e-05,0,-0.24
-5.024e-05,0.08,-0.32
-5.008e-05,0.08,-0.16
-4.992e-05,0.16,-0.16
-4.976e-05,0.24,-0.08
-4.960e-05,0.24,-0.08
-4.944e-05,0.32,-0.08
-4.928e-05,0.4,-0.08
-4.912e-05,0.4,0
-4.896e-05,0.48,0.08
-4.880e-05,0.56,0.08
-4.864e-05,0.64,0.16
-4.848e-05,0.64,0.16
-4.832e-05,0.72,0.24
-4.816e-05,0.72,0.24
-4.800e-05,0.8,0.24
-4.784e-05,0.88,0.32
-4.768e-05,0.88,0.32
-4.752e-05,0.96,0.4
-4.736e-05,1.04,0.4
-4.720e-05,1.12,0.48
-4.704e-05,1.12,0.48
-4.688e-05,1.2,0.56
-4.672e-05,1.2,0.56
-4.656e-05,1.28,0.64
-4.640e-05,1.28,0.64
-4.624e-05,1.36,0.72
-4.608e-05,1.44,0.72
-4.592e-05,1.52,0.72
-4.576e-05,1.44,0.8
-4.560e-05,1.6,0.8
-4.544e-05,1.6,0.88
-4.528e-05,1.68,0.88
-4.512e-05,1.68,0.88
-4.496e-05,1.76,0.96
-4.480e-05,1.84,0.96
-4.464e-05,1.84,1.04
-4.448e-05,1.92,1.04
-4.432e-05,1.92,1.04
-4.416e-05,2,1.12
-4.400e-05,2,1.12
-4.384e-05,2.08,1.2
-4.368e-05,2.08,1.2
-4.352e-05,2.08,1.2
-4.336e-05,2.16,1.28
-4.320e-05,2.24,1.28
-4.304e-05,2.24,1.28
-4.288e-05,2.32,1.36
-4.272e-05,2.32,1.36
-4.256e-05,2.32,1.28
-4.240e-05,2.4,1.44
-4.224e-05,2.4,1.44
-4.208e-05,2.4,1.52
-4.192e-05,2.48,1.52
-4.176e-05,2.48,1.52
-4.160e-05,2.56,1.52
-4.144e-05,2.56,1.6
-4.128e-05,2.56,1.6
-4.112e-05,2.56,1.52
-4.096e-05,2.64,1.6
-4.080e-05,2.64,1.68
-4.064e-05,2.64,1.68
-4.048e-05,2.64,1.6
-4.032e-05,2.72,1.68
-4.016e-05,2.72,1.68
-4.000e-05,2.72,1.68
-3.984e-05,2.72,1.76
-3.968e-05,2.72,1.68
-3.952e-05,2.8,1.76
-3.936e-05,2.8,1.76
-3.920e-05,2.8,1.76
-3.904e-05,2.8,1.76
-3.888e-05,2.8,1.76
-3.872e-05,2.8,1.84
-3.856e-05,2.8,1.84
-3.840e-05,2.88,1.84
-3.824e-05,2.8,1.84
-3.808e-05,2.8,1.84
-3.792e-05,2.88,1.84
-3.776e-05,2.88,1.84
-3.760e-05,2.8,1.84
-3.744e-05,2.8,1.84
-3.728e-05,2.8,1.84
-3.712e-05,2.8,1.84
-3.696e-05,2.72,1.84
-3.680e-05,2.8,1.84
-3.664e-05,2.8,1.84
-3.648e-05,2.8,1.84
-3.632e-05,2.8,1.84
-3.616e-05,2.8,1.84
-3.600e-05,2.8,1.84
-3.584e-05,2.72,1.84
-3.568e-05,2.72,1.84
-3.552e-05,2.72,1.84
-3.536e-05,2.72,1.76
-3.520e-05,2.64,1.84
-3.504e-05,2.64,1.84
-3.488e-05,2.64,1.84
-3.472e-05,2.64,1.76
-3.456e-05,2.64,1.84
-3.440e-05,2.56,1.76
-3.424e-05,2.56,1.76
-3.408e-05,2.56,1.76
-3.392e-05,2.48,1.76
-3.376e-05,2.48,1.76
-3.360e-05,2.48,1.76
-3.344e-05,2.4,1.76
-3.328e-05,2.4,1.68
-3.312e-05,2.4,1.68
-3.296e-05,2.32,1.68
-3.280e-05,2.32,1.68
-3.264e-05,2.24,1.68
-3.248e-05,2.24,1.6
-3.232e-05,2.16,1.6
-3.216e-05,2.16,1.6
-3.200e-05,2.08,1.6
-3.184e-05,2.08,1.52
-3.168e-05,2.08,1.52
-3.152e-05,2,1.52
-3.136e-05,1.92,1.44
-3.120e-05,1.92,1.44
-3.104e-05,1.84,1.44
-3.088e-05,1.84,1.36
-3.072e-05,1.84,1.36
-3.056e-05,1.76,1.36
-3.040e-05,1.68,1.36
-3.024e-05,1.68,1.28
-3.008e-05,1.6,1.28
-2.992e-05,1.6,1.2
-2.976e-05,1.52,1.2
-2.960e-05,1.44,1.2
-2.944e-05,1.44,1.12
-2.928e-05,1.28,1.12
-2.912e-05,1.36,1.12
-2.896e-05,1.2,1.04
-2.880e-05,1.2,1.04
-2.864e-05,1.12,1.04
-2.848e-05,1.12,0.96
-2.832e-05,1.04,0.96
-2.816e-05,1.04,0.88
-2.800e-05,0.96,0.88
-2.784e-05,0.88,0.8
-2.768e-05,0.88,0.8
-2.752e-05,0.72,0.72
-2.736e-05,0.72,0.72
-2.720e-05,0.64,0.72
-2.704e-05,0.64,0.72
-2.688e-05,0.56,0.64
-2.672e-05,0.56,0.64
-2.656e-05,0.48,0.48
-2.640e-05,0.4,0.48
-2.624e-05,0.4,0.48
-2.608e-05,0.32,0.48
-2.592e-05,0.24,0.4
-2.576e-05,0.16,0.4
-2.560e-05,0.16,0.32
-2.544e-05,0.08,0.32
-2.528e-05,0,0.24
-2.512e-05,0,0.24
-2.496e-05,-0.08,0.24
-2.480e-05,-0.16,0.16
-2.464e-05,-0.16,0.16
-2.448e-05,-0.24,0.08
-2.432e-05,-0.32,0
-2.416e-05,-0.4,0
-2.400e-05,-0.4,0
-2.384e-05,-0.48,-0.08
-2.368e-05,-0.56,-0.08
-2.352e-05,-0.56,-0.16
-2.336e-05,-0.64,-0.16
-2.320e-05,-0.64,-0.16
-2.304e-05,-0.72,-0.24
-2.288e-05,-0.8,-0.24
-2.272e-05,-0.88,-0.32
-2.256e-05,-0.88,-0.32
-2.240e-05,-0.96,-0.4
-2.224e-05,-0.96,-0.4
-2.208e-05,-1.04,-0.48
-2.192e-05,-1.12,-0.48
-2.176e-05,-1.2,-0.56
-2.160e-05,-1.2,-0.64
-2.144e-05,-1.28,-0.56
-2.128e-05,-1.28,-0.64
-2.112e-05,-1.36,-0.72
-2.096e-05,-1.44,-0.72
-2.080e-05,-1.44,-0.72
-2.064e-05,-1.52,-0.8
-2.048e-05,-1.6,-0.8
-2.032e-05,-1.6,-0.8
-2.016e-05,-1.6,-0.88
-2.000e-05,-1.68,-0.96
-1.984e-05,-1.68,-0.96
-1.968e-05,-1.76,-0.96
-1.952e-05,-1.84,-0.96
-1.936e-05,-1.84,-1.04
-1.920e-05,-1.92,-1.04
-1.904e-05,-1.92,-1.04
-1.888e-05,-2,-1.12
-1.872e-05,-2,-1.12
-1.856e-05,-2.08,-1.12
-1.840e-05,-2.08,-1.2
-1.824e-05,-2.16,-1.2
-1.808e-05,-2.16,-1.28
-1.792e-05,-2.16,-1.28
-1.776e-05,-2.24,-1.28
-1.760e-05,-2.24,-1.36
-1.744e-05,-2.4,-1.36
-1.728e-05,-2.32,-1.44
-1.712e-05,-2.4,-1.36
-1.696e-05,-2.4,-1.44
-1.680e-05,-2.48,-1.44
-1.664e-05,-2.48,-1.44
-1.648e-05,-2.48,-1.52
-1.632e-05,-2.48,-1.52
-1.616e-05,-2.56,-1.52
-1.600e-05,-2.56,-1.52
-1.584e-05,-2.56,-1.6
-1.568e-05,-2.56,-1.6
-1.552e-05,-2.64,-1.6
-1.536e-05,-2.64,-1.6
-1.520e-05,-2.64,-1.6
-1.504e-05,-2.64,-1.68
-1.488e-05,-2.72,-1.68
-1.472e-05,-2.72,-1.68
-1.456e-05,-2.72,-1.76
-1.440e-05,-2.72,-1.68
-1.424e-05,-2.72,-1.76
-1.408e-05,-2.72,-1.76
-1.392e-05,-2.72,-1.76
-1.376e-05,-2.72,-1.76
-1.360e-05,-2.72,-1.76
-1.344e-05,-2.8,-1.84
-1.328e-05,-2.72,-1.76
