capacitor_data_0412/TEK00077.CSV

Model,TBS2074B
Firmware Version,v1.32.136

Point Format,Y,
Horizontal Units,S,
Horizontal Scale,4e-07,
Sample Interval,4e-09,
Filter Frequency,2e+08,
Record Length,2000,
Gating,0.0% to 100.0%,0.0% to 100.0%
Probe Attenuation,1,1
Vertical Units,V,V
Vertical Offset,0,0
Vertical Scale,0.5,0.1
Label,,
TIME,CH1,CH2
-4.000e-06,0.02,0.098
-3.996e-06,0.04,0.102
-3.992e-06,0.04,0.106
-3.988e-06,0.06,0.11
-3.984e-06,0.08,0.11
-3.980e-06,0.08,0.114
-3.976e-06,0.1,0.114
-3.972e-06,0.12,0.118
-3.968e-06,0.12,0.122
-3.964e-06,0.14,0.122
-3.960e-06,0.16,0.126
-3.956e-06,0.16,0.13
-3.952e-06,0.18,0.13
-3.948e-06,0.18,0.134
-3.944e-06,0.2,0.134
-3.940e-06,0.2,0.138
-3.936e-06,0.22,0.138
-3.932e-06,0.22,0.138
-3.928e-06,0.24,0.142
-3.924e-06,0.24,0.142
-3.920e-06,0.26,0.142
-3.916e-06,0.26,0.146
-3.912e-06,0.28,0.146
-3.908e-06,0.28,0.146
-3.904e-06,0.3,0.15
-3.900e-06,0.3,0.15
-3.896e-06,0.32,0.15
-3.892e-06,0.32,0.15
-3.888e-06,0.34,0.15
-3.884e-06,0.36,0.154
-3.880e-06,0.36,0.154
-3.876e-06,0.36,0.15
-3.872e-06,0.38,0.154
-3.868e-06,0.38,0.154
-3.864e-06,0.4,0.154
-3.860e-06,0.4,0.158
-3.856e-06,0.42,0.154
-3.852e-06,0.42,0.154
-3.848e-06,0.42,0.154
-3.844e-06,0.42,0.154
-3.840e-06,0.42,0.154
-3.836e-06,0.44,0.15
-3.832e-06,0.44,0.15
-3.828e-06,0.46,0.15
-3.824e-06,0.46,0.15
-3.820e-06,0.48,0.15
-3.816e-06,0.48,0.15
-3.812e-06,0.48,0.146
-3.808e-06,0.48,0.146
-3.804e-06,0.48,0.146
-3.800e-06,0.5,0.142
-3.796e-06,0.5,0.142
-3.792e-06,0.5,0.142
-3.788e-06,0.5,0.138
-3.784e-06,0.5,0.138
-3.780e-06,0.5,0.134
-3.776e-06,0.5,0.134
-3.772e-06,0.5,0.13
-3.768e-06,0.5,0.126
-3.764e-06,0.5,0.126
-3.760e-06,0.5,0.122
-3.756e-06,0.5,0.122
-3.752e-06,0.5,0.118
-3.748e-06,0.5,0.118
-3.744e-06,0.5,0.114
-3.740e-06,0.5,0.114
-3.736e-06,0.5,0.114
-3.732e-06,0.52,0.106
-3.728e-06,0.5,0.106
-3.724e-06,0.5,0.102
-3.720e-06,0.5,0.098
-3.716e-06,0.5,0.098
-3.712e-06,0.5,0.094
-3.708e-06,0.48,0.094
-3.704e-06,0.48,0.086
-3.700e-06,0.48,0.082
-3.696e-06,0.48,0.078
-3.692e-06,0.46,0.074
-3.688e-06,0.46,0.074
-3.684e-06,0.46,0.07
-3.680e-06,0.46,0.066
-3.676e-06,0.46,0.062
-3.672e-06,0.44,0.062
-3.668e-06,0.44,0.058
-3.664e-06,0.42,0.054
-3.660e-06,0.42,0.05
-3.656e-06,0.42,0.046
-3.652e-06,0.42,0.042
-3.648e-06,0.4,0.038
-3.644e-06,0.4,0.034
-3.640e-06,0.38,0.03
-3.636e-06,0.36,0.026
-3.632e-06,0.36,0.026
-3.628e-06,0.36,0.018
-3.624e-06,0.34,0.018
-3.620e-06,0.34,0.014
-3.616e-06,0.32,0.006
-3.612e-06,0.32,0.006
-3.608e-06,0.3,0.002
-3.604e-06,0.3,-0.002
-3.600e-06,0.3,-0.006
-3.596e-06,0.28,-0.01
-3.592e-06,0.28,-0.014
-3.588e-06,0.26,-0.014
-3.584e-06,0.26,-0.018
-3.580e-06,0.24,-0.022
-3.576e-06,0.22,-0.026
-3.572e-06,0.22,-0.03
-3.568e-06,0.2,-0.034
-3.564e-06,0.2,-0.038
-3.560e-06,0.18,-0.042
-3.556e-06,0.18,-0.042
-3.552e-06,0.16,-0.05
-3.548e-06,0.14,-0.05
-3.544e-06,0.14,-0.054
-3.540e-06,0.12,-0.058
-3.536e-06,0.12,-0.062
-3.532e-06,0.1,-0.066
-3.528e-06,0.08,-0.07
-3.524e-06,0.08,-0.07
-3.520e-06,0.06,-0.074
-3.516e-06,0.06,-0.078
-3.512e-06,0.04,-0.082
-3.508e-06,0.02,-0.082
-3.504e-06,0,-0.086
-3.500e-06,0,-0.09
-3.496e-06,-0.02,-0.094
-3.492e-06,-0.02,-0.094
-3.488e-06,-0.04,-0.098
-3.484e-06,-0.06,-0.102
-3.480e-06,-0.06,-0.102
-3.476e-06,-0.08,-0.106
-3.472e-06,-0.08,-0.11
-3.468e-06,-0.1,-0.11
-3.464e-06,-0.1,-0.114
-3.460e-06,-0.12,-0.118
-3.456e-06,-0.14,-0.118
-3.452e-06,-0.14,-0.122
-3.448e-06,-0.16,-0.122
-3.444e-06,-0.16,-0.122
-3.440e-06,-0.18,-0.126
-3.436e-06,-0.18,-0.126
-3.432e-06,-0.2,-0.13
-3.428e-06,-0.2,-0.13
-3.424e-06,-0.22,-0.134
-3.420e-06,-0.24,-0.134
-3.416e-06,-0.24,-0.134
-3.412e-06,-0.24,-0.138
-3.408e-06,-0.26,-0.138
-3.404e-06,-0.28,-0.138
-3.400e-06,-0.28,-0.142
-3.396e-06,-0.28,-0.142
-3.392e-06,-0.3,-0.146
-3.388e-06,-0.3,-0.142
-3.384e-06,-0.32,-0.142
-3.380e-06,-0.32,-0.146
-3.376e-06,-0.34,-0.146
-3.372e-06,-0.34,-0.146
-3.368e-06,-0.34,-0.146
-3.364e-06,-0.36,-0.146
-3.360e-06,-0.36,-0.146
-3.356e-06,-0.38,-0.142
-3.352e-06,-0.38,-0.146
-3.348e-06,-0.38,-0.146
-3.344e-06,-0.4,-0.142
-3.340e-06,-0.4,-0.142
-3.336e-06,-0.4,-0.146
-3.332e-06,-0.42,-0.142
-3.328e-06,-0.42,-0.142
-3.324e-06,-0.42,-0.142
-3.320e-06,-0.42,-0.138
-3.316e-06,-0.44,-0.142
-3.312e-06,-0.44,-0.138
-3.308e-06,-0.44,-0.138
-3.304e-06,-0.46,-0.134
-3.300e-06,-0.46,-0.134
-3.296e-06,-0.46,-0.134
-3.292e-06,-0.46,-0.13
-3.288e-06,-0.46,-0.13
-3.284e-06,-0.46,-0.13
-3.280e-06,-0.48,-0.126
-3.276e-06,-0.46,-0.122
-3.272e-06,-0.46,-0.122
-3.268e-06,-0.46,-0.118
-3.264e-06,-0.48,-0.118
-3.260e-06,-0.48,-0.118
-3.256e-06,-0.48,-0.114
-3.252e-06,-0.46,-0.11
-3.248e-06,-0.46,-0.11
-3.244e-06,-0.46,-0.106
-3.240e-06,-0.46,-0.106
-3.236e-06,-0.46,-0.098
-3.232e-06,-0.46,-0.098
-3.228e-06,-0.46,-0.094
-3.224e-06,-0.46,-0.094
-3.220e-06,-0.44,-0.09
-3.216e-06,-0.44,-0.086
-3.212e-06,-0.44,-0.082
-3.208e-06,-0.44,-0.082
-3.204e-06,-0.44,-0.078
-3.200e-06,-0.44,-0.074
-3.196e-06,-0.44,-0.07
-3.192e-06,-0.44,-0.066
-3.188e-06,-0.42,-0.062
-3.184e-06,-0.42,-0.062
-3.180e-06,-0.42,-0.058
-3.176e-06,-0.42,-0.054
-3.172e-06,-0.4,-0.054
-3.168e-06,-0.4,-0.046
-3.164e-06,-0.4,-0.042
-3.160e-06,-0.38,-0.042
-3.156e-06,-0.38,-0.038
-3.152e-06,-0.36,-0.034
-3.148e-06,-0.36,-0.03
-3.144e-06,-0.36,-0.026
-3.140e-06,-0.36,-0.022
-3.136e-06,-0.34,-0.022
-3.132e-06,-0.34,-0.014
-3.128e-06,-0.32,-0.01
-3.124e-06,-0.32,-0.01
-3.120e-06,-0.3,-0.006
-3.116e-06,-0.3,-0.002
-3.112e-06,-0.3,0.002
-3.108e-06,-0.28,0.006
-3.104e-06,-0.26,0.01
-3.100e-06,-0.26,0.014
-3.096e-06,-0.24,0.018
-3.092e-06,-0.24,0.022
-3.088e-06,-0.22,0.026
-3.084e-06,-0.22,0.03
-3.080e-06,-0.2,0.03
-3.076e-06,-0.18,0.038
-3.072e-06,-0.18,0.042
-3.068e-06,-0.18,0.042
-3.064e-06,-0.16,0.05
-3.060e-06,-0.16,0.05
-3.056e-06,-0.14,0.058
-3.052e-06,-0.12,0.058
-3.048e-06,-0.12,0.058
-3.044e-06,-0.1,0.066
-3.040e-06,-0.1,0.07
-3.036e-06,-0.08,0.07
-3.032e-06,-0.06,0.074
-3.028e-06,-0.06,0.078
-3.024e-06,-0.04,0.082
-3.020e-06,-0.04,0.086
-3.016e-06,-0.02,0.086
-3.012e-06,-0.02,0.09
-3.008e-06,0,0.094
-3.004e-06,0.02,0.098
-3.000e-06,0.02,0.102
-2.996e-06,0.04,0.102
-2.992e-06,0.06,0.106
-2.988e-06,0.08,0.11
-2.984e-06,0.08,0.11
-2.980e-06,0.1,0.114
-2.976e-06,0.1,0.118
-2.972e-06,0.12,0.118
-2.968e-06,0.14,0.122
-2.964e-06,0.14,0.122
-2.960e-06,0.16,0.126
-2.956e-06,0.16,0.13
-2.952e-06,0.18,0.13
-2.948e-06,0.18,0.134
-2.944e-06,0.2,0.134
-2.940e-06,0.2,0.134
-2.936e-06,0.22,0.138
-2.932e-06,0.22,0.138
-2.928e-06,0.24,0.142
-2.924e-06,0.24,0.142
-2.920e-06,0.26,0.146
-2.916e-06,0.28,0.142
-2.912e-06,0.28,0.146
-2.908e-06,0.3,0.146
-2.904e-06,0.32,0.15
-2.900e-06,0.32,0.15
-2.896e-06,0.32,0.15
-2.892e-06,0.34,0.154
-2.888e-06,0.34,0.154
-2.884e-06,0.34,0.154
-2.880e-06,0.36,0.154
-2.876e-06,0.36,0.154
-2.872e-06,0.38,0.154
-2.868e-06,0.38,0.154
-2.864e-06,0.4,0.154
-2.860e-06,0.4,0.154
-2.856e-06,0.42,0.154
-2.852e-06,0.42,0.154
-2.848e-06,0.42,0.154
-2.844e-06,0.42,0.154
-2.840e-06,0.44,0.15
-2.836e-06,0.44,0.15
-2.832e-06,0.44,0.15
-2.828e-06,0.46,0.15
-2.824e-06,0.46,0.15
-2.820e-06,0.46,0.15
-2.816e-06,0.46,0.15
-2.812e-06,0.48,0.146
-2.808e-06,0.48,0.146
-2.804e-06,0.48,0.146
-2.800e-06,0.48,0.142
-2.796e-06,0.48,0.142
-2.792e-06,0.5,0.142
-2.788e-06,0.5,0.138
-2.784e-06,0.5,0.138
-2.780e-06,0.5,0.138
-2.776e-06,0.5,0.134
-2.772e-06,0.52,0.134
-2.768e-06,0.5,0.13
-2.764e-06,0.5,0.13
-2.760e-06,0.5,0.126
-2.756e-06,0.5,0.122
-2.752e-06,0.5,0.122
-2.748e-06,0.5,0.118
-2.744e-06,0.5,0.114
-2.740e-06,0.5,0.114
-2.736e-06,0.5,0.11
-2.732e-06,0.5,0.106
-2.728e-06,0.5,0.106
-2.724e-06,0.5,0.102
-2.720e-06,0.5,0.098
-2.716e-06,0.5,0.098
-2.712e-06,0.48,0.094
-2.708e-06,0.48,0.09
-2.704e-06,0.5,0.086
-2.700e-06,0.48,0.082
-2.696e-06,0.48,0.082
-2.692e-06,0.46,0.078
-2.688e-06,0.46,0.074
-2.684e-06,0.46,0.07
-2.680e-06,0.44,0.066
-2.676e-06,0.44,0.066
-2.672e-06,0.44,0.062
-2.668e-06,0.44,0.058
-2.664e-06,0.44,0.054
-2.660e-06,0.42,0.05
-2.656e-06,0.42,0.046
-2.652e-06,0.4,0.042
-2.648e-06,0.4,0.038
-2.644e-06,0.4,0.034
-2.640e-06,0.38,0.03
-2.636e-06,0.38,0.03
-2.632e-06,0.36,0.026
-2.628e-06,0.36,0.022
-2.624e-06,0.36,0.018
-2.620e-06,0.34,0.014
-2.616e-06,0.34,0.01
-2.612e-06,0.32,0.006
-2.608e-06,0.3,0.002
-2.604e-06,0.3,-0.002
-2.600e-06,0.28,-0.002
-2.596e-06,0.28,-0.01
-2.592e-06,0.26,-0.014
-2.588e-06,0.26,-0.014
-2.584e-06,0.24,-0.022
-2.580e-06,0.24,-0.026
-2.576e-06,0.22,-0.026
-2.572e-06,0.22,-0.03
-2.568e-06,0.2,-0.034
-2.564e-06,0.18,-0.038
-2.560e-06,0.18,-0.042
-2.556e-06,0.18,-0.046
-2.552e-06,0.16,-0.05
-2.548e-06,0.14,-0.05
-2.544e-06,0.14,-0.054
-2.540e-06,0.12,-0.058
-2.536e-06,0.12,-0.062
-2.532e-06,0.1,-0.066
-2.528e-06,0.08,-0.07
-2.524e-06,0.06,-0.07
-2.520e-06,0.06,-0.078
-2.516e-06,0.04,-0.078
-2.512e-06,0.04,-0.082
-2.508e-06,0.02,-0.082
-2.504e-06,0.02,-0.086
-2.500e-06,0,-0.09
-2.496e-06,-0.02,-0.094
-2.492e-06,-0.02,-0.098
-2.488e-06,-0.04,-0.098
-2.484e-06,-0.06,-0.098
-2.480e-06,-0.06,-0.102
-2.476e-06,-0.08,-0.106
-2.472e-06,-0.08,-0.106
-2.468e-06,-0.1,-0.11
-2.464e-06,-0.1,-0.114
-2.460e-06,-0.12,-0.114
-2.456e-06,-0.14,-0.118
-2.452e-06,-0.14,-0.118
-2.448e-06,-0.16,-0.122
-2.444e-06,-0.16,-0.122
-2.440e-06,-0.18,-0.126
-2.436e-06,-0.18,-0.13
-2.432e-06,-0.2,-0.13
-2.428e-06,-0.22,-0.13
-2.424e-06,-0.22,-0.134
-2.420e-06,-0.22,-0.134
-2.416e-06,-0.24,-0.134
-2.412e-06,-0.24,-0.134
-2.408e-06,-0.26,-0.134
-2.404e-06,-0.26,-0.138
-2.400e-06,-0.28,-0.138
-2.396e-06,-0.3,-0.138
-2.392e-06,-0.3,-0.142
-2.388e-06,-0.32,-0.146
-2.384e-06,-0.32,-0.142
-2.380e-06,-0.32,-0.146
-2.376e-06,-0.34,-0.146
-2.372e-06,-0.36,-0.146
-2.368e-06,-0.36,-0.146
-2.364e-06,-0.36,-0.142
-2.360e-06,-0.38,-0.146
-2.356e-06,-0.38,-0.146
-2.352e-06,-0.38,-0.142
-2.348e-06,-0.38,-0.146
-2.344e-06,-0.4,-0.146
-2.340e-06,-0.4,-0.142
-2.336e-06,-0.4,-0.142
-2.332e-06,-0.42,-0.142
-2.328e-06,-0.42,-0.142
-2.324e-06,-0.42,-0.142
-2.320e-06,-0.42,-0.138
-2.316e-06,-0.44,-0.138
-2.312e-06,-0.44,-0.138
-2.308e-06,-0.44,-0.138
-2.304e-06,-0.44,-0.138
-2.300e-06,-0.46,-0.134
-2.296e-06,-0.46,-0.134
-2.292e-06,-0.46,-0.13
-2.288e-06,-0.46,-0.13
-2.284e-06,-0.48,-0.126
-2.280e-06,-0.46,-0.126
-2.276e-06,-0.46,-0.122
-2.272e-06,-0.46,-0.122
-2.268e-06,-0.46,-0.118
-2.264e-06,-0.46,-0.118
-2.260e-06,-0.46,-0.114
-2.256e-06,-0.46,-0.114
-2.252e-06,-0.46,-0.11
-2.248e-06,-0.46,-0.11
-2.244e-06,-0.46,-0.11
-2.240e-06,-0.46,-0.102
-2.236e-06,-0.46,-0.098
-2.232e-06,-0.46,-0.102
-2.228e-06,-0.46,-0.094
-2.224e-06,-0.46,-0.094
-2.220e-06,-0.46,-0.09
-2.216e-06,-0.44,-0.086
-2.212e-06,-0.44,-0.082
-2.208e-06,-0.44,-0.082
-2.204e-06,-0.44,-0.078
-2.200e-06,-0.44,-0.074
-2.196e-06,-0.44,-0.07
-2.192e-06,-0.42,-0.07
-2.188e-06,-0.42,-0.066
-2.184e-06,-0.42,-0.062
-2.180e-06,-0.42,-0.058
-2.176e-06,-0.4,-0.054
-2.172e-06,-0.4,-0.05
-2.168e-06,-0.4,-0.05
-2.164e-06,-0.4,-0.046
-2.160e-06,-0.38,-0.042
-2.156e-06,-0.38,-0.038
-2.152e-06,-0.36,-0.034
-2.148e-06,-0.38,-0.03
-2.144e-06,-0.36,-0.03
-2.140e-06,-0.36,-0.022
-2.136e-06,-0.34,-0.018
-2.132e-06,-0.32,-0.018
-2.128e-06,-0.32,-0.014
-2.124e-06,-0.32,-0.01
-2.120e-06,-0.3,-0.006
-2.116e-06,-0.3,0.002
-2.112e-06,-0.28,0.006
-2.108e-06,-0.28,0.006
-2.104e-06,-0.28,0.014
-2.100e-06,-0.26,0.014
-2.096e-06,-0.24,0.018
-2.092e-06,-0.24,0.026
-2.088e-06,-0.24,0.026
-2.084e-06,-0.22,0.03
-2.080e-06,-0.2,0.034
-2.076e-06,-0.2,0.034
-2.072e-06,-0.18,0.038
-2.068e-06,-0.18,0.042
-2.064e-06,-0.16,0.046
-2.060e-06,-0.14,0.05
-2.056e-06,-0.14,0.054
-2.052e-06,-0.12,0.058
-2.048e-06,-0.12,0.062
-2.044e-06,-0.1,0.066
-2.040e-06,-0.1,0.07
-2.036e-06,-0.08,0.07
-2.032e-06,-0.06,0.074
-2.028e-06,-0.06,0.078
-2.024e-06,-0.04,0.082
-2.020e-06,-0.04,0.086
-2.016e-06,-0.02,0.086
-2.012e-06,0,0.09
-2.008e-06,0,0.094
-2.004e-06,0.02,0.098
-2.000e-06,0.02,0.098
-1.996e-06,0.04,0.102
-1.992e-06,0.06,0.106
-1.988e-06,0.06,0.11
-1.984e-06,0.08,0.11
-1.980e-06,0.1,0.114
-1.976e-06,0.1,0.118
-1.972e-06,0.12,0.118
-1.968e-06,0.14,0.122
-1.964e-06,0.14,0.126
-1.960e-06,0.16,0.126
-1.956e-06,0.16,0.13
-1.952e-06,0.18,0.13
-1.948e-06,0.18,0.134
-1.944e-06,0.2,0.134
-1.940e-06,0.2,0.138
-1.936e-06,0.22,0.138
-1.932e-06,0.22,0.138
-1.928e-06,0.24,0.142
-1.924e-06,0.24,0.142
-1.920e-06,0.26,0.146
-1.916e-06,0.28,0.142
-1.912e-06,0.28,0.146
-1.908e-06,0.3,0.146
-1.904e-06,0.3,0.15
-1.900e-06,0.32,0.15
-1.896e-06,0.32,0.15
-1.892e-06,0.34,0.154
-1.888e-06,0.34,0.154
-1.884e-06,0.34,0.154
-1.880e-06,0.36,0.154
-1.876e-06,0.36,0.15
-1.872e-06,0.38,0.154
-1.868e-06,0.4,0.154
-1.864e-06,0.4,0.154
-1.860e-06,0.4,0.154
-1.856e-06,0.4,0.154
-1.852e-06,0.42,0.15
-1.848e-06,0.42,0.154
-1.844e-06,0.44,0.154
-1.840e-06,0.42,0.154
-1.836e-06,0.44,0.154
-1.832e-06,0.44,0.15
-1.828e-06,0.46,0.15
-1.824e-06,0.46,0.154
-1.820e-06,0.48,0.15
-1.816e-06,0.48,0.15
-1.812e-06,0.48,0.15
-1.808e-06,0.48,0.146
-1.804e-06,0.48,0.146
-1.800e-06,0.5,0.142
-1.796e-06,0.5,0.142
-1.792e-06,0.5,0.138
-1.788e-06,0.5,0.138
-1.784e-06,0.48,0.138
-1.780e-06,0.5,0.134
-1.776e-06,0.5,0.13
-1.772e-06,0.5,0.13
-1.768e-06,0.5,0.13
-1.764e-06,0.5,0.126
-1.760e-06,0.5,0.126
-1.756e-06,0.5,0.122
-1.752e-06,0.5,0.122
-1.748e-06,0.5,0.118
-1.744e-06,0.52,0.114
-1.740e-06,0.52,0.114
-1.736e-06,0.5,0.11
-1.732e-06,0.5,0.106
-1.728e-06,0.5,0.106
-1.724e-06,0.5,0.102
-1.720e-06,0.5,0.098
-1.716e-06,0.5,0.094
-1.712e-06,0.5,0.094
-1.708e-06,0.5,0.09
-1.704e-06,0.48,0.086
-1.700e-06,0.48,0.086
-1.696e-06,0.46,0.078
-1.692e-06,0.48,0.078
-1.688e-06,0.48,0.074
-1.684e-06,0.46,0.074
-1.680e-06,0.46,0.07
-1.676e-06,0.46,0.066
-1.672e-06,0.46,0.062
-1.668e-06,0.44,0.058
-1.664e-06,0.44,0.054
-1.660e-06,0.42,0.05
-1.656e-06,0.42,0.05
-1.652e-06,0.4,0.046
-1.648e-06,0.4,0.038
-1.644e-06,0.4,0.038
-1.640e-06,0.38,0.03
-1.636e-06,0.38,0.026
-1.632e-06,0.36,0.026
-1.628e-06,0.36,0.018
-1.624e-06,0.34,0.018
-1.620e-06,0.34,0.014
-1.616e-06,0.32,0.01
-1.612e-06,0.32,0.006
-1.608e-06,0.3,0.002
-1.604e-06,0.3,-0.002
-1.600e-06,0.28,-0.006
-1.596e-06,0.28,-0.006
-1.592e-06,0.28,-0.01
-1.588e-06,0.26,-0.014
-1.584e-06,0.26,-0.018
-1.580e-06,0.24,-0.022
-1.576e-06,0.22,-0.026
-1.572e-06,0.22,-0.034
-1.568e-06,0.2,-0.034
-1.564e-06,0.18,-0.038
-1.560e-06,0.18,-0.042
-1.556e-06,0.16,-0.046
-1.552e-06,0.16,-0.05
-1.548e-06,0.16,-0.054
-1.544e-06,0.14,-0.054
-1.540e-06,0.12,-0.058
-1.536e-06,0.12,-0.062
-1.532e-06,0.1,-0.062
-1.528e-06,0.1,-0.066
-1.524e-06,0.08,-0.07
-1.520e-06,0.06,-0.074
-1.516e-06,0.06,-0.078
-1.512e-06,0.04,-0.078
-1.508e-06,0.04,-0.086
-1.504e-06,0.02,-0.086
-1.500e-06,0,-0.09
-1.496e-06,-0.02,-0.094
-1.492e-06,-0.02,-0.098
-1.488e-06,-0.04,-0.098
-1.484e-06,-0.04,-0.102
-1.480e-06,-0.06,-0.106
-1.476e-06,-0.08,-0.106
-1.472e-06,-0.08,-0.11
-1.468e-06,-0.1,-0.11
-1.464e-06,-0.1,-0.114
-1.460e-06,-0.12,-0.114
-1.456e-06,-0.14,-0.118
-1.452e-06,-0.14,-0.118
-1.448e-06,-0.14,-0.122
-1.444e-06,-0.16,-0.126
-1.440e-06,-0.18,-0.126
-1.436e-06,-0.18,-0.13
-1.432e-06,-0.2,-0.13
-1.428e-06,-0.2,-0.13
-1.424e-06,-0.22,-0.134
-1.420e-06,-0.24,-0.134
-1.416e-06,-0.24,-0.134
-1.412e-06,-0.26,-0.138
-1.408e-06,-0.26,-0.138
-1.404e-06,-0.28,-0.138
-1.400e-06,-0.28,-0.142
-1.396e-06,-0.3,-0.142
-1.392e-06,-0.3,-0.142
-1.388e-06,-0.3,-0.146
-1.384e-06,-0.3,-0.142
-1.380e-06,-0.32,-0.146
-1.376e-06,-0.32,-0.146
-1.372e-06,-0.34,-0.142
-1.368e-06,-0.34,-0.146
-1.364e-06,-0.36,-0.142
-1.360e-06,-0.38,-0.146
-1.356e-06,-0.38,-0.146
-1.352e-06,-0.38,-0.142
-1.348e-06,-0.4,-0.146
-1.344e-06,-0.4,-0.142
-1.340e-06,-0.4,-0.142
-1.336e-06,-0.4,-0.142
-1.332e-06,-0.4,-0.146
-1.328e-06,-0.42,-0.142
-1.324e-06,-0.44,-0.142
-1.320e-06,-0.42,-0.142
-1.316e-06,-0.42,-0.142
-1.312e-06,-0.44,-0.138
-1.308e-06,-0.44,-0.134
-1.304e-06,-0.46,-0.138
-1.300e-06,-0.44,-0.134
-1.296e-06,-0.44,-0.13
-1.292e-06,-0.46,-0.134
-1.288e-06,-0.46,-0.13
-1.284e-06,-0.46,-0.13
-1.280e-06,-0.46,-0.126
-1.276e-06,-0.46,-0.122
-1.272e-06,-0.48,-0.122
-1.268e-06,-0.48,-0.118
-1.264e-06,-0.48,-0.118
-1.260e-06,-0.46,-0.114
-1.256e-06,-0.46,-0.114
-1.252e-06,-0.46,-0.11
-1.248e-06,-0.46,-0.11
-1.244e-06,-0.46,-0.11
-1.240e-06,-0.46,-0.106
-1.236e-06,-0.46,-0.102
-1.232e-06,-0.46,-0.098
-1.228e-06,-0.46,-0.094
-1.224e-06,-0.46,-0.09
-1.220e-06,-0.46,-0.09
-1.216e-06,-0.44,-0.086
-1.212e-06,-0.44,-0.082
-1.208e-06,-0.44,-0.078
-1.204e-06,-0.44,-0.078
-1.200e-06,-0.44,-0.074
-1.196e-06,-0.44,-0.074
-1.192e-06,-0.44,-0.07
-1.188e-06,-0.42,-0.07
-1.184e-06,-0.42,-0.062
-1.180e-06,-0.42,-0.058
-1.176e-06,-0.4,-0.054
-1.172e-06,-0.4,-0.05
-1.168e-06,-0.4,-0.046
-1.164e-06,-0.4,-0.046
-1.160e-06,-0.38,-0.042
-1.156e-06,-0.38,-0.038
-1.152e-06,-0.36,-0.034
-1.148e-06,-0.38,-0.03
-1.144e-06,-0.36,-0.026
-1.140e-06,-0.34,-0.022
-1.136e-06,-0.34,-0.018
-1.132e-06,-0.34,-0.018
-1.128e-06,-0.32,-0.014
-1.124e-06,-0.3,-0.01
-1.120e-06,-0.32,-0.006
-1.116e-06,-0.3,0.002
-1.112e-06,-0.28,0.002
-1.108e-06,-0.28,0.006
-1.104e-06,-0.28,0.01
-1.100e-06,-0.26,0.01
-1.096e-06,-0.24,0.018
-1.092e-06,-0.24,0.026
-1.088e-06,-0.22,0.022
-1.084e-06,-0.22,0.03
-1.080e-06,-0.2,0.034
-1.076e-06,-0.18,0.038
-1.072e-06,-0.18,0.042
-1.068e-06,-0.18,0.042
-1.064e-06,-0.16,0.046
-1.060e-06,-0.16,0.054
-1.056e-06,-0.14,0.054
-1.052e-06,-0.14,0.058
-1.048e-06,-0.12,0.062
-1.044e-06,-0.1,0.062
-1.040e-06,-0.1,0.07
-1.036e-06,-0.08,0.07
-1.032e-06,-0.06,0.074
-1.028e-06,-0.06,0.078
-1.024e-06,-0.04,0.082
-1.020e-06,-0.04,0.086
-1.016e-06,-0.02,0.09
-1.012e-06,0,0.09
-1.008e-06,0,0.094
-1.004e-06,0.02,0.098
-1.000e-06,0.02,0.098
-9.960e-07,0.04,0.102
-9.920e-07,0.06,0.106
-9.880e-07,0.06,0.106
-9.840e-07,0.08,0.11
-9.800e-07,0.08,0.114
-9.760e-07,0.1,0.118
-9.720e-07,0.12,0.118
-9.680e-07,0.12,0.118
-9.640e-07,0.14,0.122
-9.600e-07,0.14,0.126
-9.560e-07,0.16,0.13
-9.520e-07,0.18,0.13
-9.480e-07,0.18,0.13
-9.440e-07,0.2,0.134
-9.400e-07,0.2,0.138
-9.360e-07,0.22,0.138
-9.320e-07,0.24,0.142
-9.280e-07,0.24,0.142
-9.240e-07,0.24,0.142
-9.200e-07,0.26,0.146
-9.160e-07,0.28,0.146
-9.120e-07,0.28,0.146
-9.080e-07,0.3,0.146
-9.040e-07,0.3,0.15
-9.000e-07,0.32,0.15
-8.960e-07,0.32,0.15
-8.920e-07,0.34,0.15
-8.880e-07,0.34,0.154
-8.840e-07,0.34,0.154
-8.800e-07,0.36,0.154
-8.760e-07,0.38,0.154
-8.720e-07,0.38,0.15
-8.680e-07,0.38,0.154
-8.640e-07,0.4,0.154
-8.600e-07,0.4,0.154
-8.560e-07,0.4,0.154
-8.520e-07,0.42,0.154
-8.480e-07,0.42,0.154
-8.440e-07,0.44,0.154
-8.400e-07,0.44,0.15
-8.360e-07,0.44,0.154
-8.320e-07,0.44,0.154
-8.280e-07,0.46,0.15
-8.240e-07,0.46,0.15
-8.200e-07,0.46,0.146
-8.160e-07,0.48,0.15
-8.120e-07,0.46,0.146
-8.080e-07,0.48,0.146
-8.040e-07,0.48,0.146
-8.000e-07,0.5,0.142
-7.960e-07,0.5,0.142
-7.920e-07,0.5,0.142
-7.880e-07,0.5,0.138
-7.840e-07,0.48,0.138
-7.800e-07,0.5,0.134
-7.760e-07,0.5,0.134
-7.720e-07,0.5,0.13
-7.680e-07,0.5,0.13
-7.640e-07,0.5,0.126
-7.600e-07,0.5,0.126
-7.560e-07,0.5,0.122
-7.520e-07,0.5,0.122
-7.480e-07,0.5,0.122
-7.440e-07,0.5,0.114
-7.400e-07,0.5,0.114
-7.360e-07,0.5,0.11
-7.320e-07,0.5,0.106
-7.280e-07,0.5,0.106
-7.240e-07,0.48,0.102
-7.200e-07,0.5,0.102
-7.160e-07,0.5,0.094
-7.120e-07,0.5,0.094
-7.080e-07,0.5,0.09
-7.040e-07,0.48,0.086
-7.000e-07,0.48,0.086
-6.960e-07,0.46,0.082
-6.920e-07,0.46,0.078
-6.880e-07,0.46,0.074
-6.840e-07,0.46,0.074
-6.800e-07,0.46,0.07
-6.760e-07,0.44,0.066
-6.720e-07,0.44,0.062
-6.680e-07,0.44,0.054
-6.640e-07,0.44,0.054
-6.600e-07,0.42,0.05
-6.560e-07,0.4,0.046
-6.520e-07,0.4,0.046
-6.480e-07,0.4,0.038
-6.440e-07,0.4,0.038
-6.400e-07,0.38,0.034
-6.360e-07,0.38,0.03
-6.320e-07,0.36,0.026
-6.280e-07,0.36,0.022
-6.240e-07,0.34,0.018
-6.200e-07,0.34,0.014
-6.160e-07,0.32,0.01
-6.120e-07,0.32,0.006
-6.080e-07,0.3,0.002
-6.040e-07,0.3,0.002
-6.000e-07,0.28,-0.002
-5.960e-07,0.28,-0.01
-5.920e-07,0.26,-0.014
-5.880e-07,0.26,-0.014
-5.840e-07,0.26,-0.022
-5.800e-07,0.22,-0.022
-5.760e-07,0.22,-0.026
-5.720e-07,0.22,-0.034
-5.680e-07,0.22,-0.03
-5.640e-07,0.2,-0.038
-5.600e-07,0.18,-0.042
-5.560e-07,0.18,-0.046
-5.520e-07,0.16,-0.05
-5.480e-07,0.16,-0.05
-5.440e-07,0.14,-0.054
-5.400e-07,0.12,-0.058
-5.360e-07,0.12,-0.062
-5.320e-07,0.1,-0.066
-5.280e-07,0.08,-0.07
-5.240e-07,0.06,-0.074
-5.200e-07,0.06,-0.074
-5.160e-07,0.06,-0.078
-5.120e-07,0.04,-0.082
-5.080e-07,0.02,-0.086
-5.040e-07,0.02,-0.086
-5.000e-07,0,-0.09
-4.960e-07,-0.02,-0.094
-4.920e-07,-0.02,-0.094
-4.880e-07,-0.04,-0.098
